\relax 
\providecommand\hyper@newdestlabel[2]{}
\providecommand\HyperFirstAtBeginDocument{\AtBeginDocument}
\HyperFirstAtBeginDocument{\ifx\hyper@anchor\@undefined
\global\let\oldcontentsline\contentsline
\gdef\contentsline#1#2#3#4{\oldcontentsline{#1}{#2}{#3}}
\global\let\oldnewlabel\newlabel
\gdef\newlabel#1#2{\newlabelxx{#1}#2}
\gdef\newlabelxx#1#2#3#4#5#6{\oldnewlabel{#1}{{#2}{#3}}}
\AtEndDocument{\ifx\hyper@anchor\@undefined
\let\contentsline\oldcontentsline
\let\newlabel\oldnewlabel
\fi}
\fi}
\global\let\hyper@last\relax 
\gdef\HyperFirstAtBeginDocument#1{#1}
\providecommand\HyField@AuxAddToFields[1]{}
\providecommand\HyField@AuxAddToCoFields[2]{}
\@writefile{lof}{\contentsline {figure}{\numberline {1}{\ignorespaces Original image}}{1}{figure.1}\protected@file@percent }
\newlabel{fig:original}{{1}{1}{Original image}{figure.1}{}}
\@writefile{lof}{\contentsline {figure}{\numberline {2}{\ignorespaces Filtered image using Sobel filter}}{1}{figure.2}\protected@file@percent }
\newlabel{fig:sobel}{{2}{1}{Filtered image using Sobel filter}{figure.2}{}}
\@writefile{lof}{\contentsline {figure}{\numberline {3}{\ignorespaces Color threshhold image}}{2}{figure.3}\protected@file@percent }
\newlabel{fig:color}{{3}{2}{Color threshhold image}{figure.3}{}}
\@writefile{lof}{\contentsline {figure}{\numberline {4}{\ignorespaces Bird's eye perspective}}{2}{figure.4}\protected@file@percent }
\newlabel{fig:bird}{{4}{2}{Bird's eye perspective}{figure.4}{}}
