PWD C:/Users/dhruv/Documents/UIUC/Sem8/ECE 498/ece-498/MP1/Report
INPUT c:/texlive/2018/texmf.cnf
INPUT c:/texlive/2018/texmf-dist/web2c/texmf.cnf
INPUT c:/texlive/2018/texmf-var/web2c/pdftex/pdflatex.fmt
INPUT mp1_report.tex
OUTPUT mp1_report.log
INPUT c:/texlive/2018/texmf-dist/tex/latex/base/article.cls
INPUT c:/texlive/2018/texmf-dist/tex/latex/base/article.cls
INPUT c:/texlive/2018/texmf-dist/tex/latex/base/size12.clo
INPUT c:/texlive/2018/texmf-dist/tex/latex/base/size12.clo
INPUT c:/texlive/2018/texmf-dist/fonts/map/fontname/texfonts.map
INPUT c:/texlive/2018/texmf-dist/fonts/tfm/public/cm/cmr12.tfm
OUTPUT mp1_report.log
INPUT c:/texlive/2018/texmf-dist/tex/latex/base/article.cls
INPUT c:/texlive/2018/texmf-dist/tex/latex/base/article.cls
INPUT c:/texlive/2018/texmf-dist/tex/latex/pgf/frontendlayer/tikz.sty
INPUT c:/texlive/2018/texmf-dist/tex/latex/pgf/frontendlayer/tikz.sty
INPUT c:/texlive/2018/texmf-dist/tex/latex/pgf/basiclayer/pgf.sty
INPUT c:/texlive/2018/texmf-dist/tex/latex/base/size12.clo
INPUT c:/texlive/2018/texmf-dist/tex/latex/base/size12.clo
gf.sty
INPUT c:/texlive/2018/texmf-dist/tex/latex/pgf/utilities/pgfrcs.sty
INPUT c:/texlive/2018/texmf-dist/tex/latex/pgf/utilities/pgfrcs.sty
INPUT c:/texlive/2018/texmf-dist/tex/generic/pgf/utilities/pgfutil-common.tex
INPUT c:/texlive/2018/texmf-dist/fonts/map/fontname/texfonts.map
INPUT c:/texlive/2018/texmf-dist/fonts/tfm/public/cm/cmr12.tfm
INPUT c:/texlive/2018/texmf-dist/tex/generic/pgf/utilities/pgfutil-common-lists.tex
INPUT c:/texlive/2018/texmf-dist/tex/generic/pgf/utilities/pgfutil-latex.def
INPUT c:/texlive/2018/texmf-dist/tex/latex/ms/everyshi.sty
INPUT c:/texlive/2018/texmf-dist/tex/latex/ms/everyshi.sty
INPUT c:/texlive/2018/texmf-dist/tex/generic/pgf/utilities/pgfrcs.code.tex
INPUT c:/texlive/2018/texmf-dist/tex/generic/pgf/utilities/pgfrcs.code.tex
INPUT c:/texlive/2018/texmf-dist/tex/latex/pgf/frontendlayer/tikz.sty
INPUT c:/texlive/2018/texmf-dist/tex/generic/pgf/pgf.revision.tex
INPUT c:/texlive/2018/texmf-dist/tex/latex/pgf/frontendlayer/tikz.sty
INPUT c:/texlive/2018/texmf-dist/tex/latex/pgf/basiclayer/pgf.sty
INPUT c:/texlive/2018/texmf-dist/tex/generic/pgf/pgf.revision.tex
INPUT c:/texlive/2018/texmf-dist/tex/latex/pgf/basiclayer/pgf.sty
INPUT c:/texlive/2018/texmf-dist/tex/latex/pgf/basiclayer/pgfcore.sty
INPUT c:/texlive/2018/texmf-dist/tex/latex/pgf/utilities/pgfrcs.sty
INPUT c:/texlive/2018/texmf-dist/tex/latex/pgf/basiclayer/pgfcore.sty
INPUT c:/texlive/2018/texmf-dist/tex/latex/pgf/utilities/pgfrcs.sty
INPUT c:/texlive/2018/texmf-dist/tex/generic/pgf/utilities/pgfutil-common.tex
INPUT c:/texlive/2018/texmf-dist/tex/latex/graphics/graphicx.sty
INPUT c:/texlive/2018/texmf-dist/tex/latex/graphics/graphicx.sty
INPUT c:/texlive/2018/texmf-dist/tex/latex/graphics/keyval.sty
INPUT c:/texlive/2018/texmf-dist/tex/latex/graphics/keyval.sty
INPUT c:/texlive/2018/texmf-dist/tex/latex/graphics/graphics.sty
INPUT c:/texlive/2018/texmf-dist/tex/generic/pgf/utilities/pgfutil-common-lists.tex
INPUT c:/texlive/2018/texmf-dist/tex/latex/graphics/graphics.sty
INPUT c:/texlive/2018/texmf-dist/tex/latex/graphics/trig.sty
INPUT c:/texlive/2018/texmf-dist/tex/latex/graphics/trig.sty
INPUT c:/texlive/2018/texmf-dist/tex/latex/graphics-cfg/graphics.cfg
INPUT c:/texlive/2018/texmf-dist/tex/latex/graphics-cfg/graphics.cfg
INPUT c:/texlive/2018/texmf-dist/tex/latex/graphics-def/pdftex.def
INPUT c:/texlive/2018/texmf-dist/tex/generic/pgf/utilities/pgfutil-latex.def
INPUT c:/texlive/2018/texmf-dist/tex/latex/graphics-def/pdftex.def
INPUT c:/texlive/2018/texmf-dist/tex/latex/ms/everyshi.sty
INPUT c:/texlive/2018/texmf-dist/tex/latex/ms/everyshi.sty
INPUT c:/texlive/2018/texmf-dist/tex/generic/pgf/utilities/pgfrcs.code.tex
INPUT c:/texlive/2018/texmf-dist/tex/generic/pgf/utilities/pgfrcs.code.tex
INPUT c:/texlive/2018/texmf-dist/tex/generic/pgf/pgf.revision.tex
INPUT c:/texlive/2018/texmf-dist/tex/generic/pgf/pgf.revision.tex
INPUT c:/texlive/2018/texmf-dist/tex/latex/pgf/systemlayer/pgfsys.sty
INPUT c:/texlive/2018/texmf-dist/tex/latex/pgf/basiclayer/pgfcore.sty
INPUT c:/texlive/2018/texmf-dist/tex/latex/pgf/basiclayer/pgfcore.sty
INPUT c:/texlive/2018/texmf-dist/tex/latex/pgf/systemlayer/pgfsys.sty
INPUT c:/texlive/2018/texmf-dist/tex/latex/graphics/graphicx.sty
INPUT c:/texlive/2018/texmf-dist/tex/generic/pgf/systemlayer/pgfsys.code.tex
INPUT c:/texlive/2018/texmf-dist/tex/generic/pgf/systemlayer/pgfsys.code.tex
INPUT c:/texlive/2018/texmf-dist/tex/latex/graphics/graphicx.sty
INPUT c:/texlive/2018/texmf-dist/tex/generic/pgf/utilities/pgfkeys.code.tex
INPUT c:/texlive/2018/texmf-dist/tex/latex/graphics/keyval.sty
INPUT c:/texlive/2018/texmf-dist/tex/latex/graphics/keyval.sty
INPUT c:/texlive/2018/texmf-dist/tex/latex/graphics/graphics.sty
INPUT c:/texlive/2018/texmf-dist/tex/latex/graphics/graphics.sty
INPUT c:/texlive/2018/texmf-dist/tex/latex/graphics/trig.sty
INPUT c:/texlive/2018/texmf-dist/tex/latex/graphics/trig.sty
INPUT c:/texlive/2018/texmf-dist/tex/latex/graphics-cfg/graphics.cfg
INPUT c:/texlive/2018/texmf-dist/tex/latex/graphics-cfg/graphics.cfg
INPUT c:/texlive/2018/texmf-dist/tex/latex/graphics-def/pdftex.def
INPUT c:/texlive/2018/texmf-dist/tex/latex/graphics-def/pdftex.def
INPUT c:/texlive/2018/texmf-dist/tex/generic/pgf/utilities/pgfkeysfiltered.code.tex
INPUT c:/texlive/2018/texmf-dist/tex/latex/pgf/systemlayer/pgfsys.sty
INPUT c:/texlive/2018/texmf-dist/tex/latex/pgf/systemlayer/pgfsys.sty
INPUT c:/texlive/2018/texmf-dist/tex/generic/pgf/systemlayer/pgfsys.code.tex
INPUT c:/texlive/2018/texmf-dist/tex/generic/pgf/systemlayer/pgfsys.code.tex
INPUT c:/texlive/2018/texmf-dist/tex/generic/pgf/utilities/pgfkeys.code.tex
INPUT c:/texlive/2018/texmf-dist/tex/generic/pgf/systemlayer/pgf.cfg
INPUT c:/texlive/2018/texmf-dist/tex/generic/pgf/utilities/pgfkeysfiltered.code.tex
INPUT c:/texlive/2018/texmf-dist/tex/generic/pgf/systemlayer/pgfsys-pdftex.def
INPUT c:/texlive/2018/texmf-dist/tex/generic/pgf/systemlayer/pgfsys-pdftex.def
INPUT c:/texlive/2018/texmf-dist/tex/generic/pgf/systemlayer/pgfsys-common-pdf.def
INPUT c:/texlive/2018/texmf-dist/tex/generic/pgf/systemlayer/pgfsyssoftpath.code.tex
INPUT c:/texlive/2018/texmf-dist/tex/generic/pgf/systemlayer/pgfsyssoftpath.code.tex
INPUT c:/texlive/2018/texmf-dist/tex/generic/pgf/systemlayer/pgfsysprotocol.code.tex
INPUT c:/texlive/2018/texmf-dist/tex/generic/pgf/systemlayer/pgfsysprotocol.code.tex
INPUT c:/texlive/2018/texmf-dist/tex/latex/xcolor/xcolor.sty
INPUT c:/texlive/2018/texmf-dist/tex/latex/xcolor/xcolor.sty
INPUT c:/texlive/2018/texmf-dist/tex/latex/graphics-cfg/color.cfg
INPUT c:/texlive/2018/texmf-dist/tex/latex/graphics-cfg/color.cfg
INPUT c:/texlive/2018/texmf-dist/tex/generic/pgf/systemlayer/pgf.cfg
INPUT c:/texlive/2018/texmf-dist/tex/generic/pgf/systemlayer/pgfsys-pdftex.def
INPUT c:/texlive/2018/texmf-dist/tex/generic/pgf/systemlayer/pgfsys-pdftex.def
INPUT c:/texlive/2018/texmf-dist/tex/generic/pgf/systemlayer/pgfsys-common-pdf.def
INPUT c:/texlive/2018/texmf-dist/tex/generic/pgf/systemlayer/pgfsyssoftpath.code.tex
INPUT c:/texlive/2018/texmf-dist/tex/generic/pgf/systemlayer/pgfsyssoftpath.code.tex
INPUT c:/texlive/2018/texmf-dist/tex/generic/pgf/systemlayer/pgfsysprotocol.code.tex
INPUT c:/texlive/2018/texmf-dist/tex/generic/pgf/systemlayer/pgfsysprotocol.code.tex
INPUT c:/texlive/2018/texmf-dist/tex/generic/pgf/basiclayer/pgfcore.code.tex
INPUT c:/texlive/2018/texmf-dist/tex/latex/xcolor/xcolor.sty
INPUT c:/texlive/2018/texmf-dist/tex/latex/xcolor/xcolor.sty
INPUT c:/texlive/2018/texmf-dist/tex/generic/pgf/math/pgfmath.code.tex
INPUT c:/texlive/2018/texmf-dist/tex/generic/pgf/math/pgfmathcalc.code.tex
INPUT c:/texlive/2018/texmf-dist/tex/generic/pgf/math/pgfmathutil.code.tex
INPUT c:/texlive/2018/texmf-dist/tex/latex/graphics-cfg/color.cfg
INPUT c:/texlive/2018/texmf-dist/tex/generic/pgf/math/pgfmathparser.code.tex
INPUT c:/texlive/2018/texmf-dist/tex/latex/graphics-cfg/color.cfg
INPUT c:/texlive/2018/texmf-dist/tex/generic/pgf/math/pgfmathfunctions.code.tex
INPUT c:/texlive/2018/texmf-dist/tex/generic/pgf/math/pgfmathfunctions.basic.code.tex
INPUT c:/texlive/2018/texmf-dist/tex/generic/pgf/math/pgfmathfunctions.trigonometric.code.tex
INPUT c:/texlive/2018/texmf-dist/tex/generic/pgf/basiclayer/pgfcore.code.tex
INPUT c:/texlive/2018/texmf-dist/tex/generic/pgf/math/pgfmath.code.tex
INPUT c:/texlive/2018/texmf-dist/tex/generic/pgf/math/pgfmathcalc.code.tex
INPUT c:/texlive/2018/texmf-dist/tex/generic/pgf/math/pgfmathutil.code.tex
INPUT c:/texlive/2018/texmf-dist/tex/generic/pgf/math/pgfmathparser.code.tex
INPUT c:/texlive/2018/texmf-dist/tex/generic/pgf/math/pgfmathfunctions.code.tex
INPUT c:/texlive/2018/texmf-dist/tex/generic/pgf/math/pgfmathfunctions.basic.code.tex
INPUT c:/texlive/2018/texmf-dist/tex/generic/pgf/math/pgfmathfunctions.random.code.tex
INPUT c:/texlive/2018/texmf-dist/tex/generic/pgf/math/pgfmathfunctions.comparison.code.tex
INPUT c:/texlive/2018/texmf-dist/tex/generic/pgf/math/pgfmathfunctions.base.code.tex
INPUT c:/texlive/2018/texmf-dist/tex/generic/pgf/math/pgfmathfunctions.trigonometric.code.tex
INPUT c:/texlive/2018/texmf-dist/tex/generic/pgf/math/pgfmathfunctions.round.code.tex
INPUT c:/texlive/2018/texmf-dist/tex/generic/pgf/math/pgfmathfunctions.misc.code.tex
INPUT c:/texlive/2018/texmf-dist/tex/generic/pgf/math/pgfmathfunctions.integerarithmetics.code.tex
INPUT c:/texlive/2018/texmf-dist/tex/generic/pgf/math/pgfmathfloat.code.tex
INPUT c:/texlive/2018/texmf-dist/tex/generic/pgf/math/pgfmathfunctions.random.code.tex
INPUT c:/texlive/2018/texmf-dist/tex/generic/pgf/math/pgfmathfunctions.comparison.code.tex
INPUT c:/texlive/2018/texmf-dist/tex/generic/pgf/math/pgfmathfunctions.base.code.tex
INPUT c:/texlive/2018/texmf-dist/tex/generic/pgf/math/pgfmathfunctions.round.code.tex
INPUT c:/texlive/2018/texmf-dist/tex/generic/pgf/math/pgfmathfunctions.misc.code.tex
INPUT c:/texlive/2018/texmf-dist/tex/generic/pgf/math/pgfmathfunctions.integerarithmetics.code.tex
INPUT c:/texlive/2018/texmf-dist/tex/generic/pgf/basiclayer/pgfcorepoints.code.tex
INPUT c:/texlive/2018/texmf-dist/tex/generic/pgf/math/pgfmathfloat.code.tex
INPUT c:/texlive/2018/texmf-dist/tex/generic/pgf/basiclayer/pgfcorepathconstruct.code.tex
INPUT c:/texlive/2018/texmf-dist/tex/generic/pgf/basiclayer/pgfcorepathusage.code.tex
INPUT c:/texlive/2018/texmf-dist/tex/generic/pgf/basiclayer/pgfcorescopes.code.tex
INPUT c:/texlive/2018/texmf-dist/tex/generic/pgf/basiclayer/pgfcoregraphicstate.code.tex
INPUT c:/texlive/2018/texmf-dist/tex/generic/pgf/basiclayer/pgfcorepoints.code.tex
INPUT c:/texlive/2018/texmf-dist/tex/generic/pgf/basiclayer/pgfcoretransformations.code.tex
INPUT c:/texlive/2018/texmf-dist/tex/generic/pgf/basiclayer/pgfcorequick.code.tex
INPUT c:/texlive/2018/texmf-dist/tex/generic/pgf/basiclayer/pgfcoreobjects.code.tex
INPUT c:/texlive/2018/texmf-dist/tex/generic/pgf/basiclayer/pgfcorepathconstruct.code.tex
INPUT c:/texlive/2018/texmf-dist/tex/generic/pgf/basiclayer/pgfcorepathprocessing.code.tex
INPUT c:/texlive/2018/texmf-dist/tex/generic/pgf/basiclayer/pgfcorearrows.code.tex
INPUT c:/texlive/2018/texmf-dist/tex/generic/pgf/basiclayer/pgfcorepathusage.code.tex
INPUT c:/texlive/2018/texmf-dist/tex/generic/pgf/basiclayer/pgfcorescopes.code.tex
INPUT c:/texlive/2018/texmf-dist/tex/generic/pgf/basiclayer/pgfcoreshade.code.tex
INPUT c:/texlive/2018/texmf-dist/tex/generic/pgf/basiclayer/pgfcoregraphicstate.code.tex
INPUT c:/texlive/2018/texmf-dist/tex/generic/pgf/basiclayer/pgfcoretransformations.code.tex
INPUT c:/texlive/2018/texmf-dist/tex/generic/pgf/basiclayer/pgfcoreimage.code.tex
INPUT c:/texlive/2018/texmf-dist/tex/generic/pgf/basiclayer/pgfcorequick.code.tex
INPUT c:/texlive/2018/texmf-dist/tex/generic/pgf/basiclayer/pgfcoreobjects.code.tex
INPUT c:/texlive/2018/texmf-dist/tex/generic/pgf/basiclayer/pgfcoreexternal.code.tex
INPUT c:/texlive/2018/texmf-dist/tex/generic/pgf/basiclayer/pgfcorepathprocessing.code.tex
INPUT c:/texlive/2018/texmf-dist/tex/generic/pgf/basiclayer/pgfcorearrows.code.tex
INPUT c:/texlive/2018/texmf-dist/tex/generic/pgf/basiclayer/pgfcorelayers.code.tex
INPUT c:/texlive/2018/texmf-dist/tex/generic/pgf/basiclayer/pgfcoretransparency.code.tex
INPUT c:/texlive/2018/texmf-dist/tex/generic/pgf/basiclayer/pgfcorepatterns.code.tex
INPUT c:/texlive/2018/texmf-dist/tex/generic/pgf/basiclayer/pgfcorerdf.code.tex
INPUT c:/texlive/2018/texmf-dist/tex/generic/pgf/modules/pgfmoduleshapes.code.tex
INPUT c:/texlive/2018/texmf-dist/tex/generic/pgf/basiclayer/pgfcoreshade.code.tex
INPUT c:/texlive/2018/texmf-dist/tex/generic/pgf/basiclayer/pgfcoreimage.code.tex
INPUT c:/texlive/2018/texmf-dist/tex/generic/pgf/basiclayer/pgfcoreexternal.code.tex
INPUT c:/texlive/2018/texmf-dist/tex/generic/pgf/modules/pgfmoduleplot.code.tex
INPUT c:/texlive/2018/texmf-dist/tex/latex/pgf/compatibility/pgfcomp-version-0-65.sty
INPUT c:/texlive/2018/texmf-dist/tex/generic/pgf/basiclayer/pgfcorelayers.code.tex
ty
INPUT c:/texlive/2018/texmf-dist/tex/generic/pgf/basiclayer/pgfcoretransparency.code.tex
INPUT c:/texlive/2018/texmf-dist/tex/generic/pgf/basiclayer/pgfcorepatterns.code.tex
INPUT c:/texlive/2018/texmf-dist/tex/latex/pgf/compatibility/pgfcomp-version-1-18.sty
INPUT c:/texlive/2018/texmf-dist/tex/generic/pgf/basiclayer/pgfcorerdf.code.tex
INPUT c:/texlive/2018/texmf-dist/tex/latex/pgf/compatibility/pgfcomp-version-1-18.sty
INPUT c:/texlive/2018/texmf-dist/tex/latex/pgf/utilities/pgffor.sty
INPUT c:/texlive/2018/texmf-dist/tex/generic/pgf/modules/pgfmoduleshapes.code.tex
INPUT c:/texlive/2018/texmf-dist/tex/latex/pgf/utilities/pgffor.sty
INPUT c:/texlive/2018/texmf-dist/tex/latex/pgf/utilities/pgfkeys.sty
INPUT c:/texlive/2018/texmf-dist/tex/latex/pgf/utilities/pgfkeys.sty
INPUT c:/texlive/2018/texmf-dist/tex/generic/pgf/utilities/pgfkeys.code.tex
INPUT c:/texlive/2018/texmf-dist/tex/generic/pgf/utilities/pgfkeys.code.tex
INPUT c:/texlive/2018/texmf-dist/tex/generic/pgf/modules/pgfmoduleplot.code.tex
INPUT c:/texlive/2018/texmf-dist/tex/latex/pgf/math/pgfmath.sty
INPUT c:/texlive/2018/texmf-dist/tex/latex/pgf/math/pgfmath.sty
INPUT c:/texlive/2018/texmf-dist/tex/latex/pgf/compatibility/pgfcomp-version-0-65.sty
INPUT c:/texlive/2018/texmf-dist/tex/generic/pgf/math/pgfmath.code.tex
INPUT c:/texlive/2018/texmf-dist/tex/latex/pgf/compatibility/pgfcomp-version-0-65.sty
INPUT c:/texlive/2018/texmf-dist/tex/generic/pgf/math/pgfmath.code.tex
INPUT c:/texlive/2018/texmf-dist/tex/generic/pgf/utilities/pgffor.code.tex
INPUT c:/texlive/2018/texmf-dist/tex/generic/pgf/utilities/pgffor.code.tex
INPUT c:/texlive/2018/texmf-dist/tex/generic/pgf/math/pgfmath.code.tex
INPUT c:/texlive/2018/texmf-dist/tex/latex/pgf/compatibility/pgfcomp-version-1-18.sty
INPUT c:/texlive/2018/texmf-dist/tex/latex/pgf/compatibility/pgfcomp-version-1-18.sty
INPUT c:/texlive/2018/texmf-dist/tex/latex/pgf/utilities/pgffor.sty
INPUT c:/texlive/2018/texmf-dist/tex/latex/pgf/utilities/pgffor.sty
INPUT c:/texlive/2018/texmf-dist/tex/latex/pgf/utilities/pgfkeys.sty
INPUT c:/texlive/2018/texmf-dist/tex/generic/pgf/frontendlayer/tikz/tikz.code.tex
INPUT c:/texlive/2018/texmf-dist/tex/latex/pgf/utilities/pgfkeys.sty
INPUT c:/texlive/2018/texmf-dist/tex/generic/pgf/frontendlayer/tikz/tikz.code.tex
INPUT c:/texlive/2018/texmf-dist/tex/generic/pgf/utilities/pgfkeys.code.tex
INPUT c:/texlive/2018/texmf-dist/tex/generic/pgf/libraries/pgflibraryplothandlers.code.tex
INPUT c:/texlive/2018/texmf-dist/tex/generic/pgf/utilities/pgfkeys.code.tex
INPUT c:/texlive/2018/texmf-dist/tex/generic/pgf/libraries/pgflibraryplothandlers.code.tex
INPUT c:/texlive/2018/texmf-dist/tex/latex/pgf/math/pgfmath.sty
INPUT c:/texlive/2018/texmf-dist/tex/latex/pgf/math/pgfmath.sty
INPUT c:/texlive/2018/texmf-dist/tex/generic/pgf/math/pgfmath.code.tex
INPUT c:/texlive/2018/texmf-dist/tex/generic/pgf/math/pgfmath.code.tex
INPUT c:/texlive/2018/texmf-dist/tex/generic/pgf/utilities/pgffor.code.tex
INPUT c:/texlive/2018/texmf-dist/tex/generic/pgf/utilities/pgffor.code.tex
INPUT c:/texlive/2018/texmf-dist/tex/generic/pgf/math/pgfmath.code.tex
INPUT c:/texlive/2018/texmf-dist/tex/generic/pgf/frontendlayer/tikz/tikz.code.tex
INPUT c:/texlive/2018/texmf-dist/tex/generic/pgf/frontendlayer/tikz/tikz.code.tex
INPUT c:/texlive/2018/texmf-dist/tex/generic/pgf/libraries/pgflibraryplothandlers.code.tex
INPUT c:/texlive/2018/texmf-dist/tex/generic/pgf/libraries/pgflibraryplothandlers.code.tex
INPUT c:/texlive/2018/texmf-dist/tex/generic/pgf/modules/pgfmodulematrix.code.tex
INPUT c:/texlive/2018/texmf-dist/tex/generic/pgf/modules/pgfmodulematrix.code.tex
INPUT c:/texlive/2018/texmf-dist/tex/generic/pgf/frontendlayer/tikz/libraries/tikzlibrarytopaths.code.tex
INPUT c:/texlive/2018/texmf-dist/tex/generic/pgf/frontendlayer/tikz/libraries/tikzlibrarytopaths.code.tex
INPUT c:/texlive/2018/texmf-dist/tex/generic/pgf/frontendlayer/tikz/libraries/tikzlibraryshapes.code.tex
INPUT c:/texlive/2018/texmf-dist/tex/generic/pgf/frontendlayer/tikz/libraries/tikzlibraryshapes.code.tex
INPUT c:/texlive/2018/texmf-dist/tex/generic/pgf/frontendlayer/tikz/libraries/tikzlibraryshapes.geometric.code.tex
INPUT c:/texlive/2018/texmf-dist/tex/generic/pgf/frontendlayer/tikz/libraries/tikzlibraryshapes.geometric.code.tex
INPUT c:/texlive/2018/texmf-dist/tex/generic/pgf/libraries/shapes/pgflibraryshapes.geometric.code.tex
INPUT c:/texlive/2018/texmf-dist/tex/generic/pgf/libraries/shapes/pgflibraryshapes.geometric.code.tex
INPUT c:/texlive/2018/texmf-dist/tex/generic/pgf/frontendlayer/tikz/libraries/tikzlibrarytopaths.code.tex
INPUT c:/texlive/2018/texmf-dist/tex/generic/pgf/frontendlayer/tikz/libraries/tikzlibrarytopaths.code.tex
INPUT c:/texlive/2018/texmf-dist/tex/generic/pgf/frontendlayer/tikz/libraries/tikzlibraryshapes.code.tex
INPUT c:/texlive/2018/texmf-dist/tex/generic/pgf/frontendlayer/tikz/libraries/tikzlibraryshapes.code.tex
INPUT c:/texlive/2018/texmf-dist/tex/generic/pgf/frontendlayer/tikz/libraries/tikzlibraryshapes.geometric.code.tex
INPUT c:/texlive/2018/texmf-dist/tex/generic/pgf/frontendlayer/tikz/libraries/tikzlibraryshapes.geometric.code.tex
INPUT c:/texlive/2018/texmf-dist/tex/generic/pgf/frontendlayer/tikz/libraries/tikzlibraryshapes.misc.code.tex
INPUT c:/texlive/2018/texmf-dist/tex/generic/pgf/frontendlayer/tikz/libraries/tikzlibraryshapes.misc.code.tex
INPUT c:/texlive/2018/texmf-dist/tex/generic/pgf/libraries/shapes/pgflibraryshapes.geometric.code.tex
INPUT c:/texlive/2018/texmf-dist/tex/generic/pgf/libraries/shapes/pgflibraryshapes.misc.code.tex
INPUT c:/texlive/2018/texmf-dist/tex/generic/pgf/libraries/shapes/pgflibraryshapes.misc.code.tex
INPUT c:/texlive/2018/texmf-dist/tex/generic/pgf/frontendlayer/tikz/libraries/tikzlibraryshapes.symbols.code.tex
INPUT c:/texlive/2018/texmf-dist/tex/generic/pgf/frontendlayer/tikz/libraries/tikzlibraryshapes.symbols.code.tex
INPUT c:/texlive/2018/texmf-dist/tex/generic/pgf/libraries/shapes/pgflibraryshapes.symbols.code.tex
INPUT c:/texlive/2018/texmf-dist/tex/generic/pgf/libraries/shapes/pgflibraryshapes.symbols.code.tex
INPUT c:/texlive/2018/texmf-dist/tex/generic/pgf/frontendlayer/tikz/libraries/tikzlibraryshapes.misc.code.tex
INPUT c:/texlive/2018/texmf-dist/tex/generic/pgf/frontendlayer/tikz/libraries/tikzlibraryshapes.misc.code.tex
INPUT c:/texlive/2018/texmf-dist/tex/generic/pgf/libraries/shapes/pgflibraryshapes.misc.code.tex
INPUT c:/texlive/2018/texmf-dist/tex/generic/pgf/libraries/shapes/pgflibraryshapes.misc.code.tex
INPUT c:/texlive/2018/texmf-dist/tex/generic/pgf/frontendlayer/tikz/libraries/tikzlibraryshapes.arrows.code.tex
INPUT c:/texlive/2018/texmf-dist/tex/generic/pgf/frontendlayer/tikz/libraries/tikzlibraryshapes.arrows.code.tex
INPUT c:/texlive/2018/texmf-dist/tex/generic/pgf/libraries/shapes/pgflibraryshapes.arrows.code.tex
INPUT c:/texlive/2018/texmf-dist/tex/generic/pgf/libraries/shapes/pgflibraryshapes.arrows.code.tex
INPUT c:/texlive/2018/texmf-dist/tex/generic/pgf/frontendlayer/tikz/libraries/tikzlibraryshapes.symbols.code.tex
INPUT c:/texlive/2018/texmf-dist/tex/generic/pgf/frontendlayer/tikz/libraries/tikzlibraryshapes.symbols.code.tex
INPUT c:/texlive/2018/texmf-dist/tex/generic/pgf/libraries/shapes/pgflibraryshapes.symbols.code.tex
INPUT c:/texlive/2018/texmf-dist/tex/generic/pgf/libraries/shapes/pgflibraryshapes.symbols.code.tex
INPUT c:/texlive/2018/texmf-dist/tex/generic/pgf/frontendlayer/tikz/libraries/tikzlibraryshapes.callouts.code.tex
INPUT c:/texlive/2018/texmf-dist/tex/generic/pgf/frontendlayer/tikz/libraries/tikzlibraryshapes.callouts.code.tex
INPUT c:/texlive/2018/texmf-dist/tex/generic/pgf/libraries/shapes/pgflibraryshapes.callouts.code.tex
INPUT c:/texlive/2018/texmf-dist/tex/generic/pgf/libraries/shapes/pgflibraryshapes.callouts.code.tex
INPUT c:/texlive/2018/texmf-dist/tex/generic/pgf/frontendlayer/tikz/libraries/tikzlibraryshapes.arrows.code.tex
INPUT c:/texlive/2018/texmf-dist/tex/generic/pgf/frontendlayer/tikz/libraries/tikzlibraryshapes.arrows.code.tex
INPUT c:/texlive/2018/texmf-dist/tex/generic/pgf/libraries/shapes/pgflibraryshapes.arrows.code.tex
INPUT c:/texlive/2018/texmf-dist/tex/generic/pgf/frontendlayer/tikz/libraries/tikzlibraryshapes.multipart.code.tex
INPUT c:/texlive/2018/texmf-dist/tex/generic/pgf/libraries/shapes/pgflibraryshapes.arrows.code.tex
INPUT c:/texlive/2018/texmf-dist/tex/generic/pgf/frontendlayer/tikz/libraries/tikzlibraryshapes.multipart.code.tex
INPUT c:/texlive/2018/texmf-dist/tex/generic/pgf/libraries/shapes/pgflibraryshapes.multipart.code.tex
INPUT c:/texlive/2018/texmf-dist/tex/generic/pgf/libraries/shapes/pgflibraryshapes.multipart.code.tex
INPUT c:/texlive/2018/texmf-dist/tex/latex/preprint/fullpage.sty
INPUT c:/texlive/2018/texmf-dist/tex/generic/pgf/frontendlayer/tikz/libraries/tikzlibraryshapes.callouts.code.tex
INPUT c:/texlive/2018/texmf-dist/tex/latex/preprint/fullpage.sty
INPUT c:/texlive/2018/texmf-dist/tex/generic/pgf/frontendlayer/tikz/libraries/tikzlibraryshapes.callouts.code.tex
INPUT c:/texlive/2018/texmf-dist/tex/latex/float/float.sty
INPUT c:/texlive/2018/texmf-dist/tex/generic/pgf/libraries/shapes/pgflibraryshapes.callouts.code.tex
INPUT c:/texlive/2018/texmf-dist/tex/latex/float/float.sty
INPUT c:/texlive/2018/texmf-dist/tex/generic/pgf/libraries/shapes/pgflibraryshapes.callouts.code.tex
INPUT c:/texlive/2018/texmf-dist/tex/latex/base/fontenc.sty
INPUT c:/texlive/2018/texmf-dist/tex/latex/base/fontenc.sty
INPUT c:/texlive/2018/texmf-dist/tex/latex/base/t1enc.def
INPUT c:/texlive/2018/texmf-dist/tex/latex/base/t1enc.def
INPUT c:/texlive/2018/texmf-dist/tex/generic/pgf/frontendlayer/tikz/libraries/tikzlibraryshapes.multipart.code.tex
INPUT c:/texlive/2018/texmf-dist/tex/generic/pgf/frontendlayer/tikz/libraries/tikzlibraryshapes.multipart.code.tex
INPUT c:/texlive/2018/texmf-dist/tex/generic/pgf/libraries/shapes/pgflibraryshapes.multipart.code.tex
INPUT c:/texlive/2018/texmf-dist/fonts/tfm/jknappen/ec/ecrm1200.tfm
INPUT c:/texlive/2018/texmf-dist/tex/generic/pgf/libraries/shapes/pgflibraryshapes.multipart.code.tex
INPUT c:/texlive/2018/texmf-dist/tex/latex/base/inputenc.sty
INPUT c:/texlive/2018/texmf-dist/tex/latex/base/inputenc.sty
INPUT c:/texlive/2018/texmf-dist/tex/latex/psnfss/palatino.sty
INPUT c:/texlive/2018/texmf-dist/tex/latex/psnfss/palatino.sty
INPUT c:/texlive/2018/texmf-dist/tex/latex/base/ifthen.sty
INPUT c:/texlive/2018/texmf-dist/tex/latex/base/ifthen.sty
INPUT c:/texlive/2018/texmf-dist/tex/latex/base/latexsym.sty
INPUT c:/texlive/2018/texmf-dist/tex/latex/base/latexsym.sty
INPUT c:/texlive/2018/texmf-dist/tex/latex/amsmath/amsmath.sty
INPUT c:/texlive/2018/texmf-dist/tex/latex/amsmath/amsmath.sty
INPUT c:/texlive/2018/texmf-dist/tex/latex/preprint/fullpage.sty
INPUT c:/texlive/2018/texmf-dist/tex/latex/preprint/fullpage.sty
INPUT c:/texlive/2018/texmf-dist/tex/latex/amsmath/amstext.sty
INPUT c:/texlive/2018/texmf-dist/tex/latex/amsmath/amstext.sty
INPUT c:/texlive/2018/texmf-dist/tex/latex/float/float.sty
INPUT c:/texlive/2018/texmf-dist/tex/latex/amsmath/amsgen.sty
INPUT c:/texlive/2018/texmf-dist/tex/latex/amsmath/amsgen.sty
INPUT c:/texlive/2018/texmf-dist/tex/latex/base/fontenc.sty
INPUT c:/texlive/2018/texmf-dist/tex/latex/amsmath/amsbsy.sty
INPUT c:/texlive/2018/texmf-dist/tex/latex/base/fontenc.sty
INPUT c:/texlive/2018/texmf-dist/tex/latex/amsmath/amsbsy.sty
INPUT c:/texlive/2018/texmf-dist/tex/latex/base/t1enc.def
INPUT c:/texlive/2018/texmf-dist/tex/latex/amsmath/amsopn.sty
INPUT c:/texlive/2018/texmf-dist/tex/latex/base/t1enc.def
INPUT c:/texlive/2018/texmf-dist/tex/latex/amsmath/amsopn.sty
INPUT c:/texlive/2018/texmf-dist/fonts/tfm/jknappen/ec/ecrm1200.tfm
INPUT c:/texlive/2018/texmf-dist/tex/latex/base/inputenc.sty
INPUT c:/texlive/2018/texmf-dist/tex/latex/base/inputenc.sty
INPUT c:/texlive/2018/texmf-dist/tex/latex/psnfss/palatino.sty
INPUT c:/texlive/2018/texmf-dist/tex/latex/psnfss/palatino.sty
INPUT c:/texlive/2018/texmf-dist/tex/latex/base/ifthen.sty
INPUT c:/texlive/2018/texmf-dist/tex/latex/base/ifthen.sty
INPUT c:/texlive/2018/texmf-dist/tex/latex/base/latexsym.sty
INPUT c:/texlive/2018/texmf-dist/tex/latex/base/latexsym.sty
INPUT c:/texlive/2018/texmf-dist/tex/latex/amsmath/amsmath.sty
INPUT c:/texlive/2018/texmf-dist/tex/latex/amsmath/amsmath.sty
INPUT c:/texlive/2018/texmf-dist/tex/latex/amscls/amsthm.sty
INPUT c:/texlive/2018/texmf-dist/tex/latex/amsmath/amstext.sty
INPUT c:/texlive/2018/texmf-dist/tex/latex/amscls/amsthm.sty
INPUT c:/texlive/2018/texmf-dist/tex/latex/amsmath/amstext.sty
INPUT c:/texlive/2018/texmf-dist/tex/latex/amsmath/amsgen.sty
INPUT c:/texlive/2018/texmf-dist/tex/latex/amsmath/amsgen.sty
INPUT c:/texlive/2018/texmf-dist/tex/latex/amsfonts/amssymb.sty
INPUT c:/texlive/2018/texmf-dist/tex/latex/amsmath/amsbsy.sty
INPUT c:/texlive/2018/texmf-dist/tex/latex/amsfonts/amssymb.sty
INPUT c:/texlive/2018/texmf-dist/tex/latex/amsmath/amsbsy.sty
INPUT c:/texlive/2018/texmf-dist/tex/latex/amsfonts/amsfonts.sty
INPUT c:/texlive/2018/texmf-dist/tex/latex/amsfonts/amsfonts.sty
INPUT c:/texlive/2018/texmf-dist/tex/latex/amsmath/amsopn.sty
INPUT c:/texlive/2018/texmf-dist/tex/latex/amsmath/amsopn.sty
INPUT c:/texlive/2018/texmf-dist/tex/latex/tools/xspace.sty
INPUT c:/texlive/2018/texmf-dist/tex/latex/tools/xspace.sty
INPUT c:/texlive/2018/texmf-dist/tex/latex/base/textcomp.sty
INPUT c:/texlive/2018/texmf-dist/tex/latex/base/textcomp.sty
INPUT c:/texlive/2018/texmf-dist/tex/latex/base/ts1enc.def
INPUT c:/texlive/2018/texmf-dist/tex/latex/base/ts1enc.def
INPUT c:/texlive/2018/texmf-dist/tex/latex/base/ts1enc.dfu
INPUT c:/texlive/2018/texmf-dist/tex/latex/base/ts1enc.dfu
INPUT c:/texlive/2018/texmf-dist/tex/latex/amscls/amsthm.sty
INPUT c:/texlive/2018/texmf-dist/tex/latex/amscls/amsthm.sty
INPUT c:/texlive/2018/texmf-dist/tex/latex/amsfonts/amssymb.sty
INPUT c:/texlive/2018/texmf-dist/tex/latex/jknapltx/mathrsfs.sty
INPUT c:/texlive/2018/texmf-dist/tex/latex/amsfonts/amssymb.sty
INPUT c:/texlive/2018/texmf-dist/tex/latex/jknapltx/mathrsfs.sty
INPUT c:/texlive/2018/texmf-dist/tex/latex/amsfonts/amsfonts.sty
INPUT c:/texlive/2018/texmf-dist/tex/latex/paralist/paralist.sty
INPUT c:/texlive/2018/texmf-dist/tex/latex/amsfonts/amsfonts.sty
INPUT c:/texlive/2018/texmf-dist/tex/latex/paralist/paralist.sty
INPUT c:/texlive/2018/texmf-dist/tex/latex/url/url.sty
INPUT c:/texlive/2018/texmf-dist/tex/latex/url/url.sty
INPUT c:/texlive/2018/texmf-dist/tex/latex/tools/xspace.sty
INPUT c:/texlive/2018/texmf-dist/tex/latex/listings/listings.sty
INPUT c:/texlive/2018/texmf-dist/tex/latex/tools/xspace.sty
INPUT c:/texlive/2018/texmf-dist/tex/latex/listings/listings.sty
INPUT c:/texlive/2018/texmf-dist/tex/latex/base/textcomp.sty
INPUT c:/texlive/2018/texmf-dist/tex/latex/base/textcomp.sty
INPUT c:/texlive/2018/texmf-dist/tex/latex/base/ts1enc.def
INPUT c:/texlive/2018/texmf-dist/tex/latex/base/ts1enc.def
INPUT c:/texlive/2018/texmf-dist/tex/latex/base/ts1enc.dfu
INPUT c:/texlive/2018/texmf-dist/tex/latex/base/ts1enc.dfu
INPUT c:/texlive/2018/texmf-dist/tex/latex/jknapltx/mathrsfs.sty
INPUT c:/texlive/2018/texmf-dist/tex/latex/listings/lstmisc.sty
INPUT c:/texlive/2018/texmf-dist/tex/latex/listings/lstmisc.sty

INPUT c:/texlive/2018/texmf-dist/tex/latex/paralist/paralist.sty
INPUT c:/texlive/2018/texmf-dist/tex/latex/paralist/paralist.sty
INPUT c:/texlive/2018/texmf-dist/tex/latex/url/url.sty
INPUT c:/texlive/2018/texmf-dist/tex/latex/url/url.sty
INPUT c:/texlive/2018/texmf-dist/tex/latex/listings/listings.sty
INPUT c:/texlive/2018/texmf-dist/tex/latex/listings/listings.sty
INPUT c:/texlive/2018/texmf-dist/tex/latex/listings/listings.cfg
INPUT c:/texlive/2018/texmf-dist/tex/latex/listings/listings.cfg
INPUT c:/texlive/2018/texmf-dist/tex/latex/framed/framed.sty
INPUT c:/texlive/2018/texmf-dist/tex/latex/framed/framed.sty
INPUT c:/texlive/2018/texmf-dist/tex/latex/lipsum/lipsum.sty
INPUT c:/texlive/2018/texmf-dist/tex/latex/lipsum/lipsum.sty
INPUT c:/texlive/2018/texmf-dist/tex/latex/l3kernel/expl3.sty
INPUT c:/texlive/2018/texmf-dist/tex/latex/listings/lstmisc.sty
INPUT c:/texlive/2018/texmf-dist/tex/latex/l3kernel/expl3.sty
INPUT c:/texlive/2018/texmf-dist/tex/latex/listings/lstmisc.sty
INPUT c:/texlive/2018/texmf-dist/tex/latex/l3kernel/expl3-code.tex
INPUT c:/texlive/2018/texmf-dist/tex/latex/l3kernel/expl3-code.tex
INPUT c:/texlive/2018/texmf-dist/tex/latex/listings/listings.cfg
INPUT c:/texlive/2018/texmf-dist/tex/latex/listings/listings.cfg
INPUT c:/texlive/2018/texmf-dist/tex/latex/framed/framed.sty
INPUT c:/texlive/2018/texmf-dist/tex/latex/framed/framed.sty
INPUT c:/texlive/2018/texmf-dist/tex/latex/lipsum/lipsum.sty
INPUT c:/texlive/2018/texmf-dist/tex/latex/lipsum/lipsum.sty
INPUT c:/texlive/2018/texmf-dist/tex/latex/l3kernel/expl3.sty
INPUT c:/texlive/2018/texmf-dist/tex/latex/l3kernel/expl3.sty
INPUT c:/texlive/2018/texmf-dist/tex/latex/l3kernel/expl3-code.tex
INPUT c:/texlive/2018/texmf-dist/tex/latex/l3kernel/expl3-code.tex
INPUT c:/texlive/2018/texmf-dist/fonts/tfm/public/cm/cmr10.tfm
INPUT c:/texlive/2018/texmf-dist/fonts/tfm/public/cm/cmr10.tfm
INPUT c:/texlive/2018/texmf-dist/fonts/tfm/public/cm/cmr10.tfm
INPUT c:/texlive/2018/texmf-dist/fonts/tfm/public/cm/cmr10.tfm
INPUT c:/texlive/2018/texmf-dist/fonts/tfm/public/cm/cmr10.tfm
INPUT c:/texlive/2018/texmf-dist/fonts/tfm/public/cm/cmr10.tfm
INPUT c:/texlive/2018/texmf-dist/fonts/tfm/public/cm/cmr10.tfm
INPUT c:/texlive/2018/texmf-dist/fonts/tfm/public/cm/cmr10.tfm
INPUT c:/texlive/2018/texmf-dist/fonts/tfm/public/cm/cmr10.tfm
INPUT c:/texlive/2018/texmf-dist/fonts/tfm/public/cm/cmr10.tfm
INPUT c:/texlive/2018/texmf-dist/fonts/tfm/public/cm/cmr10.tfm
INPUT c:/texlive/2018/texmf-dist/fonts/tfm/public/cm/cmr10.tfm
INPUT c:/texlive/2018/texmf-dist/fonts/tfm/public/cm/cmr10.tfm
INPUT c:/texlive/2018/texmf-dist/fonts/tfm/public/cm/cmr10.tfm
INPUT c:/texlive/2018/texmf-dist/fonts/tfm/public/cm/cmr10.tfm
INPUT c:/texlive/2018/texmf-dist/fonts/tfm/public/cm/cmr10.tfm
INPUT c:/texlive/2018/texmf-dist/tex/generic/unicode-data/UnicodeData.txt
INPUT c:/texlive/2018/texmf-dist/fonts/tfm/public/cm/cmr10.tfm
INPUT c:/texlive/2018/texmf-dist/tex/generic/unicode-data/UnicodeData.txt
INPUT c:/texlive/2018/texmf-dist/fonts/tfm/public/cm/cmr10.tfm
INPUT c:/texlive/2018/texmf-dist/fonts/tfm/public/cm/cmr10.tfm
INPUT nul
INPUT nul
INPUT c:/texlive/2018/texmf-dist/tex/generic/unicode-data/UnicodeData.txt
INPUT c:/texlive/2018/texmf-dist/tex/generic/unicode-data/UnicodeData.txt
INPUT nul
INPUT nul
INPUT c:/texlive/2018/texmf-dist/tex/latex/l3kernel/l3pdfmode.def
INPUT c:/texlive/2018/texmf-dist/tex/latex/l3kernel/l3pdfmode.def
INPUT c:/texlive/2018/texmf-dist/tex/latex/l3packages/xparse/xparse.sty
INPUT c:/texlive/2018/texmf-dist/tex/latex/l3packages/xparse/xparse.sty
INPUT c:/texlive/2018/texmf-dist/tex/latex/l3kernel/l3pdfmode.def
INPUT c:/texlive/2018/texmf-dist/tex/latex/l3kernel/l3pdfmode.def
INPUT c:/texlive/2018/texmf-dist/tex/latex/l3packages/xparse/xparse.sty
INPUT c:/texlive/2018/texmf-dist/tex/latex/l3packages/xparse/xparse.sty
INPUT c:/texlive/2018/texmf-dist/tex/latex/lipsum/lipsum.ltd.tex
INPUT c:/texlive/2018/texmf-dist/tex/latex/lipsum/lipsum.ltd.tex
INPUT c:/texlive/2018/texmf-dist/tex/latex/lipsum/lipsum.ltd.tex
INPUT c:/texlive/2018/texmf-dist/tex/latex/lipsum/lipsum.ltd.tex
INPUT c:/texlive/2018/texmf-dist/tex/latex/hyperref/hyperref.sty
INPUT c:/texlive/2018/texmf-dist/tex/latex/hyperref/hyperref.sty
INPUT c:/texlive/2018/texmf-dist/tex/generic/oberdiek/hobsub-hyperref.sty
INPUT c:/texlive/2018/texmf-dist/tex/generic/oberdiek/hobsub-hyperref.sty
INPUT c:/texlive/2018/texmf-dist/tex/generic/oberdiek/hobsub-hyperref.sty
INPUT c:/texlive/2018/texmf-dist/tex/generic/oberdiek/hobsub-generic.sty
INPUT c:/texlive/2018/texmf-dist/tex/generic/oberdiek/hobsub-generic.sty
INPUT c:/texlive/2018/texmf-dist/tex/latex/hyperref/hyperref.sty
INPUT c:/texlive/2018/texmf-dist/tex/latex/hyperref/hyperref.sty
INPUT c:/texlive/2018/texmf-dist/tex/generic/oberdiek/hobsub-hyperref.sty
INPUT c:/texlive/2018/texmf-dist/tex/generic/oberdiek/hobsub-hyperref.sty
INPUT c:/texlive/2018/texmf-dist/tex/generic/oberdiek/hobsub-hyperref.sty
INPUT c:/texlive/2018/texmf-dist/tex/generic/oberdiek/hobsub-generic.sty
INPUT c:/texlive/2018/texmf-dist/tex/generic/oberdiek/hobsub-generic.sty
INPUT c:/texlive/2018/texmf-dist/tex/generic/ifxetex/ifxetex.sty
INPUT c:/texlive/2018/texmf-dist/tex/generic/ifxetex/ifxetex.sty
INPUT c:/texlive/2018/texmf-dist/tex/latex/oberdiek/auxhook.sty
INPUT c:/texlive/2018/texmf-dist/tex/latex/oberdiek/auxhook.sty
INPUT c:/texlive/2018/texmf-dist/tex/latex/oberdiek/kvoptions.sty
INPUT c:/texlive/2018/texmf-dist/tex/latex/oberdiek/kvoptions.sty
INPUT c:/texlive/2018/texmf-dist/tex/generic/ifxetex/ifxetex.sty
INPUT c:/texlive/2018/texmf-dist/tex/generic/ifxetex/ifxetex.sty
INPUT c:/texlive/2018/texmf-dist/tex/latex/oberdiek/auxhook.sty
INPUT c:/texlive/2018/texmf-dist/tex/latex/oberdiek/auxhook.sty
INPUT c:/texlive/2018/texmf-dist/tex/latex/hyperref/pd1enc.def
INPUT c:/texlive/2018/texmf-dist/tex/latex/oberdiek/kvoptions.sty
INPUT c:/texlive/2018/texmf-dist/tex/latex/oberdiek/kvoptions.sty
INPUT c:/texlive/2018/texmf-dist/tex/latex/hyperref/pd1enc.def
INPUT c:/texlive/2018/texmf-dist/tex/latex/hyperref/pd1enc.def
INPUT c:/texlive/2018/texmf-dist/tex/latex/latexconfig/hyperref.cfg
INPUT c:/texlive/2018/texmf-dist/tex/latex/latexconfig/hyperref.cfg
INPUT c:/texlive/2018/texmf-dist/tex/latex/latexconfig/hyperref.cfg
INPUT c:/texlive/2018/texmf-dist/tex/latex/latexconfig/hyperref.cfg
INPUT c:/texlive/2018/texmf-dist/tex/latex/hyperref/hpdftex.def
INPUT c:/texlive/2018/texmf-dist/tex/latex/hyperref/hpdftex.def
INPUT c:/texlive/2018/texmf-dist/tex/latex/oberdiek/rerunfilecheck.sty
INPUT c:/texlive/2018/texmf-dist/tex/latex/hyperref/hpdftex.def
INPUT c:/texlive/2018/texmf-dist/tex/latex/oberdiek/rerunfilecheck.sty
INPUT c:/texlive/2018/texmf-dist/tex/latex/hyperref/hpdftex.def
INPUT mp1_report.aux
INPUT mp1_report.aux
OUTPUT mp1_report.aux
INPUT c:/texlive/2018/texmf-dist/tex/latex/oberdiek/rerunfilecheck.sty
INPUT c:/texlive/2018/texmf-dist/tex/latex/base/ts1cmr.fd
INPUT c:/texlive/2018/texmf-dist/tex/latex/oberdiek/rerunfilecheck.sty
INPUT c:/texlive/2018/texmf-dist/tex/latex/base/ts1cmr.fd
INPUT c:/texlive/2018/texmf-dist/tex/latex/psnfss/t1ppl.fd
INPUT c:/texlive/2018/texmf-dist/tex/latex/psnfss/t1ppl.fd
INPUT c:/texlive/2018/texmf-dist/fonts/tfm/adobe/palatino/pplr8t.tfm
INPUT c:/texlive/2018/texmf-dist/tex/context/base/mkii/supp-pdf.mkii
INPUT c:/texlive/2018/texmf-dist/tex/context/base/mkii/supp-pdf.mkii
INPUT mp1_report.aux
INPUT mp1_report.aux
OUTPUT mp1_report.aux
INPUT c:/texlive/2018/texmf-dist/tex/latex/base/ts1cmr.fd
INPUT c:/texlive/2018/texmf-dist/tex/latex/base/ts1cmr.fd
INPUT c:/texlive/2018/texmf-dist/tex/latex/psnfss/t1ppl.fd
INPUT c:/texlive/2018/texmf-dist/tex/latex/psnfss/t1ppl.fd
INPUT c:/texlive/2018/texmf-dist/fonts/tfm/adobe/palatino/pplr8t.tfm
INPUT c:/texlive/2018/texmf-dist/tex/context/base/mkii/supp-pdf.mkii
INPUT c:/texlive/2018/texmf-dist/tex/context/base/mkii/supp-pdf.mkii
INPUT c:/texlive/2018/texmf-dist/tex/latex/oberdiek/epstopdf-base.sty
INPUT c:/texlive/2018/texmf-dist/tex/latex/oberdiek/epstopdf-base.sty
INPUT c:/texlive/2018/texmf-dist/tex/latex/oberdiek/grfext.sty
INPUT c:/texlive/2018/texmf-dist/tex/latex/oberdiek/grfext.sty
INPUT c:/texlive/2018/texmf-dist/tex/latex/latexconfig/epstopdf-sys.cfg
INPUT c:/texlive/2018/texmf-dist/tex/latex/latexconfig/epstopdf-sys.cfg
INPUT c:/texlive/2018/texmf-dist/tex/latex/oberdiek/epstopdf-base.sty
INPUT c:/texlive/2018/texmf-dist/tex/latex/oberdiek/epstopdf-base.sty
INPUT c:/texlive/2018/texmf-dist/tex/latex/oberdiek/grfext.sty
INPUT c:/texlive/2018/texmf-dist/tex/latex/oberdiek/grfext.sty
INPUT c:/texlive/2018/texmf-dist/tex/latex/latexconfig/epstopdf-sys.cfg
INPUT c:/texlive/2018/texmf-dist/tex/latex/latexconfig/epstopdf-sys.cfg
INPUT c:/texlive/2018/texmf-dist/tex/generic/oberdiek/gettitlestring.sty
INPUT c:/texlive/2018/texmf-dist/tex/generic/oberdiek/gettitlestring.sty
INPUT mp1_report.out
INPUT mp1_report.out
INPUT mp1_report.out
INPUT mp1_report.out
INPUT c:/texlive/2018/texmf-dist/tex/latex/hyperref/nameref.sty
INPUT ./mp1_report.out
INPUT ./mp1_report.out
OUTPUT mp1_report.out
OUTPUT mp1_report.pdf
INPUT c:/texlive/2018/texmf-dist/tex/latex/hyperref/nameref.sty
INPUT c:/texlive/2018/texmf-dist/tex/generic/oberdiek/gettitlestring.sty
INPUT c:/texlive/2018/texmf-dist/tex/generic/oberdiek/gettitlestring.sty
INPUT c:/texlive/2018/texmf-dist/fonts/tfm/adobe/palatino/pplb8t.tfm
INPUT c:/texlive/2018/texmf-dist/fonts/tfm/adobe/palatino/pplri8t.tfm
INPUT c:/texlive/2018/texmf-dist/fonts/tfm/public/cm/cmr8.tfm
INPUT mp1_report.out
INPUT c:/texlive/2018/texmf-dist/fonts/tfm/public/cm/cmr6.tfm
INPUT mp1_report.out
INPUT mp1_report.out
INPUT mp1_report.out
INPUT ./mp1_report.out
INPUT ./mp1_report.out
INPUT c:/texlive/2018/texmf-dist/fonts/tfm/public/cm/cmmi12.tfm
OUTPUT mp1_report.out
OUTPUT mp1_report.pdf
INPUT c:/texlive/2018/texmf-dist/fonts/tfm/public/cm/cmmi8.tfm
INPUT c:/texlive/2018/texmf-dist/fonts/tfm/adobe/palatino/pplb8t.tfm
INPUT c:/texlive/2018/texmf-dist/fonts/tfm/public/cm/cmsy10.tfm
t.tfm
INPUT c:/texlive/2018/texmf-dist/fonts/tfm/public/cm/cmsy8.tfm
INPUT c:/texlive/2018/texmf-dist/fonts/tfm/public/cm/cmr8.tfm
INPUT c:/texlive/2018/texmf-dist/fonts/tfm/public/cm/cmsy6.tfm
INPUT c:/texlive/2018/texmf-dist/fonts/tfm/public/cm/cmex10.tfm
INPUT c:/texlive/2018/texmf-dist/fonts/tfm/public/cm/cmr6.tfm
INPUT c:/texlive/2018/texmf-dist/fonts/tfm/public/amsfonts/cmextra/cmex8.tfm
INPUT c:/texlive/2018/texmf-dist/fonts/tfm/public/cm/cmmi12.tfm
INPUT c:/texlive/2018/texmf-dist/fonts/tfm/public/amsfonts/cmextra/cmex7.tfm
INPUT c:/texlive/2018/texmf-dist/tex/latex/base/ulasy.fd
INPUT c:/texlive/2018/texmf-dist/tex/latex/base/ulasy.fd
INPUT c:/texlive/2018/texmf-dist/fonts/tfm/public/latex-fonts/lasy10.tfm
INPUT c:/texlive/2018/texmf-dist/fonts/tfm/public/cm/cmmi8.tfm
INPUT c:/texlive/2018/texmf-dist/fonts/tfm/public/latex-fonts/lasy8.tfm
INPUT c:/texlive/2018/texmf-dist/fonts/tfm/public/cm/cmmi6.tfm
INPUT c:/texlive/2018/texmf-dist/fonts/tfm/public/cm/cmsy10.tfm
INPUT c:/texlive/2018/texmf-dist/fonts/tfm/public/latex-fonts/lasy6.tfm
INPUT c:/texlive/2018/texmf-dist/fonts/tfm/public/cm/cmsy8.tfm
INPUT c:/texlive/2018/texmf-dist/tex/latex/amsfonts/umsa.fd
INPUT c:/texlive/2018/texmf-dist/fonts/tfm/public/cm/cmsy6.tfm
INPUT c:/texlive/2018/texmf-dist/fonts/tfm/public/cm/cmex10.tfm
INPUT c:/texlive/2018/texmf-dist/fonts/tfm/public/amsfonts/cmextra/cmex8.tfm
INPUT c:/texlive/2018/texmf-dist/fonts/tfm/public/amsfonts/symbols/msam10.tfm
INPUT c:/texlive/2018/texmf-dist/fonts/tfm/public/amsfonts/cmextra/cmex7.tfm
INPUT c:/texlive/2018/texmf-dist/fonts/tfm/public/amsfonts/symbols/msam10.tfm
INPUT c:/texlive/2018/texmf-dist/tex/latex/base/ulasy.fd
INPUT c:/texlive/2018/texmf-dist/tex/latex/base/ulasy.fd
INPUT c:/texlive/2018/texmf-dist/fonts/tfm/public/amsfonts/symbols/msam7.tfm
INPUT c:/texlive/2018/texmf-dist/tex/latex/amsfonts/umsb.fd
INPUT c:/texlive/2018/texmf-dist/fonts/tfm/public/latex-fonts/lasy10.tfm
INPUT c:/texlive/2018/texmf-dist/tex/latex/amsfonts/umsb.fd
INPUT c:/texlive/2018/texmf-dist/fonts/tfm/public/latex-fonts/lasy8.tfm
INPUT c:/texlive/2018/texmf-dist/fonts/tfm/public/latex-fonts/lasy6.tfm
INPUT c:/texlive/2018/texmf-dist/fonts/tfm/public/amsfonts/symbols/msbm10.tfm
INPUT c:/texlive/2018/texmf-dist/tex/latex/amsfonts/umsa.fd
INPUT c:/texlive/2018/texmf-dist/fonts/tfm/public/amsfonts/symbols/msbm10.tfm
INPUT c:/texlive/2018/texmf-dist/tex/latex/amsfonts/umsa.fd
INPUT c:/texlive/2018/texmf-dist/fonts/tfm/public/amsfonts/symbols/msbm7.tfm
INPUT c:/texlive/2018/texmf-dist/fonts/tfm/public/amsfonts/symbols/msam10.tfm
INPUT c:/texlive/2018/texmf-dist/tex/latex/jknapltx/ursfs.fd
INPUT c:/texlive/2018/texmf-dist/fonts/tfm/public/amsfonts/symbols/msam10.tfm
INPUT c:/texlive/2018/texmf-dist/fonts/tfm/public/rsfs/rsfs10.tfm
/msam7.tfm
INPUT c:/texlive/2018/texmf-dist/fonts/tfm/public/rsfs/rsfs10.tfm
INPUT c:/texlive/2018/texmf-dist/tex/latex/amsfonts/umsb.fd
INPUT c:/texlive/2018/texmf-dist/fonts/tfm/public/rsfs/rsfs5.tfm
INPUT c:/texlive/2018/texmf-dist/fonts/tfm/public/amsfonts/symbols/msbm10.tfm
INPUT c:/texlive/2018/texmf-dist/fonts/tfm/public/amsfonts/symbols/msbm10.tfm
INPUT c:/texlive/2018/texmf-dist/fonts/tfm/adobe/palatino/pplb8r.tfm
INPUT c:/texlive/2018/texmf-dist/fonts/tfm/public/amsfonts/symbols/msbm7.tfm
INPUT c:/texlive/2018/texmf-var/fonts/map/pdftex/updmap/pdftex.map
INPUT c:/texlive/2018/texmf-dist/tex/latex/jknapltx/ursfs.fd
INPUT c:/texlive/2018/texmf-dist/fonts/tfm/public/rsfs/rsfs10.tfm
INPUT c:/texlive/2018/texmf-dist/fonts/tfm/public/rsfs/rsfs10.tfm
INPUT c:/texlive/2018/texmf-dist/fonts/tfm/public/rsfs/rsfs5.tfm
INPUT c:/texlive/2018/texmf-dist/fonts/vf/adobe/palatino/pplb8t.vf
INPUT c:/texlive/2018/texmf-dist/fonts/tfm/adobe/palatino/pplb8r.tfm
INPUT c:/texlive/2018/texmf-var/fonts/map/pdftex/updmap/pdftex.map
INPUT c:/texlive/2018/texmf-dist/fonts/vf/adobe/palatino/pplr8t.vf
INPUT c:/texlive/2018/texmf-dist/fonts/tfm/adobe/palatino/pplr8r.tfm
INPUT c:/texlive/2018/texmf-dist/fonts/vf/adobe/palatino/pplri8t.vf
INPUT c:/texlive/2018/texmf-dist/fonts/tfm/adobe/palatino/pplri8r.tfm
INPUT mp1_report.aux
INPUT ./mp1_report.out
INPUT ./mp1_report.out
INPUT c:/texlive/2018/texmf-dist/fonts/enc/dvips/base/8r.enc
INPUT c:/texlive/2018/texmf-dist/fonts/vf/adobe/palatino/pplr8t.vf
INPUT c:/texlive/2018/texmf-dist/fonts/tfm/adobe/palatino/pplr8r.tfm
INPUT c:/texlive/2018/texmf-dist/fonts/type1/urw/palatino/uplb8a.pfb
INPUT c:/texlive/2018/texmf-dist/fonts/vf/adobe/palatino/pplri8t.vf
INPUT c:/texlive/2018/texmf-dist/fonts/tfm/adobe/palatino/pplri8r.tfm
INPUT c:/texlive/2018/texmf-dist/fonts/type1/urw/palatino/uplr8a.pfb
INPUT mp1_report.aux
INPUT ./mp1_report.out
INPUT ./mp1_report.out
INPUT c:/texlive/2018/texmf-dist/fonts/enc/dvips/base/8r.enc
INPUT c:/texlive/2018/texmf-dist/fonts/type1/urw/palatino/uplri8a.pfb
INPUT c:/texlive/2018/texmf-dist/fonts/type1/urw/palatino/uplb8a.pfb
INPUT c:/texlive/2018/texmf-dist/fonts/type1/urw/palatino/uplr8a.pfb
INPUT c:/texlive/2018/texmf-dist/fonts/type1/urw/palatino/uplri8a.pfb
