PWD C:/Users/dhruv/Documents/UIUC/Sem8/ECE 498/ece-498/MP1/Report
INPUT c:/texlive/2018/texmf.cnf
INPUT c:/texlive/2018/texmf-dist/web2c/texmf.cnf
INPUT c:/texlive/2018/texmf-var/web2c/pdftex/pdflatex.fmt
INPUT mp1_report.tex
