\relax 
\providecommand\hyper@newdestlabel[2]{}
\providecommand\HyperFirstAtBeginDocument{\AtBeginDocument}
\HyperFirstAtBeginDocument{\ifx\hyper@anchor\@undefined
\global\let\oldcontentsline\contentsline
\gdef\contentsline#1#2#3#4{\oldcontentsline{#1}{#2}{#3}}
\global\let\oldnewlabel\newlabel
\gdef\newlabel#1#2{\newlabelxx{#1}#2}
\gdef\newlabelxx#1#2#3#4#5#6{\oldnewlabel{#1}{{#2}{#3}}}
\AtEndDocument{\ifx\hyper@anchor\@undefined
\let\contentsline\oldcontentsline
\let\newlabel\oldnewlabel
\fi}
\fi}
\global\let\hyper@last\relax 
\gdef\HyperFirstAtBeginDocument#1{#1}
\providecommand\HyField@AuxAddToFields[1]{}
\providecommand\HyField@AuxAddToCoFields[2]{}
\@writefile{toc}{\contentsline {section}{\numberline {1}Gain Values}{1}{section.1}\protected@file@percent }
\@writefile{toc}{\contentsline {section}{\numberline {2}Simulated Trajectory Plots}{1}{section.2}\protected@file@percent }
\@writefile{lof}{\contentsline {figure}{\numberline {1}{\ignorespaces Gazebo simulator}}{1}{figure.1}\protected@file@percent }
\newlabel{fig:gazebo}{{1}{1}{Gazebo simulator}{figure.1}{}}
\@writefile{lof}{\contentsline {figure}{\numberline {2}{\ignorespaces Waypoints (black) and simulated trajectory (red)}}{2}{figure.2}\protected@file@percent }
\newlabel{fig:plot}{{2}{2}{Waypoints (black) and simulated trajectory (red)}{figure.2}{}}
\@writefile{toc}{\contentsline {section}{\numberline {3}MP Success}{2}{section.3}\protected@file@percent }
\@writefile{toc}{\contentsline {section}{\numberline {4}Comments and Suggestions}{2}{section.4}\protected@file@percent }
