\relax 
\providecommand\hyper@newdestlabel[2]{}
\providecommand\HyperFirstAtBeginDocument{\AtBeginDocument}
\HyperFirstAtBeginDocument{\ifx\hyper@anchor\@undefined
\global\let\oldcontentsline\contentsline
\gdef\contentsline#1#2#3#4{\oldcontentsline{#1}{#2}{#3}}
\global\let\oldnewlabel\newlabel
\gdef\newlabel#1#2{\newlabelxx{#1}#2}
\gdef\newlabelxx#1#2#3#4#5#6{\oldnewlabel{#1}{{#2}{#3}}}
\AtEndDocument{\ifx\hyper@anchor\@undefined
\let\contentsline\oldcontentsline
\let\newlabel\oldnewlabel
\fi}
\fi}
\global\let\hyper@last\relax 
\gdef\HyperFirstAtBeginDocument#1{#1}
\providecommand\HyField@AuxAddToFields[1]{}
\providecommand\HyField@AuxAddToCoFields[2]{}
\@writefile{toc}{\contentsline {section}{\numberline {1}Results and Observations}{1}{section.1}\protected@file@percent }
\@writefile{lof}{\contentsline {figure}{\numberline {1}{\ignorespaces Simple scenarios used to test A* and hybrid A* path planners}}{1}{figure.1}\protected@file@percent }
\newlabel{fig:simple}{{1}{1}{Simple scenarios used to test A* and hybrid A* path planners}{figure.1}{}}
\@writefile{toc}{\contentsline {section}{\numberline {2}Design Decisions}{1}{section.2}\protected@file@percent }
\@writefile{lof}{\contentsline {figure}{\numberline {2}{\ignorespaces Highbay test case. The starting state is $(-10, 10)$ and the goal state is $(10, 10, 0)$.}}{2}{figure.2}\protected@file@percent }
\newlabel{fig:highbay}{{2}{2}{Highbay test case. The starting state is $(-10, 10)$ and the goal state is $(10, 10, 0)$}{figure.2}{}}
\@writefile{toc}{\contentsline {section}{\numberline {3}Team Contributions}{2}{section.3}\protected@file@percent }
\@writefile{lot}{\contentsline {table}{\numberline {1}{\ignorespaces The team contributions}}{2}{table.1}\protected@file@percent }
\newlabel{tab:team}{{1}{2}{The team contributions}{table.1}{}}
\@writefile{toc}{\contentsline {section}{\numberline {4}Feedback}{2}{section.4}\protected@file@percent }
\bibstyle{plain}
\bibdata{mp3}
\bibcite{1808.10703}{1}
\@writefile{lof}{\contentsline {figure}{\numberline {3}{\ignorespaces ECEB test case 1. The starting state is $(0, 0)$ and the goal state is $(30, 0, 90)$.}}{4}{figure.3}\protected@file@percent }
\newlabel{fig:eceb}{{3}{4}{ECEB test case 1. The starting state is $(0, 0)$ and the goal state is $(30, 0, 90)$}{figure.3}{}}
\@writefile{lof}{\contentsline {figure}{\numberline {4}{\ignorespaces ECEB test case 1. The starting state is $(50, 30)$ and the goal state is $(80, 0, -90)$.}}{5}{figure.4}\protected@file@percent }
\newlabel{fig:eceb2}{{4}{5}{ECEB test case 1. The starting state is $(50, 30)$ and the goal state is $(80, 0, -90)$}{figure.4}{}}
\@writefile{lof}{\contentsline {figure}{\numberline {5}{\ignorespaces ECEB test case 1. The starting state is $(-75, 60)$ and the goal state is $(-95, 50, 90)$.}}{6}{figure.5}\protected@file@percent }
\newlabel{fig:eceb3}{{5}{6}{ECEB test case 1. The starting state is $(-75, 60)$ and the goal state is $(-95, 50, 90)$}{figure.5}{}}
\@writefile{lof}{\contentsline {figure}{\numberline {6}{\ignorespaces ECEB test case 5. The starting state is $(-100, -100)$ and the goal state is $(50, 80, 90)$.}}{7}{figure.6}\protected@file@percent }
\newlabel{fig:eceb4}{{6}{7}{ECEB test case 5. The starting state is $(-100, -100)$ and the goal state is $(50, 80, 90)$}{figure.6}{}}
