This is BibTeX, Version 0.99d (TeX Live 2019)
Capacity: max_strings=100000, hash_size=100000, hash_prime=85009
The top-level auxiliary file: mp3_report.aux
The style file: plain.bst
Database file #1: mp3.bib
You've used 1 entry,
            2118 wiz_defined-function locations,
            501 strings with 4176 characters,
and the built_in function-call counts, 377 in all, are:
= -- 28
> -- 33
< -- 0
+ -- 13
- -- 12
* -- 29
:= -- 71
add.period$ -- 2
call.type$ -- 1
change.case$ -- 9
chr.to.int$ -- 0
cite$ -- 1
duplicate$ -- 7
empty$ -- 23
format.name$ -- 12
if$ -- 71
int.to.chr$ -- 0
int.to.str$ -- 1
missing$ -- 0
newline$ -- 7
num.names$ -- 2
pop$ -- 14
preamble$ -- 1
purify$ -- 8
quote$ -- 0
skip$ -- 8
stack$ -- 0
substring$ -- 5
swap$ -- 1
text.length$ -- 0
text.prefix$ -- 0
top$ -- 0
type$ -- 4
warning$ -- 0
while$ -- 2
width$ -- 2
write$ -- 10
