[10117.7259360723, 5554.270190037965, 1.2765340980244873, 9377.0541873787915, 3217.477622723623, 70.44372866556877]
[10138.474668674222, 5736.630291269335, 1.6375487303064848, 10922.863793920653, 4974.0053895858709, 71.213264452489483]
[10075.397934483814, 5950.254270896426, 2.0771914883815539, 9424.860670354421, 4451.6993824389538, 103.5705254014793]
[9999.817168847483, 6053.389139110533, 2.3283764088682917, 9454.8002268655091, 4526.125700917737, 119.11837916200346]
[9777.242220048685, 6191.003419368795, 2.8463744995473372, 7825.1894808665738, 3639.2137276538519, 163.36521204723235]
[9538.997587330423, 6208.25428464035, 3.2506506160739836, 1969.4640152587288, 5640.9267534580122, 164.88565180429046]
[9349.97384943406, 6172.246762000358, 3.3884826632855445, 5103.0437422008526, 4895.5175927537266, 179.42252670160738]
[9218.89756046697, 6135.53018280586, 3.4351618742974033, 5217.0715092870614, 4846.0236205236752, 185.45720088882189]
[9111.67638261065, 6101.630855042819, 3.4575817237527171, 5073.1688173927405, 4876.9072699973685, 185.34782130579907]
[8982.503044622461, 6058.059677578729, 3.4737141165727183, 1744.1455203444043, 5797.5292690125216, 191.76865144564795]
[8839.006261707354, 6007.599053960428, 3.4836260947339186, 3365.8068509155332, 5311.2504111044937, 189.04137990088412]
[8710.627996102361, 5961.430744452807, 3.4886175111280608, 3382.3709166336207, 5284.3374360006383, 189.56120550772496]
[8574.955397926053, 5912.035942983599, 3.4917076197317578, 3460.7136238110415, 5211.7326876535044, 190.10506237733179]
[8432.135802790526, 5859.645105827869, 3.4935787009048069, 3237.585336684981, 5318.0401200834758, 185.76969796127565]
[8304.099659022337, 5812.476945597374, 3.4946457212863415, 3170.3356691458134, 5329.869431104612, 182.72112429166725]
[8153.976106150511, 5757.013690519958, 3.4954109782371874, 3377.559420816141, 5262.9071062231242, 181.93542611823406]
[8024.659537855582, 5712.832309581967, 3.4052611598826563, 3432.9715306003304, 5258.7552362594979, 178.57222721385062]
[7867.657168727705, 5681.5436340922415, 3.2851839486704679, 3375.6927804313973, 5239.2537313691328, 170.513220410218]
[7700.343518793585, 5663.035001481467, 3.2253484850397771, 3461.2976357860821, 5199.4540408828952, 168.42494017029136]
[7540.308128634726, 5652.003634943895, 3.1981786620563448, 3501.3464462076649, 5119.6315395789243, 170.10736256228839]
[7364.443947221346, 5643.4025736197045, 3.1838973779683828, 3345.2427859383338, 5188.7594982371138, 169.52846902499729]
[7188.063633239873, 5636.540770098966, 3.177288247520897, 3390.229191729532, 5187.1213375456628, 169.67216593687317]
[7003.775931870837, 5630.24234283103, 3.1740146092548129, 3161.8496060057728, 5199.712125309441, 170.24667697455772]
[6835.422423061451, 5624.868618499209, 3.1725718095499471, 8861.7842667182977, 5276.0402993816597, 72.107072608697507]
[6651.082183135668, 5619.189514870178, 3.171722174968028, 6045.0320563582218, 5351.886176710379, 120.01202855692594]
[6514.7955406346155, 5615.0730898830825, 3.1713476203172406, 5922.4409604478396, 5441.8945537704367, 118.43961065435627]
[6218.285707553046, 5606.2610776366055, 3.170749768012175, 5951.571360955636, 5559.5445339138259, 118.3340613612741]
[6009.470752892035, 5602.241354473298, 3.1265341768989034, 5789.1564367845795, 5607.3515008496752, 124.25216965595605]
[5809.5472112615635, 5611.6542257850315, 3.0696472761736455, 5755.3650043549123, 5705.4342664799578, 121.43364493778817]
[5609.63297542622, 5628.986596756357, 3.0433315673402843, 5737.6180962823428, 5747.4614663149687, 129.48225125795784]
[5426.020033608219, 5648.313091475518, 3.0308874448949439, 5791.9214612027863, 5873.647383430347, 128.96937010240578]
[5250.793829023162, 5668.444597695475, 3.023533120596841, 5964.4262662600377, 5837.7130452821602, 134.17364873005383]
[5075.546756082293, 5689.709955658244, 3.0204327127717425, 6081.170255343266, 5869.7660869513074, 136.20497832473563]
[4892.374525278243, 5710.662882332991, 3.0328570544221307, 6126.4508675580482, 5890.316235388731, 137.39820518178828]
[4669.150409250611, 5734.093930988087, 3.0396424424920876, 6270.694265957879, 5895.7534419752446, 139.55867426954146]
[4413.738484678007, 5759.675219950696, 3.0428736037320845, 6112.4894519664176, 5823.2047378336092, 145.55448133401944]
[4150.530632426347, 5785.443695803098, 3.044362753499124, 6212.8758058524463, 5920.3219177117335, 142.98055281756555]
[3873.1429321572177, 5764.198832887479, 3.4625671758527821, 5981.5323639924309, 5810.6962836150469, 148.42827252626768]
[3632.7872067657486, 5637.527099623361, 3.7632785258637607, 5957.2347620625887, 5761.5488957893222, 151.93259879062208]
[3447.0286992868664, 5431.103559046516, 4.2469191255856487, 6079.0218053815133, 5756.9711591333289, 161.11240369163841]
[3373.6541186550226, 5129.015235604137, 4.6254030698714255, 7747.1601187941151, 6558.8213372971377, 207.55655175587412]
[3369.2055247748967, 4792.167178940971, 4.749373130503141, 6773.7579315622797, 6153.250104006308, 193.59055926904824]
[3386.608379986276, 4512.349809722292, 4.7964502809294949, 6679.0480861634105, 6078.5282635294889, 193.147948811286]
[3459.452567453299, 4276.9742284923495, 5.2549880062858314, 6841.8664937633885, 6108.3219483683615, 208.86058874218011]
[3645.8656831918356, 4080.4500528147855, 5.6336825275518345, 6705.9337891833075, 6006.1118926139179, 217.34589996377829]
[3878.5240198356737, 3939.091255647435, 5.8296109221700645, 6610.0586625733195, 5937.3456776106077, 210.65818127351176]
[4125.962802523063, 3880.613361583818, 0.0012608924352205337, 6780.8586345666317, 5939.6936699647322, 208.59517914128293]
[4385.319361312383, 3926.482041270103, 0.33012723571254532, 7043.8602534215806, 6002.2560084382967, 200.66805459494392]
[4627.060313166343, 3983.4794385178043, 0.13102975478303938, 7226.899705871826, 5941.6281977558438, 200.74168656961533]
[4890.546758634613, 4003.679286766865, 0.036172882678262401, 7265.4858342994312, 5871.722752346669, 203.26732909812083]
[5107.050530764334, 4007.634536456078, 0.0027095142377373013, 7255.641598386017, 5808.7890715616122, 205.38041523471162]
[5323.59821454335, 4006.0835096709243, 6.265823134692293, 7195.1394478874863, 5767.7643724236459, 198.45097944923791]
[5532.195349291301, 4002.127096721199, 6.269154911942632, 7196.6089772607811, 5710.6109833835208, 199.4835093549124]
[5756.8236079192975, 4000.312741526952, 6.2781414092505834, 7220.6438836041625, 5674.6497603231146, 192.94865927801837]
[6013.433411719784, 3999.775671272778, 6.2818396803566499, 7092.2774748331703, 5562.187732127958, 193.98064806586828]
[6253.896304167955, 3999.8054335209276, 6.2829681564321254, 7139.522367447792, 5466.7585544288113, 189.83438942163394]
[6478.445974678344, 3999.977541236433, 1.2634963340386841e-05, 7222.2790514234021, 5428.0526170873218, 188.05163904732581]
[6703.026493686267, 4000.137287866724, 6.2827561625790835, 7216.6890715188911, 5453.0452553092055, 182.42871538068138]
[6920.810082192626, 3951.6164528555064, 5.8427622160106596, 7112.991235137044, 5467.4656864089266, 182.44859065310095]
[7118.14433338882, 3791.544266869289, 5.3939037612906153, 10424.809432681912, 3962.4638947086369, 236.18308244303662]
[7271.448510120969, 3547.748900305558, 5.1876873644821586, 11567.849912995045, 3348.1518520501222, 284.46313349256474]
[7354.101160135207, 3374.08183813107, 5.1292455164179405, 10081.801563173402, 3754.6250400766303, 245.34418026371915]
[7410.701458373476, 3241.340798607206, 5.101067020877136, 9924.64374040441, 3662.0975733814994, 243.82571988898727]
[7466.938682985963, 3099.1618191354632, 5.0747642685008287, 9936.7484193953824, 3558.1163201609065, 240.89579784180123]
[7509.273127195504, 2945.007924090777, 4.8869106269932736, 9942.1649230903022, 3495.2163588312574, 233.70362906647767]
[7536.228145882703, 2803.1728380115455, 5.0149172608814414, 11806.54099908746, 2614.012282711366, 287.31178022770149]
[7593.717774603521, 2680.0158273852703, 5.2818899240036528, 11732.841409425486, 2692.6341001674236, 298.0245769680854]
[7668.901201402921, 2586.280251096946, 5.4785699186364774, 11905.380867469024, 2393.8879850768803, 302.82821168712144]
[7757.833793951421, 2505.6659051627007, 5.6042268992210857, 11588.076181634229, 2495.6901866733292, 292.93705882690489]
[7841.55834554153, 2443.4305541242056, 5.6777201096879484, 11839.632386804526, 2229.8035024448172, 332.41994489519914]
[7956.249481121272, 2370.0357373184233, 5.7439818007936196, 11754.722617575555, 2245.26231452917, 288.53090591041649]
[8089.065772321655, 2295.5849570101877, 5.7963619351364066, 11759.673362547173, 2172.4550007561738, 261.96347574784937]
[8225.609428091759, 2228.0201259501555, 5.8834293014447345, 11856.369231567351, 2093.5740671213839, 236.88249237612465]
[8379.809145590007, 2184.6494620102076, 6.1059923148760262, 11815.466037846467, 2063.5048002970361, 212.52223478775181]
[8555.158150934258, 2164.9245226134867, 6.2195159916653271, 11831.233107782153, 2037.7359306424096, 188.28546889251237]
[8723.471544385819, 2159.0273976685394, 6.2689075370844547, 11833.882415236549, 2028.1565127232125, 185.46954651308613]
[8875.66129952322, 2158.8271557872317, 0.0073123901604361941, 11838.035500871578, 2032.6768811748416, 186.96704655198417]
[9011.832174785477, 2160.702198302968, 0.017438594440797241, 11848.882811217427, 2009.6000896635749, 187.63085618095874]
[9172.241576973003, 2164.1980781712264, 0.023707032263468205, 11809.848901316407, 2045.7720451236855, 180.62509433528666]
[9308.46511545539, 2167.7497678326886, 0.026458347107846412, 11807.610860695149, 2042.485787802844, 181.28395043414116]
[9444.77233317658, 2171.5848654433357, 0.027988217876704968, 11774.065888791964, 2095.1935094581613, 180.26273323454785]
[9613.315676745386, 2176.5311289529054, 0.028974545993770084, 11803.181607853239, 2092.0862717332207, 178.04109503020746]
[9749.432802700478, 2180.609488775994, 0.029319161454834656, 11790.518296049402, 2126.6355933738992, 169.92938520219974]
[9901.670297739569, 2185.2064219980816, 0.029470458150386559, 11785.402795711891, 2153.9841875956213, 165.73084521994102]
[10069.98681159288, 2190.295401681932, 0.029450186222372166, 11760.79308297022, 2135.6543546892644, 167.79491886082221]
[10230.357715383658, 2195.1199053947944, 0.029207781644789821, 11725.99924434246, 2110.1978045478104, 169.96979938767143]
[10390.094712620165, 2207.447462269076, 0.20170737488224624, 11709.861386548568, 2140.1956024765595, 165.71101655965629]
[10539.731554220809, 2263.66490250783, 0.51586228571735016, 11683.676798989194, 2221.4029664526056, 155.34613394790213]
[10669.773556744873, 2369.134658220719, 0.84561139341590863, 11877.813668883238, 2270.6606429667058, 115.71987186080318]
[10758.54370049204, 2502.086507896567, 1.0919547417983038, 11710.104118376785, 2347.4106319323791, 137.92659115388503]
[10810.696699058426, 2619.3049860980254, 1.2021097573953075, 11616.845070041392, 2469.0376809835311, 141.06878707798489]
[10852.470492046143, 2740.5642686062747, 1.2694249750591766, 11565.751361647041, 2532.030063240994, 145.55646753139561]
[10889.739566450586, 2871.7488440921215, 1.3139607708328933, 11438.305173765575, 2636.2490627881334, 146.38361179205958]
[10920.426425599553, 2996.240839680667, 1.3412184048214275, 11366.227300765568, 2657.4553545754457, 149.86834401668909]
[10946.58536281067, 3113.554992264372, 1.3595573697192116, 11646.939839102144, 3011.671597547916, 92.850892690100508]
[10969.288432309113, 3223.5766483848292, 1.3737143544434058, 11465.972065606584, 2923.809910816633, 121.06347790181356]
[10988.504182565694, 3326.34072004756, 1.4312922540661015, 11564.029241585691, 3173.2444069786516, 117.71391087601012]
[10992.344169148195, 3430.4266204325927, 1.6354905282052992, 11657.488485989101, 3338.037738329399, 100.75806869732054]
[10970.554209344804, 3548.198106710154, 1.8711056488917368, 11523.099269581226, 3304.7586647510993, 128.95314003050899]
[10929.789728974138, 3643.9055000858275, 2.0753573363836515, 11581.132990004191, 3500.3837638596215, 115.43357818512415]
[10870.477234223808, 3729.3227581702185, 2.2795913225509237, 11971.561105490349, 3516.4402748246039, 98.445792476663499]
[10812.55661274528, 3787.069506864759, 2.436852608285589, 11910.446831526904, 3583.5871106453537, 139.08574838077433]
[10733.989051664048, 3841.978997886162, 2.6252702757313742, 11735.069794172185, 3627.5600255617051, 144.49904482639508]
[10661.605711934739, 3876.1012073224947, 2.7707049263010983, 11748.673096148341, 3579.0216073368056, 179.2984012829935]
[10561.882371907595, 3906.3145735663966, 2.9165539575824004, 11660.429865957596, 3509.4502277035776, 205.70237903047268]
[10419.276650312138, 3927.066060753057, 3.0706662135431246, 11523.235763023236, 3535.9790004532006, 199.84396834084336]
[10290.689522193208, 3928.1375736165073, 3.175315527420087, 11430.597380855692, 3497.2356351348667, 205.54510708297457]
[10147.74104239696, 3943.497233632519, 2.8925164802681955, 11337.813036830439, 3479.0126786999867, 188.32178015045275]
[10042.824485162302, 3982.8092324111935, 2.6725651205268304, 11253.515802021226, 3488.4249530370971, 173.84260840347517]
[9949.073449728157, 4044.046763886061, 2.4526443420851916, 11180.85676069448, 3504.653384661186, 160.05065482019648]
[9859.795287873421, 4135.611444013853, 2.2491854945002507, 11101.23925249582, 3514.9577551419707, 150.92094174348247]
[9786.340869747271, 4240.915508007078, 2.1189915772274186, 11041.680364516769, 3581.0250197304472, 142.43279244736942]
[9724.738736149282, 4353.1577664042825, 2.0308620776269302, 10975.165358741493, 3633.2380088130967, 137.51821654813753]
[9671.67868237374, 4469.935661506514, 1.9654074465605278, 10936.783515754141, 3676.3308480534943, 137.59545891132825]
[9618.038348405405, 4612.728236634146, 1.8814853345959734, 10881.288213633507, 3769.9277355888539, 133.61111832397296]
[9594.009148548099, 4746.578157505678, 1.6145785631533818, 10848.81947963729, 3829.9997975352649, 126.52244526443208]
[9609.938967150125, 4897.416183972342, 1.3161501315014577, 10839.248084688807, 3892.8461470024777, 122.20143616284103]
[9677.951855967749, 5050.375874617552, 0.99383168562322721, 10779.600249541494, 3858.3708901857153, 56.58333636117581]
[9792.283523178105, 5184.244542142417, 0.74804780048475428, 10815.73866233616, 3747.1757028047182, 37.269729201708145]
[9905.7321344094, 5272.693277545472, 0.57140412757948822, 10897.721809118857, 3917.8852017380896, 83.313718484467628]
[9998.514052992257, 5349.0988243803085, 0.80717033754445178, 10797.330562859152, 3252.5541213190454, 49.017103433118834]
[10096.321702454976, 5494.920845628798, 1.1528746594413908, 10941.381977064677, 3716.265414930318, 80.890060655118674]
[10134.42119010321, 5625.27238690131, 1.4199374391280022, 11020.689771775504, 3518.8467358653656, 75.009736258348809]
[10136.763397131492, 5761.0132712519035, 1.6870523153184449, 10914.123563092629, 3662.1748268630604, 109.94615839866576]
[10111.607279257334, 5870.257575948307, 1.907125814154357, 10936.34239684842, 3769.4038729298522, 111.39499343831255]
[10050.18842325476, 5991.192716837759, 2.1743244569621885, 10836.015672864241, 3890.3644459317175, 122.69147454923076]
[9964.884140363816, 6086.674596758331, 2.4258441495725616, 10761.635638271802, 3978.449506965515, 141.83097951594797]
[9858.614483121928, 6157.812532544679, 2.6772660538133195, 10700.529848019558, 4017.4606726017146, 164.6771935401251]
[9698.767968608588, 6207.148384408123, 3.0071527784862471, 10595.501502033445, 4003.148413793087, 197.49118565223242]
[9530.909351338572, 6205.916329298444, 3.2607064863752595, 10421.164510972163, 3975.9364702693688, 204.81790230354673]
[9165.087332902187, 6117.445154281194, 3.4474103209189586, 10173.239033329281, 3795.5774190617658, 217.82021294596268]
[8982.579350653117, 6056.848284945818, 3.4731109108574687, 10049.199849061821, 3712.5017412464454, 217.428945446445]
[8785.817156585577, 5987.555842614211, 3.4853223547114385, 9921.5733382193357, 3616.5102099626206, 217.59151438725442]
[8559.853275478568, 5905.779093598327, 3.4911492638122308, 9806.0637452916035, 3523.453116448195, 217.09712187476117]
[8379.047890112837, 5839.604713560982, 3.4932519810237648, 9719.5508794653324, 3415.8779595364022, 219.42742973456077]
[8198.506915351614, 5773.207469147491, 3.4943539433024773, 9623.9665470379314, 3353.9064036462482, 216.62955564280639]
[8039.447856511841, 5716.83486069179, 3.4222076773610159, 9523.0178962986538, 3285.3923868409056, 213.52574637602575]
[7867.01171153334, 5681.328512025721, 3.2849879669947573, 9480.1466505012613, 3208.9813609060584, 208.36818886612946]
[7699.628995053537, 5662.859387590021, 3.2253367422149521, 9389.1560596377112, 3131.6125149651893, 207.30847850762075]
[7539.66304398246, 5651.852175812607, 3.1982348556086211, 9343.5308493480297, 3056.5097786200636, 206.19565046599519]
[7371.3550444698, 5643.5916623303, 3.1844564470873564, 9327.4921997418187, 2973.1693297154466, 209.23292657687111]
[7195.171693612661, 5636.684988893527, 3.1775691697657944, 9226.3660933434803, 2962.5179488620502, 206.08802438910641]
[7034.683057147428, 5631.152625707384, 3.1745122848955742, 9211.3140062839084, 2933.0977182403699, 203.91340295047164]
[6882.502445258671, 5626.238022523978, 3.1729271262721985, 9169.5076535202261, 2964.5426036288923, 199.74707418594824]
[6738.217609309466, 5621.74850394735, 3.172063106922304, 9072.4850080690085, 2984.5482261298102, 196.81500924453493]
[6585.842998735019, 5617.1162477398975, 3.1714986340761646, 9057.8821254393224, 2976.3092883685486, 195.33943391979309]
[6425.694663913583, 5612.313664950549, 3.171054499749463, 8966.5256844879186, 2993.7938003555887, 191.46803529570718]
[6265.301398288162, 5607.569947576351, 3.1706869196496879, 8934.1794542214411, 2963.017773788974, 192.68381419014815]
[6096.867153065836, 5602.657297304526, 3.1701393797883322, 8910.1548528096773, 2923.3406104470068, 187.31016469076343]
[5928.261915141184, 5604.573876446992, 3.0980408994293125, 8864.6439545559624, 2970.6272093843631, 180.38399734293486]
[5736.330810888322, 5617.244392871436, 3.0576722282387196, 8756.9228101570679, 2892.3363868666743, 176.90833983302971]
[5552.619356518747, 5634.600306534622, 3.0385055173648579, 8694.9157405358692, 2959.0507249569941, 177.88881188075757]
[5361.290304945534, 5655.478611765531, 3.0275793465988632, 8656.4565598290592, 2986.5348041703351, 174.66226038089397]
[5138.511592849829, 5681.882406791192, 3.0191046589208832, 8640.8287254018906, 3041.023777477169, 174.54726181028084]
[4962.961686480791, 5702.823035954963, 3.0287848864310987, 8566.2930094465792, 3063.5578745408566, 173.69931322067572]
[4763.719723637848, 5724.338424317431, 3.0372635857986361, 8452.3562492999172, 3166.390786499464, 169.77875723312275]
[4580.329066670428, 5743.069071814443, 3.0409353044913203, 8366.2231755742196, 3314.8907584034237, 165.42762959329681]
[4388.741270310825, 5762.114028928826, 3.0428941935807843, 8252.9398950338818, 3380.6582868276778, 163.76879791024146]
[4189.38860808826, 5781.628296316123, 3.0439460946910057, 8170.6558695345047, 3409.9644639717408, 165.17016920317408]
[3997.1860750720853, 5791.202899430527, 3.2327845139576006, 8174.4130604454431, 3486.3023879146872, 170.38126902207338]
[3790.3789244601912, 5731.308147979485, 3.5796604207614964, 8139.2474805310585, 3460.4369894831971, 173.16640642984177]
[3593.8141584731957, 5608.561256182713, 3.8085803482499276, 8088.1889593146307, 3310.3683737765318, 184.00472676481067]
[3443.31201674323, 5423.750181413718, 4.2635478087751064, 5978.5679583956844, 2649.2986099831842, 281.13797017785566]
[3379.52544027324, 5184.584920251046, 4.5866370605522295, 7067.5532617084154, 2922.6929683779913, 237.97520991439862]
[3366.7029492258457, 4984.639590458349, 4.6954135651659286, 7107.588363324624, 2735.7743426950738, 229.64614688296652]
[3368.6841534882433, 4808.05683838567, 4.7457079581079604, 6131.6687922163455, 2312.2543478017246, 262.59387712505105]
[3377.6514111463157, 4631.917656150796, 4.7773754782617548, 6648.2396298944013, 2336.5979751944351, 234.61758846379271]
[3390.7010171632996, 4472.036697988139, 4.8460308083546586, 6716.7026465464187, 2285.2050489736953, 233.56074178610717]
[3433.1746111612233, 4326.231923195257, 5.1443770514233425, 6776.5162274764762, 2268.9891731695307, 223.87920070990384]
[3516.3029701736805, 4199.179779425304, 5.4265034328823845, 6906.7953470035236, 2414.3566986495916, 210.60549815289934]
[3633.122118866573, 4089.964326455501, 5.6188220646334877, 6892.0002308889734, 2357.6422200481693, 200.7271846024469]
[3772.449480446219, 3995.8450030400118, 5.7502037405890736, 6964.002270973634, 2331.358026356439, 185.90060868606281]
[3900.4036532189466, 3928.534382640237, 5.8476052650117856, 6975.5256678816258, 2373.5227355891716, 190.24851519002704]
[4053.8478742615075, 3884.752722466453, 6.1610844912814509, 7039.5920363956175, 2401.1504401113498, 167.70892338595846]
[4221.928125968152, 3887.443199848289, 0.13486189547499067, 6022.6489953597147, 1084.9837846740127, 24.519815843441364]
[4385.290244805275, 3926.483448125492, 0.3299106153734781, 6724.8979739670631, 1831.1813873195113, 97.243460586235429]
[4508.435060369468, 3962.8743954404654, 0.21831206901402653, 6826.6209994128712, 1870.2038222820684, 109.69532166975753]
[4666.557836916055, 3988.241516594664, 0.10965194899968879, 6916.3693092930171, 1881.7233006312679, 124.34508802029931]
[4834.363718024543, 4001.196772552967, 0.049153628435071747, 7035.3028176899888, 1926.7389091147866, 137.53662692665202]
[4994.573237183971, 4006.404441430007, 0.017114962873778082, 7074.5798066063253, 1928.361273295613, 141.33065789160813]
[5171.152583474509, 4007.5415332381735, 6.2791280796899853, 7165.0476544270823, 1933.2313453870065, 149.41160154268138]
[5355.569359712859, 4005.4306404381036, 6.263040980865644, 7222.0584741540879, 1943.5903152977301, 150.63472524080626]
[5516.220825248986, 4002.291101623328, 6.268082352525389, 7298.3309865799347, 1981.3721941758431, 150.8134791947007]
[5684.432362177796, 4000.63411002167, 6.275953992937076, 7362.2424074379805, 2070.461003488349, 155.5087423901941]
[5844.763715870823, 3999.941668785843, 6.2796800121350378, 6949.341772497065, 4002.3353712502026, 55.285980704165112]
[6005.14711913384, 3999.684095360095, 6.2815836880405875, 7105.5365257366848, 3965.8669981294893, 222.46255483663703]
[6245.473629183053, 3999.674173188845, 6.2828202941629918, 7404.6837025390978, 3445.6804476891698, 192.04392736169447]
[6365.708968764759, 3999.7474876497763, 6.2830904405290786, 7494.2373540863964, 3431.1441206802242, 203.68779351989784]
[6614.295100507016, 3999.9514194444173, 5.8931390687456672e-05, 7680.6696994755648, 3477.5314040510962, 192.58389334410626]
[6844.962270800011, 3979.8835511377574, 6.0001021250509261, 7929.7137335458483, 3977.5815366094903, 260.79856572705154]
[7021.740056300576, 3888.1243645723825, 5.6069811083895171, 7974.355692799254, 3743.4076462312992, 256.09180855884046]
[7232.606992371808, 3618.2261782076694, 5.2258989864115124, 8034.425081090706, 3501.8140962430703, 258.31025487648924]
[7320.156644819344, 3446.9967059341257, 5.150600603725672, 8112.4139710904165, 3424.7587677251627, 258.97542945901745]
[7375.948491377217, 3322.7207350954186, 5.1184892414820355, 8125.5955048313363, 3296.5215782375299, 255.43643524736947]
[7428.361710988886, 3196.777929499328, 5.0943618101489019, 8128.5910595556988, 3166.7682442295909, 252.93124015616752]
[7474.719860698312, 3077.0371122702445, 5.0464698491249136, 8097.1365303767107, 3042.934320834951, 250.8491707780255]
[7507.654531129889, 2953.1531428032536, 4.8976947586311894, 7732.947006136691, 2949.1045665363631, 235.73805201637762]
[7531.6126486089215, 2819.0476022570806, 4.9848007972454287, 7868.9321210358112, 2882.9103593334858, 245.04125355286726]
[7577.292394279814, 2708.1059790862128, 5.2203182219892934, 7612.7736704904974, 2720.9574670865622, 262.29441535362747]
[7652.477351683517, 2604.596895319402, 5.446535967205234, 7675.7063533518613, 2608.4906700265728, 295.47028851128471]
[7733.352765079508, 2526.6287752650414, 5.5757976663163937, 7839.252089077846, 2527.2437398396191, 323.51662103421643]
[7828.379486758273, 2453.2073788940606, 5.6675153549502415, 7844.9390673743665, 2463.325336582885, 295.80312586954466]
[7915.076668317844, 2395.656508890718, 5.7227535373110623, 8015.8939884142528, 2422.4046475512364, 320.04407485071903]
[8004.511319704909, 2342.2599197864683, 5.7642251299401721, 8037.9989423399702, 2371.6722979978977, 279.95475862236566]
[8088.737725554115, 2295.9822393688937, 5.7954517251366093, 8105.7164551493761, 2332.5500695671271, 256.53447484183755]
[8203.425902765626, 2238.064298305801, 5.8354753130307975, 8193.0294513112822, 2298.3385684894242, 233.82832703723275]
[8347.988850198346, 2190.8126620618036, 6.0730818643552285, 8303.4335009955994, 2256.3389663204794, 203.25721291353162]
[8490.729039852693, 2169.840222265654, 6.188036501089873, 8405.2987737230924, 2252.6852383701444, 183.72647419854823]
[8634.879872029534, 2160.939903197422, 6.2475961780461731, 8502.6975005702607, 2268.4619030175445, 178.644092688417]
[8779.05988345821, 2158.3706239042244, 6.2785863824762185, 8575.8797154528111, 2286.2191909638073, 169.6308679360418]
[8907.471895968096, 2158.8989200545343, 0.010354597659790937, 8665.9408393958001, 2311.4764800110761, 167.73421450679604]
[9043.68142204293, 2161.0440337269765, 0.019200213303759362, 8763.9366969435614, 2346.7372777925311, 165.70464960341658]
[9180.089541080097, 2164.0966045902173, 0.024108197817691718, 8907.4327259062848, 2336.9565292600832, 192.4903716888646]
[9324.276798239865, 2167.8674170383447, 0.026940990180633086, 8971.9809282577153, 2382.2179725886067, 176.42099899649671]
[9476.620743382548, 2172.176562625202, 0.028541024129430347, 9044.6484025773207, 2421.2933248116101, 173.7826006807361]
[9636.839890458854, 2176.899647843581, 0.02940853590348038, 9161.476277066462, 2397.9265820586556, 170.88005347934831]
[9797.195574843096, 2181.723795827904, 0.029866414958644394, 9712.2628389482597, 2167.5369991060184, 350.15810568197293]
[9973.321723555016, 2187.0805485243422, 0.030069195461400914, 9591.7449725706574, 2298.4513041254741, 209.24128483157423]
[10173.70827026845, 2193.19117360985, 0.030118670661487493, 9744.2866070128457, 2303.3050070900858, 195.40153530546598]
[10357.979936332575, 2201.8634687569715, 0.1399196296668006, 9886.6609024857098, 2303.1790058632441, 180.86333778663519]
[10510.76013660414, 2248.6744558074233, 0.45417622970868854, 9980.1653496365816, 2279.0850508949716, 149.91115683274302]
[10635.635460669937, 2334.7943519056003, 0.75268483090952587, 10533.586547956804, 2032.0028922709462, 36.011855320695496]
[10726.155839678457, 2446.531985730093, 1.0125093439541379, 10602.751415781495, 2355.5035454828953, 66.011226966905681]
[10782.217071556963, 2552.8030873700786, 1.1470947516639514, 10553.166559486543, 2400.5574094646113, 85.572713786954537]
[10831.88023253097, 2679.608205055058, 1.2394071880533131, 10681.98875996129, 2372.26178503033, 82.303866898080585]
[10865.647702718938, 2786.598261812236, 1.2869866796586493, 10660.540198488114, 2555.3057087936472, 90.029194401856529]
[10893.18241574374, 2887.065839962591, 1.3172382692269893, 10676.507422647786, 2643.9157642127902, 90.330118607584239]
[10918.165763476054, 2988.3587812305905, 1.3390108224091808, 10777.607546003623, 2714.8701721432521, 87.491942361567368]
[10942.909022622167, 3097.820734661008, 1.3565567894313642, 10884.780474009391, 2787.5005802326973, 73.037439811272208]
[10964.314680741956, 3199.701981622906, 1.3699328973742511, 10813.783933496828, 2868.976682965997, 91.709413873651968]
[10984.414196480528, 3301.9701639166387, 1.3832981383712932, 10944.753619302839, 2985.1186192010291, 72.987090267371769]
[10993.375863703603, 3397.7267393337, 1.5717687316385411, 10893.407112551426, 3047.4918369894822, 91.764006919922409]
[10984.239302914164, 3493.3878098602863, 1.7603103855785338, 11069.381099314704, 3003.3240847959719, 100.12092976635302]
[10960.18498644041, 3578.293934815628, 1.9332102174448107, 10944.313297104207, 3140.5900953861046, 103.15516633854025]
[10904.831529939585, 3684.496033786655, 2.1689234842465308, 10904.551046082413, 3221.6069554617275, 119.8150060540995]
[10843.511376674896, 3758.4210348610723, 2.3574966634352785, 10855.696979803382, 3294.3428726330044, 130.49300689250043]
[10769.458665001614, 3819.5073267578036, 2.5460353170241832, 10769.890013742341, 3376.3993348339864, 156.22696202602239]
[10685.160527239866, 3865.764053868108, 2.7296398769155994, 10711.888145616149, 3382.31454910311, 161.10352937601809]
[10586.874344219745, 3899.469483959484, 2.8847521197476111, 10651.040382053819, 3406.2717184019971, 168.54989917984113]
[10492.565353908889, 3918.493779238159, 2.9960079479460004, 10587.588256180608, 3411.2452830370544, 174.877445692648]
[10388.746287207485, 3928.1820325569443, 3.0986782259822609, 10536.389774455101, 3418.191106791222, 177.72458889641507]
[10276.483453067367, 3927.0889221073103, 3.1646828507017202, 10473.944132517729, 3422.8744932007057, 182.52200367055971]
[10149.00966906924, 3940.1646039371144, 2.9134284778973099, 10416.380335941056, 3411.7780249848388, 167.5735916806037]
[9980.837102400448, 4012.944741731667, 2.5521186913179328, 10300.122189520944, 3414.0403159719885, 153.03944688678297]
[9847.651740036954, 4139.305330324231, 2.2367903309858086, 10232.146047964032, 3455.8068062129519, 138.63768648304949]
[9748.185901272911, 4294.3498879510225, 2.0616995701998633, 10206.500229191202, 3563.0675280347982, 130.41398737613486]
[9667.531985412428, 4469.021300870625, 1.9517501617573592, 10152.445201209806, 3678.0297626430888, 130.31230551741751]
[9605.980192486253, 4651.270564387642, 1.7864448164067805, 10090.798269636829, 3755.5009983148307, 128.35990838705607]
[9612.70309377535, 4897.326916396631, 1.2996610374069757, 10040.170788639025, 3850.3639163891453, 125.13736036546891]
[9701.542974333495, 5075.724279579003, 0.93539408806342528, 10093.769936288225, 3957.6965461767477, 134.98428323675503]
[9839.867658826017, 5220.049038453703, 0.68887339694326533, 10732.17468213885, 5302.613687908738, 37.686820581681694]
[9989.715620755145, 5340.750736051279, 0.81332128057088648, 10592.595358128412, 4718.0398907147228, 106.43653109612268]
[10072.782324502237, 5458.180362598233, 1.0961272229632439, 11074.918636454731, 5641.4975195449624, 57.0252163943304]
[10118.107566636767, 5586.047191333642, 1.3631607378947015, 10915.361474023714, 5349.2789074993407, 89.607385210022713]
[10129.021827623861, 5689.400776896838, 1.5673825504578054, 10948.636077415549, 5458.68894718704, 95.175941006082439]
[10120.265861874654, 5785.202107386396, 1.7559681164822862, 10453.73287093217, 5713.5567285431152, 105.97456706940604]
[10090.78187242856, 5884.844361313213, 1.9602675544713324, 10462.944741415988, 5740.8902245780073, 111.288792475734]
[10041.607609110744, 5976.599355647832, 2.1645944185197585, 10349.388852180247, 5885.0473960924246, 117.22384212254009]
[9974.895686484711, 6056.387909853075, 2.368873267789279, 10060.550094502156, 5858.8340521223754, 148.81110575384264]
[9886.657143031096, 6125.19331258546, 2.5888131279097109, 9884.1865580155136, 5927.5981176563109, 154.80374599425076]
[9791.925256901432, 6171.137985328869, 2.7930621025831996, 9793.9261113175144, 5971.2196489122343, 166.99227894715472]
[9659.172714017453, 6200.082030387071, 3.0599280390682293, 9662.7346870638285, 6004.1811260710274, 166.00100098629662]
[9554.883722477774, 6199.651281329267, 3.2181959549221206, 9603.6004123769562, 5992.3806959413305, 184.18603729165886]
[9443.715243756234, 6184.646857505812, 3.3233470200477191, 9518.1535649289581, 5978.8867815326576, 184.00075000548125]
[9326.285161110061, 6158.50960857612, 3.3907828183965143, 9411.1682299666354, 5970.8862417597666, 189.92498033174789]
[9111.00577675128, 6095.384804207981, 3.4518275487779588, 9208.7149067994505, 5965.2432960131, 190.92368521801686]
[8860.316607752464, 6010.608422724337, 3.4776294120519453, 9023.5052442719025, 5871.4844492602406, 196.63290594050926]
[8686.493686205557, 5949.002481702599, 3.4846156173827669, 8893.7755818595342, 5831.0890272628521, 196.20242624662083]
[8482.786764610772, 5875.603617023535, 3.4883651309073493, 8756.2470395854816, 5798.1263352696742, 195.47547887413214]
[8286.951816909974, 5804.4810930886715, 3.4899267170427435, 8613.7610954919946, 5767.1150164272767, 195.17074308805337]
[8083.110012587247, 5730.406370343874, 3.4681648288230082, 8466.3627661696191, 5717.5284872757366, 197.12297071832648]
[7880.231694422491, 5684.373205136416, 3.2881673381453127, 7870.5515114202553, 5685.2841858848278, 178.33456919254775]
[7680.984378830304, 5662.751776901749, 3.2200998799687257, 7949.653005727343, 5668.3383144831778, 179.16159073438908]
[7376.894153362497, 5645.119433165322, 3.1851279354049393, 7736.6735274337043, 5680.5493415752871, 176.23768532584026]
[7112.322321705761, 5634.760088138356, 3.1764083688650264, 7580.1948620931425, 5676.9904217057347, 176.02599571320539]
[6855.8717598821095, 5626.073510811153, 3.1734170102013346, 7416.5101924629744, 5661.3258066551207, 176.78296174210897]
[6591.490552150807, 5617.642359388452, 3.1720727389347401, 7248.9419042132758, 5632.6072186082893, 176.66687038069321]
[6343.119880347672, 5609.970510595844, 3.171230330435332, 7115.238172739455, 5689.163283449785, 175.2682465922079]
[6110.624270005097, 5602.99149780748, 3.1701581913044645, 6957.8295657834597, 5708.3400309412082, 173.8249117233475]
[5893.874941999215, 5605.922980367842, 3.0886758788213058, 6890.535583496473, 5615.0351683393883, 171.65925048689957]
[5662.109959306864, 5623.423615994625, 3.0480537632196607, 6726.5590541520505, 5634.1327454914217, 168.3495534100343]
[5414.784347056259, 5649.057530144657, 3.0293369495684179, 6566.3853274529056, 5709.0106045374559, 164.69577025495039]
[5128.320881742959, 5682.909721234824, 3.0174655320532198, 6431.5441004102731, 5673.2725472200245, 166.11329073143202]
[4833.130857453239, 5716.986089175089, 3.0344776332747951, 6353.0349731190308, 5608.083999206754, 167.11261482913983]
[4537.899650833243, 5747.278439288809, 3.0412843361751536, 6277.2655220970728, 5646.0055459566029, 167.08804729245892]
[4234.657872920597, 5777.138048274253, 3.0435167554412863, 6123.486492970409, 5665.4193909974074, 165.02365118244794]
[3939.5292267648642, 5780.800254795318, 3.3556428592355476, 5872.8069712985707, 5814.3752007044368, 172.63149599451896]
[3617.232567163481, 5624.153367961324, 3.7766509743596206, 4137.1379402885277, 5639.2583950890939, 197.87751644679207]
[3420.670190374983, 5367.183043845313, 4.3704814683460746, 4308.4545858382644, 4145.6365076507964, 280.26165697000096]
[3374.7747879531757, 5139.895579781069, 4.6170007002515838, 3415.928492892032, 5206.7375547383599, 260.61160931970727]
[3366.500035527347, 4971.5819118480285, 4.6995694995386419, 3428.4661447558383, 5058.2718125705851, 270.96355541559359]
[3368.5078390349418, 4811.301648654245, 4.7448598224970553, 3400.1196956300428, 4856.9901124132321, 275.88256403677826]
[3373.509576416246, 4699.212092792772, 4.7665640126941753, 3533.602719356817, 4749.1438876651018, 270.42224051135247]
[3381.291711682123, 4579.065510015627, 4.785669711980308, 3535.5417902164736, 4634.1892109816399, 271.7974710810895]
[3395.672746552527, 4443.3925481201695, 4.9086096953426228, 3581.9179531691962, 4504.4621279208714, 273.36966212443014]
[3439.7859223619835, 4314.797988181261, 5.1756321604222206, 3443.3220777001684, 4320.0319502655166, 284.26831249497951]
[3510.6344628588736, 4208.33601166056, 5.4129770990888471, 3565.7628943954273, 4273.7137631220949, 277.21167379640781]
[3632.493552563296, 4092.663897325346, 5.6158285188859391, 3656.1964627984817, 4154.554799043498, 270.72443960848943]
[3869.8636274501523, 3944.1952684982766, 5.8187771395727808, 3823.8217092839768, 4031.506945825744, 246.48073665286435]
[4179.996840451637, 3880.714638847331, 0.076137598743292831, 4012.1793200557954, 3884.4885964057162, 151.85550181556127]
[4383.462384509733, 3923.8145332144995, 0.33253076146398031, 4213.3351682658131, 3939.4690692298577, 128.51268977419971]
[4553.14233147697, 3972.4488880247804, 0.19025139652033576, 4349.1893422690127, 3998.3009828315198, 157.46910557124252]
[4791.722577421652, 4000.5899995181835, 0.062995487153029675, 4580.2203534051841, 4014.4356592574636, 169.72900687082264]
[5008.109046404075, 4008.3572413772063, 0.013842708264799266, 4694.7272318213045, 4036.7805151787984, 182.89150274190763]
[5240.712679920547, 4008.2222760969785, 6.2697972270305389, 4946.9747374977505, 4018.1109223355575, 135.625280349007]
[5441.527229859184, 4003.9380834664316, 6.2595979889422759, 5066.8371326712277, 4004.3431636066398, 182.9287741083229]
[5689.887024580354, 4000.5224666531176, 6.2755417982018544, 5385.1311764446818, 4016.1762026194101, 215.88894499049619]
[5914.628495829203, 3999.5723945975496, 6.2808476569170395, 5512.1143872307275, 4021.9159177787587, 178.72591813534925]
[6195.269245417987, 3999.411320662668, 6.3166128414475882e-05, 5766.6432660641476, 4021.2548079061839, 164.72673381519985]
[6379.512363263393, 3999.54686234741, 0.00063458731785152184, 5863.0040970058844, 4013.124149516605, 176.24648627702402]
[6628.200009577096, 3999.827602587061, 0.00096327141315230656, 6089.4046779493046, 4062.5046540597405, 174.00443180217826]
[6843.232572197905, 3979.8095751113465, 6.0014369172595599, 6574.8873298659446, 4031.7974852125158, 282.9720213327202]
[7038.36673435825, 3872.8434719535585, 5.5624355104846179, 6527.768441368009, 4005.6859480621411, 256.11432765032151]
[7207.017021180221, 3660.025132332683, 5.2559190521686094, 6634.8437681999467, 3112.7748249801543, 267.93781718172625]
[7291.150054002591, 3505.2238085961735, 5.1726593307286217, 7173.6115123856607, 3536.0231356452991, 282.4663442774077]
[7355.707581330663, 3367.3495789965273, 5.1306993187623959, 6930.3527265392559, 3315.8170896273068, 269.52211841890374]
[7418.563424624282, 3219.7815539010153, 5.1006107730533294, 6927.8071202196179, 3167.1164061448462, 267.21276359896626]
[7477.052373120603, 3070.270921216499, 5.0466861560132239, 6916.4726139978966, 3066.0402158845268, 259.69518251321171]
[7517.932160144399, 2890.45135614125, 4.8462482474775497, 7482.3770739805796, 2920.0457531758475, 290.96849589064522]
[7560.317132836684, 2744.7382662489504, 5.1448705316612129, 7563.4565179041074, 2839.986187483677, 308.0948635309619]
[7623.030247072145, 2642.344406541943, 5.3746056433458618, 7619.0994972957396, 2741.4727930988679, 303.85443654169217]
[7699.042267117824, 2559.7517772702104, 5.527437424453832, 7700.2079356808808, 2661.0451609751963, 323.84455752692099]
[7778.314922429604, 2492.2833199714673, 5.6227556321478254, 7785.3561211912975, 2605.7028597188059, 323.31833480100323]
[7862.775380037184, 2431.332711406918, 5.6895883706970505, 7878.6271175468346, 2608.5982992876998, 222.50269541485477]
[7943.793174880129, 2379.4194660225417, 5.7349628032758888, 7960.2944335778557, 2604.4604592242013, 180.71534973700523]
[8033.703101849894, 2326.9354197947277, 5.7730718247597776, 8032.3035338579821, 2553.1771551440183, 183.02006224560299]
[8118.402744581507, 2281.215176801115, 5.8028499299612042, 8118.5157656180982, 2560.2462003795517, 188.0215935768033]
[8189.966247207553, 2245.0292601851943, 5.8275358495773419, 8182.5447741792359, 2555.7901335879542, 185.46494177943237]
[8263.850012884674, 2213.6483442869776, 5.9527020857178723, 8240.0240542381216, 2558.1572398790195, 177.94250038723985]
[8372.4792727616, 2185.6576527451793, 6.0970222034794084, 8321.0870864078661, 2571.2588076202369, 165.29395845705079]
[8515.418535553827, 2167.169380107981, 6.2007256834301012, 8443.8302236694781, 2171.8126659435825, 271.29821029714827]
[8659.579647484858, 2159.5825932543166, 6.2545018672726771, 8542.9442400425578, 2373.6400373360025, 198.42827536683649]
[8843.995254456388, 2157.792563864953, 0.0044495764215220987, 8712.4187569529695, 2287.9958359252332, 195.48144044533669]
[8996.261776006924, 2159.5785458724877, 0.017261685198996003, 8801.6791877222313, 2319.8603793851216, 179.30083876299159]
[9140.551420923972, 2162.594409742577, 0.023587447901156751, 8896.138945477911, 2317.5279176380691, 179.91364950570534]
[9300.92272814711, 2166.724137561991, 0.027251943075599035, 9010.2322550195531, 2323.2332045572734, 181.46840035114721]
[9453.08879618122, 2171.045899850324, 0.029030943221463202, 9115.3125761373431, 2339.9070094502763, 174.00692502663691]
[9613.40334309519, 2175.8122778447387, 0.030004474755248072, 9212.8479737654015, 2338.9097804431863, 183.97058650707001]
[9773.891464766259, 2180.6944907295374, 0.030518813001230754, 9296.5326316681603, 2352.0928073318528, 174.92532810333128]
[9942.126948278834, 2185.8835010958032, 0.030750731192527248, 9365.8173305233649, 2353.0164412575787, 186.77910334573468]
[10094.455564233998, 2190.603590091261, 0.030826748448048957, 9416.2886857123558, 2337.5250256785121, 184.98814808462421]
[10254.771000853747, 2195.57519054793, 0.030767399057109679, 9520.3269643611147, 2330.3468934936236, 185.9600969091648]
[10429.399972912912, 2216.9797123446388, 0.28213228443801258, 9609.2444824316681, 2293.5231136936827, 170.77045365896362]
[10587.026484082724, 2294.0957195502874, 0.62787490439712601, 9670.1752786563466, 2272.0297829832066, 151.52977414164849]
[10704.775427436805, 2413.548932666923, 0.95187005981749717, 9712.4503661384733, 2322.175151681477, 139.4780750375306]
[10786.188322856535, 2560.52880817315, 1.1547629721766657, 9758.135495726412, 2355.3206600930221, 134.35988558064125]
[10842.571940257914, 2710.25337202214, 1.2557250913496425, 10541.332048442408, 3771.0997885812972, 60.858752751725234]
[10889.634256324092, 2872.148509745614, 1.3139375866333529, 10632.542246837958, 3683.2775470166375, 74.043172944598155]
[10925.81427833215, 3020.1432009842392, 1.3451951484077687, 10449.187053461956, 3546.2258149631375, 90.327745691845124]
[10948.279900373454, 3121.8942990215737, 1.3604759172858822, 10591.953704740905, 3078.6255232215703, 70.834679643023819]
[10969.303333633554, 3223.8609529518385, 1.3735260985240725, 10959.26461982846, 2433.926022532778, 79.220209421727063]
[10990.500005331647, 3342.3252260037825, 1.4625040475288089, 10985.2994118925, 2543.3383504576395, 92.935416713096998]
[10988.255792637678, 3470.1616014783212, 1.7138229450639328, 10869.467341762214, 2929.9205769428968, 104.37833783316547]
[10957.319333727717, 3585.9781403250454, 1.9494831805401047, 10838.541190830729, 3019.6712774500488, 118.95427928391659]
[10904.698936625102, 3684.8944871639733, 2.1694409530390497, 10901.544308435681, 2886.7914277906366, 127.92461931325259]
[10825.859744305619, 3775.3594090766796, 2.4050682868164084, 10751.328031910323, 3102.6888727669912, 142.83990642506777]
[10735.230894037433, 3840.9194519787034, 2.6249103496674482, 10689.043149226129, 2897.0149716679271, 164.05183555528609]
[10640.148239265796, 3883.4509880948817, 2.8072186383605833, 10621.408130836644, 3086.8149981799716, 159.30115093922461]
[10539.685288527897, 3910.4684126914067, 2.9435818420973057, 10541.80881520911, 3101.7829705520389, 175.03217699556745]
[10444.440531900344, 3924.4159692746875, 3.0450516791660909, 10445.765205849579, 3095.578500277516, 179.35725184156669]
[10364.629489833298, 3928.996178183533, 3.1220531939738874, 10390.173033705405, 3097.2788081733643, 184.04812102720544]
[10292.29069600964, 3927.7560031535245, 3.1965882324787365, 10333.378254483001, 3099.3913589863678, 187.10474293814929]
[10188.210204782983, 3932.593879063117, 2.9923354809143032, 10256.942930313153, 3111.9642062902735, 173.77339299122627]
[10043.085071973457, 3977.170083832712, 2.6937382868578963, 10146.935206180753, 3122.2230515087549, 158.56351783290165]
[9911.732767528192, 4067.8756166567327, 2.3816392002463553, 10056.457805907357, 3181.6525790021838, 141.66814368724863]
[9809.650746656413, 4191.0007195100125, 2.1634343873687687, 9986.8255005500341, 3266.548070041189, 131.09734456933785]
[9726.090755442414, 4336.754874461298, 2.0289697609306172, 9915.1399643775767, 3353.7534965183322, 126.11014826296034]
[9647.349809452853, 4520.985752334658, 1.9242470032352719, 9869.6769970552396, 3448.5471698843335, 122.95986092839365]
[9594.369100334068, 4746.25579483465, 1.5969297314347526, 9827.4703565851651, 3581.279390669793, 114.26793552273905]
[9643.800983659437, 4979.599522669438, 1.1253948386967128, 9051.2520747722847, 3579.9615958139079, 101.2523549848936]
[9775.013143498805, 5160.40096960979, 0.78903944972202866, 9604.1518723867739, 2416.4960499242343, 125.548874846747]
[9924.010337581141, 5281.964802915456, 0.64122115085421205, 9511.4138954436985, 3271.3892586868219, 109.6078375590001]
[10079.773292629026, 5472.328073984125, 1.1277509668789842, 9473.4659459598424, 3444.0285142271391, 125.11409174426383]
[10127.31358249992, 5649.515721242551, 1.4887248021418691, 10485.282570771567, 5370.4607151282798, 106.15148034347278]
[10113.339274474825, 5816.641074713175, 1.8184287763913172, 9854.2143811391252, 4523.2356154181753, 144.33450123347228]
[10062.762925408844, 5942.64177209798, 2.0853115572891947, 9729.3816810178705, 5186.8913018805615, 124.22983047632925]
[9980.58351686013, 6051.050440612886, 2.3521980904902624, 9698.4118180047299, 4970.6403336648291, 156.21221390990854]
[9893.42794269304, 6121.324707567954, 2.5718814401711811, 9608.5062706492481, 5028.3468289248103, 168.25854769374936]
[9785.681907699216, 6173.531421109655, 2.8072171913649036, 9499.2869412779073, 4973.4287530898227, 181.94724245244265]
[9684.416034750111, 6197.418505770866, 3.0112224456593184, 9493.8637138855265, 5060.1765117299692, 191.57562083707089]
[9564.466928865935, 6200.23464789673, 3.2071247220836634, 9402.8987587426691, 5047.1804654970947, 199.65295640128474]
[9398.081173690129, 6175.293627290648, 3.3537083693001577, 9305.5337502735238, 4999.0641275241869, 204.91245074056096]
[9227.340870678001, 6131.0346939456285, 3.4256699079152391, 9206.4589972140875, 4978.9972649307911, 204.33630082015239]
[9066.915288119935, 6080.843681887535, 3.4581437622192106, 9141.2459560013449, 4908.7850738923371, 208.05617619120534]
[8899.934996101498, 6024.2541534946495, 3.4746214523970393, 9094.4381817873109, 4912.3032589943541, 206.80164469610577]
[8718.42721223644, 5960.298038508935, 3.4831160428509538, 8992.216999367296, 4814.1433983766892, 205.55499224073031]
[8537.3702101926, 5895.289237659083, 3.4871009874648951, 8944.874162070053, 4748.3793002999337, 206.53519803255742]
[8356.462696360055, 5829.765642530017, 3.4890657891257693, 8883.9265658935601, 4720.1506356624677, 203.23253351632644]
[8175.80490685895, 5764.033258036198, 3.489974809624051, 8842.7423613296723, 4738.8260870138538, 201.66119879895217]
[8000.3967926970445, 5706.281887868201, 3.3776086625617117, 8833.5253472343738, 4629.5240569792941, 201.99009590364815]
[7802.884117851517, 5673.077892363267, 3.2553743608105861, 8802.7247146546197, 4477.4996800317285, 198.52108711680646]
[7603.179719914432, 5655.809601782948, 3.206031471380717, 7187.4524372884298, 5647.4371828964167, 151.03770212669048]
[7395.052853539766, 5644.6931462785615, 3.1852928994607037, 7834.1721102589627, 5059.9289018737645, 172.69370264399151]
[7130.547863467189, 5634.414602470946, 3.175665910444863, 7731.5871282694361, 5140.5348267860509, 170.93580666360424]
[6914.208009531674, 5627.227398041285, 3.1727862527528781, 7608.1940041652742, 5190.2214106736947, 169.45703215407516]
[6721.922754786122, 5621.196295229209, 3.1715608003618994, 7485.1064316799375, 5207.1478377573785, 167.07954299717312]
[6545.694578892343, 5615.832318887431, 3.1709075841552616, 7391.2103647060394, 5245.8039089742306, 163.49283408178468]
[6368.290851421602, 5610.522798073697, 3.1704463112489734, 7359.7102613123143, 5265.3948501141122, 163.36491463858141]
[6175.958248439618, 5604.872856248739, 3.169817747522488, 7195.6773701984848, 5335.4836426494448, 163.19779294668069]
[6015.326404915861, 5601.980622320892, 3.1290116499423646, 7166.1820686332585, 5307.3879947067908, 162.59586389067042]
[5831.259653797472, 5609.896691880345, 3.0735812723779201, 7034.0707567389636, 5352.5657006618057, 163.10154030992234]
[5607.467565376193, 5628.945959254563, 3.0426117783230788, 6886.5558609568307, 5469.4912123713784, 156.04459907984116]
[5352.368516317299, 5656.400059370472, 3.0267161784137651, 6758.4542950819614, 5579.6690150670383, 156.10807916831263]
[5073.50462247793, 5689.864006844215, 3.0194519635992578, 6541.7544398145574, 5542.1167673843966, 157.30712692437871]
[4770.723609122129, 5723.626921366392, 3.0367977197193534, 6383.3155235202767, 5563.1425493256493, 159.70773730668469]
[4460.002849052404, 5755.101667769844, 3.0421707123981645, 6202.8085976026914, 5588.7642148414679, 154.33880920117744]
[4132.556687549847, 5787.183888046669, 3.0441908363448134, 6044.5123170060833, 5592.7169059868947, 155.99228906319098]
[3826.0380832437177, 5747.505575523075, 3.5305883918014058, 6022.1652450352003, 5560.0462553806938, 172.02465822799277]
[3561.8839231324605, 5582.384019882431, 3.8734773104317854, 4730.125957208018, 3917.082253050572, 214.35267734713813]
[3406.5941343398713, 5325.2362849138735, 4.4398799080166214, 5030.8886815167834, 4637.3529286733119, 229.76843561154126]
[3371.5026170291503, 5103.820654519117, 4.6407694588783652, 4749.1044698129426, 3080.863013512298, 286.36870715281196]
[3366.580333059848, 4887.73857466727, 4.7267985846552296, 5260.5499622188563, 2405.5192252327151, 292.20679757241533]
[3371.6020719803196, 4735.405430933386, 4.7606071388084494, 5116.0297997317339, 2870.8489190339287, 281.3183828125554]
[3379.2286359514437, 4607.46698957887, 4.7816391728909595, 5177.5930171825603, 2739.9436597766353, 279.90129128939191]
[3393.1382399208514, 4455.326738881573, 4.8781672453899132, 5233.890971441675, 2608.9733597565082, 276.63469447630871]
[3455.3928994792245, 4283.116874560326, 5.2395094324668632, 5317.7247906584862, 2488.0297260646653, 259.11678193133059]
[3566.2534156388374, 4146.953855273427, 5.525741754798652, 5420.8380680339615, 2353.5903200526836, 234.09413200422702]
[3691.3497917255136, 4047.142061950288, 5.6817319358849776, 5470.0132630400658, 2256.4619295623465, 221.15936205914173]
[3814.4617669360123, 3971.850533522897, 5.7829300634549972, 5556.6608150672782, 2252.2352737497572, 205.05746883471335]
[3937.559817558165, 3912.9360439222723, 5.9272688665883448, 5649.967840334245, 2207.1737451607746, 195.6697491580351]
[4061.7984977190013, 3883.8434966905993, 6.177314943576218, 5732.0068605117667, 2185.0067576301108, 172.81538628806675]
[4189.998967137001, 3883.8093820740423, 0.094198247787482592, 5770.8578767707741, 2211.7046202476881, 156.87655167405322]
[4331.672248248961, 3910.045057549991, 0.26626922261679015, 5844.3279244679752, 2246.7151913995594, 152.31065546732768]
[4469.611609170308, 3953.482238644412, 0.25875368758383116, 6037.7824108224759, 1565.3991869668837, 41.333715970550259]
[4627.069560872757, 3983.5070895317217, 0.13112107448993177, 6075.4280387488179, 1953.9887029365407, 182.34132946805192]
[4786.738231880029, 3998.552799466222, 0.063138535288740569, 6187.026026384573, 1998.5598894254215, 193.22202173313156]
[4946.992552218475, 4005.403491687318, 0.025357867481195357, 5589.4583057355003, 2526.32010036874, 240.61502401578917]
[5107.291462718755, 4007.5679633398777, 0.002873716161299431, 4210.6447915088665, 4678.4013743417208, 337.81227097698905]
[5323.850165240858, 4005.9865642994, 6.2661894118334054, 5256.5539930007481, 3406.8705845152826, 231.86647999425705]
[5532.555080917338, 4002.027608288722, 6.2695550355442302, 5453.8834300167, 3253.620095640646, 221.56256772514075]
[5684.97070437389, 4000.5753086890395, 6.276468732946487, 5592.704807344523, 3155.3005666380477, 225.65834792290852]
[5909.394058249592, 3999.734384584545, 6.2811222382230794, 4802.7524352875498, 3571.0053595119866, 313.25390661775037]
[6117.87092002574, 3999.5716850014815, 6.2829018151035649, 5408.554525004819, 3249.4642530102305, 256.88728938479505]
[6278.189985670113, 3999.6267257865297, 0.00032630522775567851, 5559.1109059619375, 3129.4513407532381, 248.94596106806688]
[6454.572088587467, 3999.766083235366, 0.00062353389521583116, 5675.0280428289607, 3066.8787701270558, 240.71680821165555]
[6606.972217111951, 3999.9119137718426, 0.00068901290482458464, 5789.4878233920444, 3043.1244014309086, 227.98021403667644]
[6751.4752209248145, 3997.781812563298, 6.189589470697543, 5876.9930436143213, 2972.0127704193483, 227.57855943650333]
[6913.405143411907, 3955.0369353466467, 5.8597584429981104, 5903.0825260581032, 2943.6463673699882, 236.63901541935493]
[7028.722617906641, 3883.3162789563858, 5.5928048174557956, 5962.4276913622689, 2879.0195791774167, 236.91745076560662]
[7123.286993290852, 3785.3447480502296, 5.3856078799299247, 5984.1665684934223, 2790.563847642316, 232.94654539832487]
[7205.262091387878, 3666.643996813713, 5.2591070935597513, 5935.9744592556781, 2743.6404520727224, 230.28935417666139]
[7278.841088862201, 3533.5151744881473, 5.1817996465054561, 5858.7548663342031, 2649.1029987071697, 237.45375113262068]
[7363.81305197045, 3352.156849385682, 5.1242556835769211, 5879.7270272615415, 2626.478198860355, 225.70448371122342]
[7422.797446404101, 3211.6316221258585, 5.095963838357183, 5590.4583410405539, 2287.3370297119168, 262.52231562191514]
[7474.987389273096, 3076.8576834911187, 5.0453368069388702, 5667.9419892632741, 2338.6727776950033, 243.09349821866164]
[7514.2057025499425, 2913.230946161704, 4.8483143001025297, 5402.072425506467, 2232.4875562017105, 266.6367710316797]
[7555.858963557474, 2750.686311073197, 5.125789211909284, 5502.7951799788316, 2339.5100100807676, 244.87129480015642]
[7647.0001179992605, 2610.137913808555, 5.4353242863544802, 5060.7397174920889, 2105.4517584476357, 257.29615569642505]
[7751.6578671120415, 2510.8248336425163, 5.5979512258501032, 5253.803476146114, 1978.6597797554159, 265.0586743356867]
[7908.377513234814, 2399.5121967480372, 5.7200399759266718, 5251.9384246019044, 1839.2669103175915, 265.45819713849988]
[8053.77190361605, 2314.5729011223693, 5.7840463825828579, 5282.2164882839797, 1700.6864135405078, 265.29946718102872]
[8203.539666819954, 2237.968986549691, 5.8364844003070031, 5340.9631216348807, 1611.9315433380759, 259.11863743437351]
[8348.126423725535, 2190.8032113432314, 6.0737931523049316, 5359.5615217613085, 1527.8185570650771, 253.17265678529867]
[8506.850916846084, 2168.462822000754, 6.197211688992212, 5443.6128103973269, 1450.7218322639619, 245.65311255962934]
[8675.016432017936, 2159.8927741969574, 6.2586128779566081, 5509.6148168639647, 1396.297194118401, 236.87628017873269]
[8803.385318781118, 2158.4797188799625, 6.2823402403060555, 5523.0061139597465, 1331.1306924417263, 231.15942464734283]
[9003.634119006974, 2160.507735721434, 0.017265648754751627, 5568.3250733332907, 1294.2661389481939, 227.02743984295512]
[9196.146789950344, 2164.7454139664987, 0.024585408181618904, 5641.0206798022718, 1232.9223809987266, 223.44052118503885]
[9428.64827099814, 2171.080031991437, 0.0281098156644966, 5723.5971802782042, 1150.7415676911362, 215.77901099370817]
[9677.115455177904, 2178.4105610060083, 0.029380641750929689, 5748.8818483066452, 1096.2738232877325, 215.4072141364675]
[9933.537429568962, 2186.1653124538775, 0.029658720469711113, 5770.2701386543904, 1049.092358726296, 209.25749303537361]
[10198.01080028995, 2194.169437471223, 0.029364169685412347, 5896.1167974650825, 1066.5155364240672, 203.12840173744684]
[10436.659497792041, 2219.3736946750223, 0.29606904004515827, 5950.3617104932573, 1045.9139157684724, 196.93080690820227]
[10647.438544474955, 2345.8248194807866, 0.78294919831786547, 5988.6870321428651, 1111.3825124572356, 176.59417592031937]
[10782.47043092378, 2552.5234419467865, 1.1467826655640356, 6155.7129863798491, 1178.8246977850829, 165.88334089757305]
[10863.583670678292, 2778.725675113179, 1.2842702375874084, 6217.6192269148569, 1283.0315350663666, 161.32297349440867]
[10923.638668866914, 3011.484059630033, 1.343277758708699, 6368.1915662630054, 1373.0990953887861, 159.48059236060868]
[10972.127242328002, 3238.896185510478, 1.3747356677465139, 6793.8515462083215, 2072.2674621295951, 123.91921471837915]
[10990.966483650407, 3446.044869044277, 1.6657613056690892, 6637.2629160269016, 1826.7702396657533, 143.17581781298122]
[10950.974423450058, 3600.7890398054174, 1.979922152313266, 6547.3816808303063, 1909.3976932925789, 146.75588163301035]
[10843.26428788158, 3758.7359204604213, 2.356793611981415, 7548.6652483045418, 2260.777127830459, 169.51922892323753]
[10670.286728616808, 3872.2419870430826, 2.7559829040944375, 6935.61178811225, 2127.99234795749, 180.99916450509002]
[10563.289242684423, 3905.520364949655, 2.9146769484077111, 6827.5408280854463, 2120.1276746923904, 185.39107608354544]
[10452.498643670355, 3923.7283074574007, 3.037041235306476, 6746.1558818952017, 2131.6464176237632, 193.61569924646463]
[10316.519883618772, 3928.8489130029916, 3.1703104064840155, 6660.3131360944499, 2113.6751114162962, 199.76318647111549]
[10188.298370780689, 3932.5712842497123, 2.9925392687473469, 6660.9429365548676, 2112.2207465443666, 194.10143784288977]
[10050.502697942515, 3973.612645402875, 2.7095747893221134, 6592.8194435548967, 2107.0264659969994, 180.1828992937827]
[9935.701830102646, 4046.330337646384, 2.4423606144864896, 6550.1441892239882, 2100.4624374670602, 172.26804890068684]
[9832.680398000164, 4158.211951121106, 2.2071896869982393, 6437.3120870023977, 2141.1369764357514, 163.28602856703233]
[9755.567108123669, 4279.885282737303, 2.0725023163951475, 6342.0275748760578, 2166.9549688399029, 159.13014493835809]
[9692.104884703647, 4409.57549539188, 1.9828708837346039, 6274.2097907596608, 2248.6321011555237, 155.43930198106227]
[9639.088459258974, 4543.437513965165, 1.9123799117443645, 6200.8763665157967, 2326.0425656015159, 150.38452408477113]
[9600.15170823753, 4682.306428272528, 1.7221990425760734, 6124.7195990095079, 2454.848268907343, 143.98288971083556]
[9600.919101020978, 4841.9476339169905, 1.407902715769592, 5462.7923447984585, 2771.1798328039245, 75.307211445449369]
[9647.355758465921, 4986.3497488060375, 1.1092515123035105, 5531.7661011763103, 2848.5799618158526, 86.003776529537419]
[9711.64048764839, 5087.849699657701, 0.91198411003955437, 5722.985578089455, 2878.977873268565, 87.718024557360508]
[9798.02387671378, 5182.37681793909, 0.75280848464403505, 7451.7953772238261, 3364.6131203078912, 34.145560628662928]
[9877.941284865938, 5249.065804632829, 0.63522057245388586, 7455.4102369016991, 3398.257282034323, 52.679399108566884]
[9955.19734487945, 5307.12982610394, 0.72093369639778182, 7646.8810732429547, 3504.3398526765845, 41.595442588765849]
[10035.254973649915, 5396.315904038667, 0.95638009304630922, 7485.957206570336, 3489.0564260635815, 60.40008671819335]
[10082.947894375851, 5479.663014576352, 1.1447330785206855, 7558.9353362305283, 3559.1520776326861, 68.191380078382238]
[10110.24422341296, 5555.1446283861505, 1.3017377534838608, 7609.8099422275745, 3615.8630248039108, 78.877834260857568]
[10128.247341635762, 5673.661810438219, 1.5372022475352771, 7638.0289251395079, 3708.7499304763933, 88.785587532182092]
[10053.716476727715, 5956.599801578136, 2.1182924874536591, 7620.3740363108245, 3928.8415643036396, 116.79691892105971]
[9850.601518928903, 6144.993004548602, 2.6678052006135631, 5160.5799114414222, 3547.3754480415305, 219.26094507151709]
[9667.086684469316, 6198.713315233266, 3.044539810150499, 6198.0234509662359, 3768.7526274035949, 206.2549474925375]
[9499.367535543879, 6192.960377810709, 3.2769563566724957, 6146.1862970854372, 3728.5656169768677, 221.92318730024977]
[9349.903194660776, 6163.749333811165, 3.3794643547181473, 6064.6230240803325, 3656.476348827222, 228.0846751713409]
[9187.822631841025, 6118.8760997111585, 3.43576675971044, 6014.7512880565109, 3576.6861187407067, 231.49394590099101]
[9035.065738996975, 6070.028586770797, 3.4621915880029319, 5964.2625337207555, 3491.2047349491158, 234.98378118919561]
[8883.364659190487, 6018.292575136309, 3.4756754905588458, 5897.6380347357444, 3398.2123435330827, 236.01983830165972]
