[8822.906797473293, 5998.017632837253, 3.480363143519785, 5963.1342508343905, 3762.616340758032, 199.36596929462573]
[8671.983683473778, 5944.2979051586235, 3.4857228937131808, 6037.7688786112867, 3740.885272301447, 199.22861067601346]
[8475.905090254226, 5873.5394495628525, 3.4892388714900386, 5905.5489692646524, 3544.4570309633623, 199.73284510097824]
[8325.116372397266, 5818.732812617696, 3.490651778341137, 5832.4875671001391, 3578.447903853657, 199.95576182139891]
[8159.630599843182, 5758.365685137147, 3.4915424057750917, 5738.1342555941446, 3657.3223345741699, 199.58827206859382]
[8013.395807220519, 5710.292673049975, 3.3867857061328315, 5656.4320036444196, 3692.7547020878114, 196.26663619106762]
[7840.087669092183, 5678.913179273107, 3.2696988243170284, 5415.1269545041432, 3689.4136379810279, 186.2700131734249]
[7688.553066204549, 5663.4416714232175, 3.222082415184234, 5150.6563740089041, 3676.0231210794695, 184.47135845832909]
[7544.402786244435, 5653.646895892729, 3.1989627521258792, 5843.4368624063254, 4022.3854253138779, 203.91865912143533]
[7376.1197715991, 5645.239933968256, 3.185360180331644, 5320.0094397262319, 3839.4929967555036, 193.67057690025283]
[7176.038690374425, 5637.273101752453, 3.1779661115771436, 5227.8683603484997, 4193.5605531489518, 182.01799887018205]
[7007.847351608989, 5631.375008767213, 3.1751154767411616, 5018.0036341337836, 3968.6793048993659, 187.56172432555013]
[6791.410020214554, 5624.270236622672, 3.1733774317496928, 4757.9036815911822, 4401.7610872734658, 174.76703109074566]
[6559.1100403971495, 5616.928823431891, 3.1724715927767893, 4506.6366165593736, 4412.8489571533873, 183.08696019689458]
[6334.572893042062, 5609.9838245413675, 3.1719398645990786, 4371.3095020146066, 4293.0796904477293, 181.19565897209455]
[6126.225164730444, 5603.64370013553, 3.1713431325881669, 4141.5074296323419, 4231.8280467311934, 181.94172930190771]
[5941.537556572514, 5603.838821437904, 3.1033034611254422, 4000.4718399066055, 4218.0169370653766, 179.50903421014408]
[5709.647701898759, 5619.212445475125, 3.0541774345928556, 3833.2019037058085, 4193.0221610817089, 177.05801523808836]
[5550.298660868182, 5634.531818295716, 3.0380506553763102, 3685.403738680172, 4179.421850508802, 177.81075345441229]
[5398.696407412061, 5650.985823853699, 3.0288534344543554, 3527.5648402016777, 4041.8016223638797, 193.98911845150056]
[5199.854179192556, 5674.273312125618, 3.0207281422693852, 3321.4375773201791, 3979.6987801425789, 177.65850717502857]
[4944.804375571523, 5704.883673169416, 3.0293650472954092, 3222.8851075918137, 4002.2383706234464, 181.88872074330854]
[4641.551395518308, 5736.972626689101, 3.0399607479287472, 3015.8857786821159, 4016.3534834715028, 181.45337588605008]
[4418.278086724539, 5759.269267885023, 3.0427575493753229, 2576.8504250714818, 4060.8488209039988, 170.29791831635828]
[4234.822467247729, 5777.241715467551, 3.0439000789835489, 2566.5556082049347, 4066.6113621408886, 174.99610517133615]
[4026.8786797969483, 5792.3146722790425, 3.185797392847975, 2405.8143836338477, 4073.4750152573542, 182.88832231836261]
[3840.0316746082453, 5750.127433888719, 3.5158068082465626, 2355.8322812133424, 4511.6061304759487, 205.82943234577209]
[3697.163893191588, 5678.025578303201, 3.6905671419720307, 2226.6438007831657, 4255.6043809889943, 212.24336775366442]
[3543.618019283619, 5562.544565533267, 3.9229818982897386, 2045.7000445205613, 4621.671356735631, 216.96871421462725]
[3453.054819300052, 5440.7867646370905, 4.2212569796524591, 2172.5518992588127, 3386.6547064589936, 285.52228660795618]
[3410.9523523618577, 5337.138237157114, 4.4191434472599527, 2103.3045384863631, 3310.0048699740655, 276.80356876850874]
[3386.109012917553, 5227.742500578438, 4.5482733661560619, 2066.510043415904, 3378.8568445939291, 282.04905097579115]
[3374.9108548323334, 5140.187895801791, 4.6168038426529669, 1988.5898307885623, 3148.4884310991738, 285.09203433928957]
[3368.1789749350487, 5036.183318905637, 4.6735104084041765, 2063.5976273266242, 3013.7053442667479, 275.01073079874777]
[3366.382581210164, 4939.953929981652, 4.7102774287308407, 2210.5462138580569, 2878.4298231148209, 270.81471052781694]
[3367.4176056441156, 4851.843930195747, 4.735234738287474, 2142.7716233409878, 2865.2457085760557, 276.0876907007052]
[3370.056024224319, 4771.5626397779315, 4.753035182250402, 2052.4746252704008, 2779.6301909874387, 281.18263897561508]
[3375.8619644918695, 4659.50896261923, 4.7729520287467997, 2116.5121880528723, 2701.5877811931737, 275.80001618983908]
[3383.708671423906, 4547.749004231127, 4.7903221809168324, 1724.5055867548388, 2614.470407671954, 281.16459233568116]
[3395.6365281935105, 4443.940899528482, 4.9082750326221305, 1569.8939741933998, 2543.5961939341555, 274.04584071685775]
[3426.231535669981, 4344.620917947936, 5.1123959370045178, 1759.4514585147599, 2460.5070469161242, 284.48028144049056]
[3471.8562412010747, 4260.1087615186425, 5.3008051690416078, 1801.6294504740524, 2388.4637090139345, 281.92650735022613]
[3526.377134812521, 4190.822838649683, 5.4483415320437736, 1848.8735652426365, 2325.2428459266871, 275.18313479265186]
[3583.2949965833263, 4134.387289827328, 5.5498106637072091, 1885.7002227401174, 2290.5578087783579, 261.64591184968646]
[3645.046384365643, 4083.3062661179556, 5.6296022028601556, 1908.2379610197663, 2260.5920263697699, 245.4960646036356]
[3716.910529622219, 4032.4219890777667, 5.7003610758360566, 1919.6375165463248, 2226.5717481304605, 236.91430067077673]
[3812.7394186032498, 3974.538789682208, 5.7758185321158537, 1982.7833902326688, 2186.2046521260336, 223.50305559096995]
[3898.2438150742005, 3930.548377324618, 5.8400190592049519, 3810.3836622623671, 2228.8494248080938, 322.6109876329715]
[3988.6281276045006, 3896.7536427069062, 6.0187480867103629, 3926.5969464308664, 2198.5444519098601, 306.93434213683986]
[4131.500918965007, 3878.783848476715, 0.0029827477020007193, 4004.9867241069869, 2175.5584466345135, 8.4960976784533759]
[4298.2492218389225, 3899.2406238655776, 0.22805402348907045, 3925.006969694678, 2207.2527871895231, 99.732322336991146]
[4466.694164308872, 3951.965997660736, 0.27617799892054717, 4372.0667568321633, 2240.1408158364443, 46.309479869229882]
[4568.193537611958, 3975.0951888331288, 0.17715809210962105, 4275.3099139069382, 2271.9445098490387, 137.33507382644225]
[4639.575235385882, 3986.088627373428, 0.12925282142605066, 4321.4910831710404, 2287.490584907428, 156.77196931712407]
[4711.343518139199, 3994.08365982365, 0.093138300541827923, 4320.7298536331327, 2287.0758060701569, 174.0704029047738]
[4775.23962238603, 3999.2652736760506, 0.068352589404272662, 4314.0702104899383, 2305.612537826979, 160.37665738170378]
[4839.0291538194715, 4003.0336279122025, 0.048735856802489499, 4367.9313877899594, 2296.3663270177426, 176.82592750712146]
[4903.329278841346, 4005.6959423354015, 0.033181734778351228, 4436.1578445625046, 2324.6441954969532, 171.53414120488372]
[4983.293804750489, 4007.7710000035922, 0.017840407556011247, 4477.4304627719921, 2338.8292343211142, 175.89971587887413]
[5063.377940413977, 4008.767033511157, 0.0058819639883056236, 4473.8312603959184, 2348.5435937400621, 177.48001905031282]
[5143.648789351829, 4008.9062651546924, 6.2794880003387501, 4494.8933274979117, 2342.0223577681418, 178.54755462518509]
[5239.840903428942, 4008.1554692718328, 6.2699280010547209, 4582.3328461581377, 2372.0836532902576, 171.41626670651462]
[5351.984305494296, 4006.1925304043198, 6.2598020704409896, 4642.3450156620484, 2394.9631444764773, 172.02521099404692]
[5432.5903337050195, 4004.1677887343158, 6.2587791587762629, 4652.720809470884, 2403.2184111466113, 174.92586725551863]
[5520.837370119608, 4002.457176108271, 6.2666209399575052, 3024.9064675856366, 3997.6091348969308, 34.72656256129423]
[5625.039200972169, 4001.1550746276753, 6.2727514652666523, 3116.8409901319824, 4001.9585484701397, 53.895900277180282]
[5881.544543269945, 3999.795416813282, 6.2799984882326747, 3721.1813682161128, 3622.4640442964392, 121.31898512919113]
[6186.4808705466285, 3999.572987190652, 6.282753380553566, 3943.8036354319165, 3630.2440090286441, 133.64042212699843]
[6378.607466757212, 3999.709708460753, 6.2669392170600565e-05, 3859.6330387164517, 3974.5104387465603, 151.56489418227568]
[6539.01633981898, 3999.8663938089094, 0.00020588750577171049, 4008.4979410275159, 4001.9763030504109, 90.167726194783839]
[6858.08207319098, 3977.5663601120955, 5.9845635129618699, 4273.3768381256259, 3954.2690197424208, 245.94714062727502]
[6953.777222669396, 3937.106786000845, 5.7801194973904426, 4360.8136672897926, 3947.6235427715142, 256.75557049664445]
[7027.171510167154, 3888.1000157384333, 5.6072052740309566, 4449.5584817557246, 3918.5457950298924, 280.80347967276208]
[7147.009488460034, 3759.719546616398, 5.3478057402446648, 4539.6209533393958, 3863.2261579851906, 273.78532702671521]
[7267.736805440909, 3561.1851960922822, 5.1901909579375616, 4413.975309621268, 3523.8973504804253, 259.6229656384906]
[7360.157034368814, 3365.403033445753, 5.1224711823780851, 4587.5295422748586, 3484.7776790049675, 261.53356955098815]
[7403.846460978553, 3261.833604755773, 5.1000587287716588, 4459.063451229953, 3214.7748239196317, 262.3993337285952]
[7445.286929218071, 3157.673648459652, 5.0807468051061289, 4504.0599954164391, 3239.3127788809202, 253.49745208895035]
[7473.665643462485, 3082.320929757455, 5.0491787183567354, 4412.115729554298, 3141.0892144793652, 266.22746789140109]
[7496.616794362171, 3005.4433378696585, 4.9555731771775502, 4558.0801638488074, 3072.1189726091702, 274.17984933167878]
[7515.636000155635, 2903.156488056575, 4.8323906444309657, 4420.9701969894368, 3001.0093292255006, 271.37763153809169]
[7529.506723930252, 2824.084611094861, 4.9629007949057513, 4448.3608444542824, 2869.3952397545363, 264.84348965899932]
[7555.426940848797, 2748.2927074444647, 5.1199342037165527, 4599.0181671348846, 2765.8908336194386, 281.97816478991382]
[7592.915526751668, 2677.4197511217662, 5.2769777776123252, 4529.2583045110059, 2723.9119432703051, 291.46412834250435]
[7635.618540601388, 2619.228008509597, 5.4075817536947204, 4725.1128409311777, 2634.329210164909, 296.31652327571288]
[7684.644933257489, 2566.3981691863855, 5.5075433999620635, 4593.7512462997956, 2566.1280845104457, 323.85811306648259]
[7738.192446854894, 2517.981728035103, 5.5841444669473015, 4693.3973934575661, 2536.2085228273686, 297.52170544437411]
[7794.7895634843235, 2473.369353387325, 5.6434771242182018, 4953.1514482330012, 2699.7151310248373, 111.87868743474168]
[7853.585551930855, 2431.8468699036644, 5.6900838121117321, 4947.2937488956413, 2631.2246831000093, 328.34263511150607]
[7914.157004824403, 2392.7460048744506, 5.7273962399475833, 5010.9799846265059, 2593.6592609999639, 336.98356650433158]
[7976.183135428981, 2355.609576757517, 5.7580183223333616, 5068.7180481789992, 2568.7964419182535, 298.10009374355292]
[8074.452406701673, 2301.3534007989124, 5.7970561093767303, 5172.7802566848577, 2595.8322533600858, 187.20804737895639]
[8138.554932290446, 2268.45171943923, 5.8194939671193247, 5230.2866087606417, 2554.0859768485498, 204.96248201552947]
[8203.602830679216, 2236.9024535699423, 5.8432070384474111, 5286.4996724495841, 2545.7521522901388, 198.29875952586843]
[8270.852829289275, 2210.6974166691275, 5.9736110779009888, 5346.9262758498589, 2538.8123667162795, 177.88856301330992]
[8348.390576184463, 2190.5631565403555, 6.0772449577972205, 5413.5000103026796, 2443.6332475947579, 167.4902258497612]
[8443.406151963014, 2175.14698315355, 6.1603699627601474, 5462.0865464713634, 2291.3322993099596, 254.46210001893184]
[8539.212181005649, 2166.154049619854, 6.213904014463246, 5544.0555446392145, 2392.0336225787473, 189.6260116231189]
[8611.430711639752, 2162.223460319221, 6.2412129561491367, 5597.6075332329856, 2386.9257050729366, 178.11637344384408]
[8691.4682212003, 2159.8239967579348, 6.2627058062241199, 5657.5853725644347, 2400.2364502437426, 173.4741435339167]
[8755.759791086984, 2158.9619737401736, 6.2751372810861916, 5701.8466943903804, 2398.1515231788285, 178.67824721180645]
[8827.8263654095, 2158.815568824946, 0.002236213139632859, 5753.9543680113002, 2410.933532661491, 176.51150257589754]
[8899.969481754391, 2159.301547549836, 0.0097044118127703194, 5793.6806795054454, 2439.2607614148151, 162.19167432282075]
[8972.366976705816, 2160.244080039, 0.015163826446221346, 6072.6715965066178, 2262.83970418442, 313.97234097705655]
[9044.465597513974, 2161.5295460052125, 0.019105842293492589, 6131.7614617464715, 2257.5629229307442, 226.93863934325714]
[9140.54544158992, 2163.6044753813394, 0.022746469550480292, 6197.7754627442755, 2272.3489803697539, 209.378007150451]
[9212.678567885547, 2165.353751708831, 0.024655390257590833, 6274.5714127011652, 2205.1650188474196, 188.71826655184142]
[9292.764853287294, 2167.4336959015973, 0.026171498564178577, 6373.2361915621468, 2219.5289854490429, 158.74910108024645]
[9365.10677102716, 2169.3979872526543, 0.027191101006478074, 6463.8852054459776, 2266.2682129026061, 188.79579457748369]
[9453.333001529618, 2171.877820194753, 0.028062284971418799, 6530.6747734374394, 2244.8824403620597, 187.9403912151852]
[9533.367413912643, 2174.1851988064054, 0.028592068017430743, 6634.5159528905569, 2247.6371742995925, 203.77993671445412]
[9613.51511730424, 2176.5256588032316, 0.028988280479733636, 6714.3011185474534, 2246.9647317582508, 77.209738114645816]
[9685.495826823902, 2178.6595770598155, 0.029221157751484029, 6782.3511788692485, 2259.9299985059743, 129.17936721105355]
[9765.574085792656, 2181.0451536599885, 0.029414446221126475, 6860.2109288991714, 2264.34485655976, 214.07954692368804]
[9837.72590413237, 2183.204488878357, 0.029545847765673969, 6918.2203830658827, 2252.3756970457202, 200.07685202206048]
[9909.947840707364, 2185.3716795680652, 0.029643726406978228, 6990.6489587816532, 2231.5720148947207, 218.73865704784066]
[9982.133277599274, 2187.5429806122766, 0.029698334139162768, 7078.4032532585552, 2190.997000437535, 169.59776760867675]
[10054.300871222986, 2189.7161528105926, 0.029717665329643893, 7153.5538558749804, 2220.1995120557094, 185.24558638914388]
[10134.489114361248, 2192.1307164462605, 0.029710250935256654, 7218.7845988436629, 2219.153184470857, 184.70673255510906]
[10198.545244106132, 2194.0595274750335, 0.02965399914620833, 7198.3524673448792, 2049.7513165168261, 171.49070583757148]
[10254.724948737106, 2195.744498368015, 0.029599514521997321, 7285.3672119130861, 2127.292485388075, 192.849803385077]
[10311.173506024774, 2197.4900434628653, 0.045231900797498378, 7326.678461474572, 2121.8501714401068, 196.63054073627814]
[10390.586971190522, 2207.41168067737, 0.20232597040162481, 7385.6025036723404, 2114.5101890975407, 176.25423941097554]
[10459.78730716199, 2226.818322631479, 0.34370835452519327, 7438.0207555724473, 2125.4981969934875, 156.35505041141107]
[10546.893593715351, 2267.632977116321, 0.53228617191723848, 7551.8592824786829, 1999.7074615013589, 191.66844822100555]
[10612.427520356761, 2313.5654798497326, 0.68940072319061785, 7650.3625629872313, 1920.419704287423, 196.22835661027176]
[10675.167188880094, 2375.15215000507, 0.86219481239389706, 7720.0617215591219, 2232.7414841935506, 48.71265951393346]
[10726.942683401425, 2446.3282105146445, 1.0124873313674938, 7770.9023541518736, 2277.7807547770908, 61.093315147714151]
[10769.456156288968, 2523.7050809461593, 1.1175817494311251, 7797.0324002828456, 2328.7105641356538, 63.326326205579981]
[10804.846060944652, 2604.2994940841227, 1.1915387615502493, 7812.7410010783515, 2335.7956878918576, 60.866268462151425]
[10832.579204486976, 2679.464635338448, 1.2400716420924656, 7844.1258568624562, 2409.2945895252465, 70.632446660332903]
[10857.155169356289, 2755.780493292241, 1.2760767916732321, 7858.9305405665491, 2467.9550240187095, 75.013745892318084]
[10879.295770218092, 2832.711127123932, 1.3031146751405915, 7877.8785139062056, 2540.5313443588816, 76.55136828965729]
[10899.658492760105, 2910.318529059768, 1.3237984490423729, 7850.5541570773948, 2611.0948828145415, 84.655789269717971]
[10916.772290967538, 2980.5308299984345, 1.3385322440750556, 7890.2694978941399, 2684.1962364770111, 81.467172511333047]
[10934.65506220777, 3058.6396063996917, 1.3518125170357775, 7889.3058675138254, 2753.1197380599556, 85.337047290748387]
[10949.990185708177, 3129.3509339120506, 1.3619141931973506, 7879.9626172660701, 2830.305553521041, 90.004953486279746]
[10966.160182435686, 3207.732351134672, 1.3719865937836728, 7949.8893245091995, 2908.8385493596998, 79.122676764280769]
[10980.075872641586, 3278.5481569536273, 1.3810741865249394, 7935.6993464604902, 2975.2858042214016, 80.119125498323911]
[10991.284010360028, 3350.0514286996804, 1.4786618100816966, 7940.243095408382, 3030.3705357540489, 87.130808973091135]
[10992.365069732357, 3430.1068044972963, 1.6357643614636119, 7935.9781007272704, 3097.0154450966043, 97.648538312785703]
[10982.581281297642, 3501.7025056531966, 1.7772194246982749, 7983.9366584453101, 3197.6439430938226, 91.645736752205337]
[10960.059421487715, 3578.4912585424054, 1.9343843486957786, 7924.4296362981586, 3278.007712538008, 109.41842781665055]
[10921.770660042537, 3657.7123342040636, 2.1072662893398841, 7917.122375215301, 3356.835071111519, 110.23709854217884]
[10875.629288887429, 3723.0228730932595, 2.2644132297433552, 7855.5447279719447, 3424.3750831495327, 110.6613876625747]
[10825.640765789067, 3775.151491576193, 2.4058830606632706, 7841.9781283444909, 3472.1151279864234, 147.77679013016473]
[10762.339896017284, 3823.970077748149, 2.5629833232998092, 7787.4518321829428, 3508.0436197864301, 145.08866429995888]
[10684.7906852753, 3865.633205994618, 2.7306036216485743, 7742.2200631089381, 3512.4215497981836, 165.61976614814449]
[10578.412350553692, 3901.3706944944174, 2.8954447408218802, 7636.8471913839867, 3541.319623110493, 171.70724113340265]
[10499.793498283401, 3917.171241566237, 2.9877514147297468, 7572.5336085797808, 3542.7884019871376, 177.9195623217781]
[10396.141035113573, 3927.6614213476564, 3.0910063413816107, 7494.2138063000584, 3535.2746173739388, 184.57048742909669]
[10275.743097260674, 3927.4470773312887, 3.1398693154909956, 7565.3466847613226, 3922.0716386236281, 143.97590914485824]
[10141.086470783992, 3945.7187851055523, 2.8728696293447133, 7644.4830467943721, 3951.056833700422, 112.77154381499217]
[9882.15142965648, 4112.26822713985, 2.290429084126218, 7440.7080754402732, 4021.8728707130008, 147.07393705309201]
[9784.065635743169, 4248.618111433148, 2.1142029979566592, 7425.9621253871064, 4120.4539320341373, 136.53601808926638]
[9682.306206523417, 4448.466497240398, 1.9805876203647603, 7436.2368311444461, 4225.5680395006457, 132.97278114607749]
[9607.599438061008, 4651.642772227274, 1.8080689258153044, 7416.9740394212258, 4316.8780165658054, 132.2549517514762]
[9597.12637141989, 4834.607112586344, 1.4469485527609214, 7015.1170731740676, 4935.2614904323736, 107.03265370599493]
[9631.697226824243, 4966.152390184615, 1.1799670263797457, 6969.7095935264497, 5066.9501869836085, 85.759091917971048]
[9685.15196979146, 5064.366442235476, 0.97009705438488825, 6989.4017067584982, 5156.7154843681046, 76.396340500521589]
[9745.19560422327, 5139.54218562547, 0.82788313020118276, 6593.8772710636276, 4985.0835057469649, 101.38796503995114]
[9808.293496030365, 5200.9615445285735, 0.71721215523486326, 6840.1251875949847, 5140.4510046703735, 89.420646768142177]
[9871.169506313032, 5250.711384198519, 0.62024053187887884, 6921.7656544530755, 5204.5069804754676, 93.204723823644386]
[9924.498620091128, 5286.645308356063, 0.61397846742594431, 6959.8086330258748, 5265.2367714761258, 113.17665522617492]
[9997.45137140347, 5349.154308934984, 0.80256728461076676, 6994.9486863349994, 5319.8892445099473, 105.85265783276026]
[10095.884415082579, 5494.479459837575, 1.1482403431420318, 7017.5004279346986, 5452.3172128056976, 111.44350500180751]
[10140.700480108613, 5696.729736543304, 1.5567482127874062, 7239.5232494355814, 5890.7563832166925, 110.52887083022246]
[10088.29111708104, 5928.973436990276, 2.028221307649881, 7277.1815098542656, 6111.4323298130093, 106.69171624841782]
[10012.528858909523, 6041.805461572841, 2.2954049500489409, 7222.9447845333507, 6221.110877559252, 119.61569787686587]
[9929.631656020336, 6116.899550639559, 2.5153586922283142, 7093.7197645658143, 6298.9456064453589, 143.00416857358243]
[9854.07992495937, 6162.152915998002, 2.688173970026317, 6986.9161791123106, 6328.0220496345473, 153.54145980135885]
[9771.839796000391, 6193.727707233941, 2.8609688184736397, 6911.528808766303, 6320.6006329355514, 164.02017081631524]
[9685.427324140872, 6210.67318423635, 3.0337604202170723, 6838.2695496356482, 6377.9620808171321, 171.11392220491777]
[9597.370153446214, 6213.175343292374, 3.1821104114247194, 6731.2318669048391, 6380.9870888536843, 187.21117760135067]
[9509.49094086127, 6204.85317506043, 3.2822045564584648, 6626.9425163130009, 6387.7609463815152, 191.86572851669081]
[9422.677745871402, 6189.311424346132, 3.3497518834376385, 6555.7102996139974, 6382.8122437020602, 197.19755470806808]
[9344.879486343538, 6170.997724467881, 3.3919990297088853, 6545.6081647799811, 6335.1649736659583, 191.2616226823047]
[9275.250633324687, 6152.078567587651, 3.4192171857042646, 6459.9516184327067, 6323.5237256474466, 197.53189984663956]
[9213.68801311151, 6133.867254165253, 3.4371972003617151, 6497.5707363607617, 6153.3701464531759, 213.27101133266993]
[9137.17584972276, 6109.7861362942895, 3.4536844326424645, 6205.0032275445537, 6385.6632188352432, 188.36035602481519]
[9061.08052191259, 6084.6631747350075, 3.4653790747994391, 6166.9765638201015, 6358.590125914453, 186.59160707388182]
[8985.234586843282, 6058.785761253628, 3.473713297301221, 6049.0782522632499, 6331.6920058657861, 197.2624577262944]
[8909.309317231055, 6032.280403984115, 3.4797152508842708, 6018.2692526153296, 6290.6224523451519, 186.92440397056725]
[8811.11788111355, 5997.372053215497, 3.4850409318249711, 5927.5406832017652, 6273.5567331733282, 192.48603000924686]
[8728.153140540466, 5967.493808409631, 3.4880862791786647, 5857.7014645103927, 6262.5412009034908, 192.40650399467688]
[8652.73126954591, 5940.12013420219, 3.4900758863427166, 5784.4915005657595, 6255.7867456006425, 191.29584790271463]
[8547.272078812612, 5901.61432192836, 3.4919882820882067, 5708.4258443025074, 6243.1652132857243, 190.85912437817041]
[8472.223859579042, 5874.084035793888, 3.4928988384017901, 5657.2902210894126, 6215.2820258129623, 190.81932484742964]
[8381.972161431013, 5840.895148658311, 3.4936981216187522, 5593.7919221421971, 6189.4249915845066, 194.17488549517017]
[8284.195592619715, 5804.861333303108, 3.4942808282650684, 5522.5423093457348, 6169.2067611153243, 194.63227472436475]
[8156.4569134990425, 5757.710573764308, 3.4946899422869118, 5434.3835719681138, 6156.7850607529526, 192.65100403353381]
[8019.53379820107, 5711.566759987724, 3.3964400395831271, 5336.7620012565831, 6127.197393956435, 187.73900495643724]
[7814.320336203461, 5674.909581176613, 3.2601055149780018, 5210.2799462048124, 6109.1679943972213, 180.25965314635192]
[7630.730994283686, 5658.119028949949, 3.2109570258103357, 5124.7275619620486, 6070.0118661325796, 180.89571413754612]
[7446.5351279782, 5647.465891481392, 3.189361953583286, 5027.4032358020604, 6056.6974884769106, 179.93525303290332]
[7254.182221998445, 5639.22653319251, 3.1794192849142067, 4551.9933519070046, 6261.4318448894237, 150.06215533931166]
[7037.791862582819, 5631.476787360305, 3.1746132865762915, 4610.8557509837265, 6218.2541173799682, 162.05893264279177]
[6885.368626976049, 5626.464387754277, 3.1730114628606954, 4298.8252881355711, 5165.5584489506946, 211.51268683532612]
[6709.201617804521, 5620.901477710762, 3.1719174789377886, 4327.8798112094764, 5653.2700955018372, 187.70963699381323]
[6460.759067122619, 5613.2981257294205, 3.1709815673842781, 4200.6072951881715, 5617.9084143287846, 186.80186751873555]
[6276.327906797047, 5607.787350847355, 3.1704022753116594, 4097.5449931009643, 5571.0362276404057, 189.89509616262544]
[6099.637856859479, 5602.628697383139, 3.169577870509912, 4563.5795080104008, 4395.353167814159, 211.06906275905058]
[5875.266985446762, 5607.382569957602, 3.0829333996016657, 4352.6365743085153, 4419.3459941095143, 172.96344279368202]
[5683.558607434472, 5621.993155007511, 3.0505321751276626, 4081.8044186164971, 4665.4613117783319, 182.87308219760772]
[5468.172080375723, 5643.640893179969, 3.03288088412482, 3891.1364633819762, 4641.7713640941956, 181.12837573025314]
[5221.315945174156, 5671.848654821469, 3.0220700958652698, 3713.3600407946683, 4599.8688561216104, 182.31732438632338]
[5061.674621501566, 5691.316420672257, 3.020503525185029, 3559.6777323971578, 4593.8596080428069, 181.9287275686533]
[4886.4904172547185, 5711.293354277305, 3.0324923910786086, 3458.8704599808393, 4528.7042881763155, 184.46759953955325]
[4687.144624030689, 5732.235440880132, 3.0389016903673189, 3308.7991557810487, 4484.3239244356437, 185.25722563932558]
[4501.358349937701, 5750.93100405418, 3.0417943054726817, 1722.171380271488, 5656.5151924999436, 150.75641713412995]
[4357.8071094180195, 5765.099119810748, 3.0429233351073273, 2960.945679701611, 4069.7712776442086, 214.95437143220641]
[4246.196898422494, 5776.023879062751, 3.0434614090622092, 2544.6207264435598, 4578.2773515331037, 191.96090613233412]
[3958.546812888766, 5785.854479604674, 3.3108804384280051, 2312.1390286619448, 4557.5853951454583, 205.56244180119563]
[3734.3594126106814, 5702.0702913037585, 3.6489806114046668, 2169.8607352362833, 4462.1687706457242, 222.38324379421721]
[3613.4681129251207, 5623.29590933249, 3.7845262643366682, 2123.6410063346052, 4379.7931782164887, 228.66177629335758]
[3529.137872580719, 5549.350691687877, 3.9634340018136371, 2077.0464483547958, 4353.9940104368907, 236.86240027999287]
[3466.4968703471354, 5466.314611614063, 4.1674919930251599, 2701.1585408699384, 3394.8563046222157, 284.0531758672883]
[3424.613423718957, 5379.720502787887, 4.3514017965801131, 2393.3016271402785, 3759.2012981133357, 271.13790995790782]
[3397.3608786703257, 5287.7284917331735, 4.4870348717753377, 2758.2603320322355, 3294.8634218953125, 297.82454714736042]
[3381.647914507789, 5200.904849617413, 4.5732561204567652, 2880.2397411433676, 3101.1112392029968, 278.94153388964691]
[3372.315670872188, 5113.1016893083315, 4.6347567271735173, 2871.5415784898137, 3008.364797703442, 275.61758426790954]
[3367.5978331126225, 5024.9052633953, 4.6792222477717607, 2896.4373473860214, 2926.4792710475849, 284.25194152334564]
[3366.2757886815725, 4944.777248771919, 4.7092998773611159, 2887.2502429487076, 2849.0928000579743, 275.35163553870177]
[3367.0628375034134, 4864.637969414076, 4.7324804833396561, 2885.7842825633566, 2768.0873983838705, 272.31245655671]
[3369.5016778958093, 4784.427603253468, 4.7507973056592832, 2883.4954646555848, 2692.5623411990305, 273.68931201184006]
[3373.699764148239, 4696.361293709191, 4.7671283617996041, 2902.9509815585434, 2624.1128320490966, 272.47055979866963]
[3382.128291892045, 4568.371084847593, 4.7872692509632593, 2901.731429829053, 2515.9579096557195, 269.52644683435739]
[3407.6305180759723, 4393.893168986367, 5.0032341549229074, 2606.8325829525306, 2367.9774381900443, 235.98995865692839]
[3495.83632090284, 4224.365273277527, 5.3748091953044081, 2762.3562477811697, 2226.9362058723891, 262.49359467218881]
[3633.080588147926, 4090.325378138391, 5.6185468972251771, 3534.1979625392692, 2386.4774107735871, 28.65572425818408]
[3724.6747900968167, 4025.5010196184912, 5.7106819437159748, 3254.0485217906266, 2226.9748647209153, 178.33914029820244]
[3807.031533067143, 3976.312894468444, 5.7760370858301382, 3753.0323364295618, 2275.3136472512961, 305.24834893550337]
[3892.5827267074674, 3932.340618379223, 5.840701959556859, 3802.4075531171675, 2228.7049056614123, 321.87442311529725]
[4029.5342199105753, 3887.1077912644805, 6.1041158556154373, 4021.062353390209, 2188.3115707338688, 318.9359948705565]
[4197.271769085501, 3882.3206992119935, 0.10152639867766736, 4064.8752730916012, 2179.4961269573419, 159.48859459155176]
[4361.7584780541165, 3916.82763813117, 0.30548468995992262, 3864.0879772409126, 1974.9276558735746, 190.61486319149162]
[4460.477635661688, 3950.61686407291, 0.28736638239965279, 4269.8599979787587, 2077.3701435588, 172.78642024988642]
[4553.948546345244, 3973.1421428541694, 0.19056403183360915, 4287.675006851021, 2094.7319079207996, 191.68580293277367]
[4617.328769637193, 3983.8137835286716, 0.14403926584326252, 4333.1951702985425, 2076.418113705533, 206.25612100740807]
[4688.971352073711, 3992.7054380554864, 0.10396584737095056, 4362.1012158626854, 2055.695171461598, 199.33550316833234]
[4784.712215188516, 4000.7501182243286, 0.065121437684012254, 4417.6414341674799, 2046.7292992025682, 198.61058783645043]
[4872.662094994915, 4005.3509567133005, 0.039748904070589758, 4500.6759978607288, 2040.2689248566585, 203.80845114395333]
[4953.019655369195, 4007.859954931905, 0.022592641002332652, 4574.2600426448917, 2040.2414090722464, 205.27672051928155]
[5065.213681327785, 4009.394230410612, 0.0048116175570725389, 4628.8801524708106, 2011.7845301514849, 213.75993841561552]
[5153.383302783914, 4009.3771851914144, 6.2774302248728393, 4686.3726913234004, 2014.0329541496715, 206.45086349953115]
[5249.585726411033, 4008.399380436899, 6.267915559216565, 4726.6885837688415, 1985.8400405139093, 205.00989153270029]
[5337.862824062523, 4006.739513107328, 6.2599574873187844, 4780.0543059016036, 1961.3290755860542, 202.71969413097398]
[5450.45844547468, 4003.813274329701, 6.2593757416663358, 4853.7953170845694, 1965.7173121492381, 199.62888989938179]
[5578.6736536552835, 4001.5546782898696, 6.2697980448971764, 4906.2111583439255, 1958.063880632453, 198.40292939280562]
[5682.798816506352, 4000.4982378577524, 6.274908941386963, 4942.0173151209328, 1936.2771059529196, 199.39198894913389]
[5779.175705336914, 3999.9032191974748, 6.2780281457237184, 4979.1322196708161, 1908.1964877618643, 196.24054354828232]
[5875.5434040134105, 3999.553558258981, 6.2801297156057521, 5007.0805674100311, 1895.7985548872166, 192.09449678061839]
[5995.769475650674, 3999.345008125536, 6.2817947919042414, 5385.3705630619716, 2956.0402949094455, 34.184032978107666]
[6107.857433451788, 3999.294347120383, 6.282754066774964, 5284.0210744865662, 2474.7748150186694, 125.43867434430852]
[6220.056427113031, 3999.3284201640877, 0.00019754886167155052, 5362.9138335055422, 2463.9141400046133, 136.90724788845665]
[6324.211293492115, 3999.4113132452326, 0.00057190055989980325, 5416.2190196359625, 2525.5222609209573, 142.56923730236696]
[6428.535224969962, 3999.522372444494, 0.00084520090943193801, 5447.9855042754216, 2553.4309280613629, 146.11418264562636]
[6540.732198898127, 3999.6671040563597, 0.0010112750979890612, 5504.1252877966435, 2585.6795271103979, 148.6865817665456]
[6660.972774314993, 3999.8364763657605, 0.001092858079917211, 5534.5037934465081, 2590.1238767099539, 148.6204097157763]
[6804.966426786686, 3989.4289116249297, 6.0800782363028105, 5586.1048138591505, 2569.9548803240718, 166.5183561658462]
[6988.480905833274, 3912.0202199938008, 5.6872888607294385, 5686.1265155191404, 2571.204576713114, 182.63570354613205]
[7106.239569463203, 3803.914815828543, 5.4152545061358408, 5733.0197101636677, 2553.1431521443346, 196.08340644911888]
[7203.47292946051, 3666.983326580146, 5.2603940180000963, 6635.1305543243716, 727.61259175535156, 298.59807795384967]
[7291.719546073023, 3505.162866097646, 5.1718032096237341, 6222.8002222711539, 1493.7804902336718, 247.52144805109353]
[7400.55498189612, 3263.993643448643, 5.1078143626085302, 6294.0813514244355, 1237.9268870032856, 251.56726216813084]
[7474.6144330438365, 3077.451624687032, 5.055754989831506, 6300.3115865469354, 1176.32419172401, 248.86811232481043]
[7519.08879378764, 2882.2399780938526, 4.8610943554047195, 6343.3102087988664, 1515.5115163312364, 251.58487194959608]
[7599.268330958118, 2674.6475822402913, 5.3010879613959743, 6515.5670270089568, 1923.4815352919375, 285.84751342224388]
[7722.3897015266175, 2537.974031309187, 5.5604597852256381, 6923.1238186740766, 2128.1528200784956, 315.66642776506922]
[7829.567588090415, 2453.861206282501, 5.6667087682239323, 7103.1392327940584, 1971.7580944617098, 336.13995294220922]
[7936.6680739445965, 2383.434627327219, 5.7320147584415011, 7345.8763023440251, 2071.2454151538509, 195.96541442757083]
[8026.539301543822, 2330.675028413242, 5.7709491110209612, 7335.0362694265832, 2018.2925368568463, 125.78801558446409]
[8117.954797438408, 2281.264308863587, 5.803399602494876, 7394.8927230692216, 1982.4587058460404, 163.34245188396724]
[8196.757047915462, 2241.602238012692, 5.8308271122913498, 8100.9601318602363, 2234.0973098056447, 341.39831574931173]
[8271.043493089412, 2211.2246830798367, 5.9661103757977365, 8168.7258822778831, 2214.1604604705858, 268.63204070996557]
[8411.713175242923, 2179.1165550279657, 6.1331521152092874, 8302.5269282361005, 2205.9580461220876, 210.85686363864397]
[8531.281283149745, 2166.061489735267, 6.2086294690032764, 8328.9132884049177, 2184.2739814260071, 158.05613270066323]
[8611.154122658063, 2161.4579084706165, 6.2402782140030988, 8386.9016341113256, 2181.5334036457884, 165.09518339769122]
[8683.197834932524, 2159.1494541432808, 6.2604435678035113, 8615.1024976706722, 2151.9497511310465, 341.74028867208028]
[8779.431760070833, 2157.93397161807, 6.2789337007968671, 8700.4368709765658, 2151.4313905887975, 197.11894166534597]
[8947.85711254195, 2158.9730209919453, 0.013968961985748835, 8943.7185964014425, 2083.0790106978702, 348.1871189239846]
[9107.989952411908, 2161.992132526254, 0.022338427932509553, 9009.8821922963398, 2092.1252133507933, 222.54033266555854]
[9188.164791026633, 2163.9015390318223, 0.024791489299482453, 9131.27909259015, 2068.5413319942104, 215.8100248189788]
[9268.25972265348, 2165.9766160004738, 0.026523928281701692, 9213.7178261899426, 1983.3038038873033, 286.40242575572637]
[9340.482534245844, 2167.947277402395, 0.027667597625974531, 9296.6868714227148, 2024.5180521429236, 238.33429789715242]
[9420.61038757777, 2170.2175836642655, 0.028580366681369998, 9350.4696181648651, 2019.0783864578457, 215.71724106610256]
[9500.712687983096, 2172.5506328373654, 0.029230460492219425, 9398.8812438705972, 2208.7263985177588, 78.644690448157448]
[9580.842348346592, 2174.928663060152, 0.029694856547638426, 9466.4750870030748, 2104.5912261097856, 153.88878491645596]
[9668.887385912352, 2177.5796452553395, 0.030041896406699114, 9566.8350616823118, 2207.8964859666416, 128.00283330596173]
[9749.0569719923, 2180.014764195468, 0.030277514290718715, 9661.211667423453, 2162.1353424819777, 164.72310414758755]
[9821.396124520437, 2182.2215817660804, 0.030452308685474064, 9739.9266316412395, 2176.4464269743949, 236.06570792360856]
[9901.519978891885, 2184.682530675472, 0.030561540818122554, 9809.8790803400079, 2179.0835898251139, 141.94548272633389]
[9981.492533846435, 2187.149819987117, 0.030611715951055305, 9893.6361769317737, 2177.8882047948723, 144.68834058097383]
[10053.688532014658, 2189.376576619307, 0.030661597178006674, 9968.9168481693014, 2132.3337093518994, 152.31866741337402]
[10133.813293110368, 2191.852470672987, 0.030670240768949305, 10060.712777736235, 2080.9123256944231, 126.07471375705106]
[10221.931084744198, 2194.575120354274, 0.030640555213486055, 10155.806223868083, 2135.4884379075693, 105.9191271788622]
[10302.078874394034, 2197.0472329162603, 0.030556425656448605, 10310.808914779553, 2186.9949898108621, 12.859229562513175]
[10381.87796220224, 2205.7638476081324, 0.18768654553912145, 10385.274679409662, 2206.0107558552972, 40.605486970583165]
[10525.15834516056, 2255.9656417168158, 0.48626540194080231, 10523.248723605167, 2228.1540070474275, 67.72741686224461]
[10599.255564215257, 2303.760469072601, 0.65912684628792551, 10569.80803586973, 2302.461981874922, 65.01246333885544]
[10658.493841497082, 2357.6266989411465, 0.81624113888327277, 10625.694351788241, 2365.994669908926, 59.879060366726549]
[10713.178987087093, 2426.58568312946, 0.97737238372655388, 10688.57272262207, 2394.2123029188938, 60.988734849063043]
[10757.95235885066, 2502.623450007334, 1.0926825189297837, 10756.985525617076, 2482.0124529259306, 66.820494577939442]
[10795.059322503266, 2582.4849575599615, 1.1736062322289769, 10781.471383722848, 2575.257976012329, 66.339937459400517]
[10826.6621665205, 2664.7922637926954, 1.2310148118944753, 10754.476478985982, 2648.8166191173373, 84.833685312379245]
[10856.498237237161, 2756.057026506413, 1.2753420768458188, 10770.681930399885, 2723.2517148983325, 81.180258973417665]
[10876.637281860663, 2825.4673304920516, 1.2999148803242109, 10774.043562988845, 2786.1272835223485, 81.531301365266913]
[10897.171150550004, 2902.8127611352033, 1.3210232864754263, 10803.305030593496, 2830.9982154702643, 84.286117525475277]
[10918.168479060156, 2988.5681719131553, 1.3389545898625534, 10822.7700008183, 2911.9408582305427, 83.053862728620842]
[10941.187521362932, 3090.119652661781, 1.3553422364708745, 10795.694480145292, 3023.8309738014918, 78.978190911126731]
[10957.868708113605, 3168.4891610294444, 1.3658415746698775, 10828.978124517515, 3089.0987005331799, 80.208993034717608]
[10979.89555644629, 3278.4733601044027, 1.3797944834909968, 10855.818759417898, 3210.9424177742571, 82.00169169236726]
[10991.85975135728, 3357.8294914922935, 1.4930675463461929, 10853.68318595548, 3301.7784336913401, 85.068991175194725]
[10991.779023831425, 3438.1187225325903, 1.650165710475082, 10880.116545766059, 3372.3914307129412, 87.308163198133443]
[10980.970229191133, 3509.406668076713, 1.7915573699518277, 10779.578886821977, 3509.2020007991996, 108.46782660305227]
[10957.351257468588, 3585.8787587000024, 1.9486635794142062, 10804.788164697837, 3562.8161489973954, 110.90605967027987]
[10922.053466527626, 3657.727619186676, 2.1057693209996864, 10787.899562892475, 3630.927409851427, 117.96328455120437]
[10875.880375683304, 3723.256117420854, 2.2628786168116291, 10831.813460394365, 3652.1081330582178, 120.72273599484474]
[10820.140975831006, 3780.630915938713, 2.4199419637765658, 10713.161329851127, 3680.5089289831249, 153.34222325671607]
[10756.016455234612, 3828.6600661433226, 2.5769918732583363, 10686.929295074735, 3752.0894238892229, 155.21848469015967]
[10663.056141107782, 3875.2641444190376, 2.7694453112911077, 10628.399436688198, 3726.0230402652728, 164.00901539029917]
[10500.480753711472, 3917.6353572878725, 2.9879630141135998, 10500.787641948171, 3789.6614530325301, 176.04382581547827]
[10348.511586430206, 3929.3437750820713, 3.138125862213871, 10345.211589376751, 3778.8581139093471, 184.95700726944136]
[10087.488379870452, 3958.4385331513545, 2.7886024709344852, 10126.07036778898, 3786.5184793039466, 164.45278490960897]
[9873.005326802115, 4108.136436399203, 2.2913246483508116, 9875.5300059846486, 4101.3153794373038, 123.41877747114467]
[9740.448309564148, 4308.229692912229, 2.049929180381687, 9749.0023013638893, 4318.4791119956335, 116.55739874203904]
[9664.502209683305, 4475.951605938033, 1.946903127946872, 9703.9275381989537, 4508.1381052785255, 106.65553390228466]
[9623.459171720886, 4589.082391407851, 1.8883530652042906, 9692.1477007642625, 4614.6951239094851, 91.905419605543258]
[9601.355539086546, 4674.732606051839, 1.7381033425318497, 9658.6397498640836, 4718.8651994202655, 93.950202191317032]
[9594.293692418874, 4770.2666347555605, 1.5495177464551548, 9665.5628717119271, 4767.8832147144876, 85.699803147135768]
[9603.680165082384, 4857.857102055194, 1.3766381250357904, 9661.1427514376373, 4854.3574134283372, 73.805841032720494]
[9627.980947343043, 4942.453120261245, 1.203722507638509, 9703.2571296914793, 4918.2234871811561, 72.653940771838109]
[9666.378872504158, 5021.59812253918, 1.0362549785485689, 9643.9272181239303, 5024.9213674749999, 74.936947981685094]
[9726.468650445064, 5106.557166443801, 0.87915004895946625, 9624.6985971797676, 5193.0376336977251, 75.450769913555931]
[9792.040614150757, 5176.804543980537, 0.76180399389927345, 9817.3371629670619, 5120.1376533646117, 140.3780701673374]
[9877.87804152154, 5249.048889329111, 0.63521792453775683, 9907.4596807083581, 5232.6868096994194, 58.975764649534327]
[9942.813672106196, 5296.623685772334, 0.68953947145567318, 9940.5968950387214, 5258.8779180203901, 91.627661528060244]
[10005.529476997743, 5358.241349711216, 0.86219585127759968, 9992.0313132589126, 5358.0219762088009, 51.024396748101601]
[10056.812093550736, 5429.805831872255, 1.0348370603353301, 9983.3764719654901, 5446.3814629714379, 79.383106313407765]
[10095.129437336913, 5509.302352215971, 1.2075173026715909, 9980.0196690170924, 5537.1915543024861, 84.94222440355108]
[10117.535356709608, 5586.025215409007, 1.3644281980370574, 10115.592362857304, 5565.2385974955332, 84.911785804998217]
[10127.720287917546, 5665.558819084788, 1.5214114345170719, 10116.649984357029, 5648.2018063018058, 95.064573007138264]
[10124.39719579125, 5753.645190820493, 1.6941214844295098, 10232.581666351642, 5606.4309854866106, 91.839554924241739]
[10101.097026145379, 5854.951557325404, 1.898237279184684, 10226.299276161224, 5710.7106234807407, 107.80341351006207]
[10061.67772452806, 5942.660655499935, 2.0866702112530442, 10141.760414141703, 5809.8514114376831, 121.24982819294017]
[10011.800675178169, 6015.085650744064, 2.2593365493938249, 10184.571069089057, 5871.4683534770265, 111.47105425338911]
[9950.154806221319, 6077.94541468034, 2.4319909300061293, 10108.349664794088, 5922.6875936531405, 130.38785725624234]
[9878.658813165475, 6129.268124167021, 2.6046126890962342, 9905.4318006477552, 6025.1062629718672, 159.61395350185194]
[9799.40896890631, 6167.556480902044, 2.77722318484805, 9854.7683992494185, 6025.1857371777896, 155.19955114284195]
[9722.520244516045, 6190.107989512461, 2.9341652836648389, 9864.0602073241789, 5949.3196277211073, 165.40206438466933]
[9635.09218578822, 6200.729927212968, 3.1028585151681374, 9770.5902664316891, 6004.1396083643622, 176.4081632006021]
[9546.93604926459, 6198.245148478429, 3.2270090540722141, 9615.8917822868061, 6164.3740229627274, 162.57890634785198]
[9459.528239246747, 6186.73932785859, 3.3106933143134549, 9605.0032337036118, 6039.8492583376428, 183.76192021971849]
[9373.19467338918, 6169.226841395147, 3.3672712557583653, 9521.1485521403756, 6072.1185801965812, 186.82925479960315]
[9287.634528923098, 6147.648855484732, 3.4056769470984358, 9430.3992218875883, 6101.9568089365202, 182.50137210146056]
[9202.864127378925, 6123.371176867479, 3.4318243700112347, 9360.8600527482504, 6076.9017349360811, 167.44402190840876]
[9095.591128850645, 6089.8443479247135, 3.4535470185127002, 9273.3372944097082, 6137.9621099136648, 150.8245178877867]
[8958.819442941589, 6044.235681015493, 3.4698317604838378, 9105.0102843158056, 6176.8984092767369, 161.29199973880247]
[8852.697278333822, 6007.509711081866, 3.4772414021880658, 9050.965093396755, 6210.247308872591, 152.9376331384417]
[8746.87316223611, 5970.182255749947, 3.4819366133743692, 8946.7037321576609, 6250.2799286175123, 157.91380984481273]
[8656.445175913024, 5937.92179177351, 3.4845677709713319, 8881.5148662270167, 6249.2009273788963, 160.97728431259259]
[8573.425266017526, 5908.1022225407705, 3.4862764261184567, 8807.5287186933347, 6156.9547297364034, 173.64231987035353]
[8482.832931578187, 5875.410405055772, 3.4876062229466722, 8733.9225234130445, 6246.9020579630251, 166.27727338438226]
[8354.750937428216, 5829.0050425853, 3.4888068468082389, 8642.9442783984814, 6266.3468614568947, 168.56569608951588]
[8211.625065776769, 5776.9908381897385, 3.4895802286587729, 8470.3023386871246, 5865.9734212708563, 197.45496914996932]
[8060.432676070211, 5723.106936944481, 3.4370847995325446, 8298.2530910406022, 5718.0406269107925, 197.56456815097397]
[7792.896174400862, 5673.291712015296, 3.2502881454066395, 8133.1405082471447, 5889.0315048343591, 177.95229137950031]
[7433.076631004151, 5647.833829588348, 3.1884026512906161, 7654.1493549207453, 5645.6031709076315, 186.08176705033642]
[7184.714326438203, 5637.5362818122485, 3.1777611711665332, 7401.9098817959921, 5634.7143967688107, 182.45173258384864]
[6831.787586112346, 5625.452887999432, 3.173211161881607, 7168.9183470984462, 5680.9903130044349, 182.2903027567198]
[6503.214128425651, 5615.04795095533, 3.1718333637856113, 6816.0985764934367, 5643.7884125253122, 181.09059152920779]
[6238.652348443429, 5606.931346640693, 3.1710856010824755, 6638.3900187422951, 5659.1503020628797, 180.71109805440679]
[6006.087066420633, 5602.06403472701, 3.1262475764309157, 6271.6586492317902, 5612.0216208013744, 176.44189486107615]
[5797.9622746736195, 5612.06393995642, 3.0675075290626221, 6194.1488898195939, 5655.1449238808536, 172.860132115526]
[5526.310823377146, 5637.016685283371, 3.0360669699092657, 5966.1689791500667, 5674.7704299689494, 171.76791718409982]
[5334.880103109933, 5658.251098577608, 3.0257188907450296, 5583.5268824164687, 5520.4676565504224, 192.44475493476304]
[5152.039629830263, 5680.071356457984, 3.0186831043419255, 5378.880026298546, 5611.6518790359514, 170.94585261837011]
[4833.173397296929, 5717.061798299523, 3.0345600468178158, 5055.2434316365179, 5684.1827245882978, 177.88335515323178]
[4593.761621431056, 5741.787042385911, 3.0406152722187287, 4939.2830788466408, 5676.1586726036521, 176.98844245078334]
[4330.341959120995, 5767.9049329402005, 3.0433089515944376, 4478.1494955468961, 5768.3877691113312, 170.41589641694978]
[4106.843244262169, 5789.67991144965, 3.0443936408995729, 4392.1042208341842, 5730.1753279021768, 173.39593943518472]
[3931.3786946233668, 5779.11895964005, 3.3703990377089075, 4249.1953346127675, 5722.8232101712692, 190.51484151279197]
[3752.237546742107, 5709.723874681779, 3.6282596747704239, 4094.8061687615573, 5702.5697243565246, 203.80047606124029]
[3585.1969133581138, 5599.755024687642, 3.8141370756304203, 3792.4656684485544, 6098.3689730873157, 160.71012323292254]
[3464.477928744217, 5461.3699058370685, 4.1753887229237243, 3865.4065767539032, 5089.9493799528764, 270.25019616602521]
[3415.475273118983, 5352.016182147478, 4.3965437235555704, 3890.1271530539034, 5051.8849042525489, 288.03443459793414]
[3390.0756997787566, 5250.961149970891, 4.5259765927681315, 3987.6442060335353, 4951.4581076210934, 306.75029064923967]
[3377.2279052393023, 5163.781080126998, 4.6009476683598773, 3894.0249952623844, 4865.5204737211998, 274.25124260513115]
[3370.4253738716043, 5083.839066685343, 4.650533022774094, 3905.8023400865145, 4899.8054851593497, 277.25639406823126]
[3366.2945426199826, 4931.753664270448, 4.7132856290690972, 3958.0916717767204, 4768.6366293617812, 272.89208078058289]
[3371.8069621506197, 4731.348143707413, 4.7610920905812684, 4018.1059750091486, 4617.1005683891808, 269.14578519037798]
[3386.294692576152, 4515.364368560495, 4.7961138194513673, 4092.0019629901426, 4488.3881018507263, 259.60246907831549]
[3412.074587830663, 4381.591550304722, 5.0346781917184407, 4308.0019021055732, 4107.9398423293269, 308.72636982997454]
[3481.1121405128993, 4246.316930927913, 5.3321241784313518, 4304.2302224250907, 4189.125294909697, 269.38780864313946]
[3601.41982131499, 4118.200580994923, 5.5766731401852221, 4571.9731610431745, 4113.9619938742298, 34.437067743977863]
[3884.3417636714184, 3937.065179138415, 5.830003043806955, 4740.2990395533161, 3937.3991406119026, 350.99050483502333]
[4052.039269317806, 3883.772017338265, 6.1462094965015073, 4366.7063115950887, 3896.6081399778964, 241.63481938269058]
[4392.627387760459, 3926.8194390707463, 0.34405588999429632, 4281.1408648750994, 3865.4478166173403, 21.361505614142374]
[4586.931861549525, 3976.1038138601634, 0.15869739741098737, 4763.3786821869853, 4046.5489527849413, 112.95871587680361]
[4770.042567851239, 3996.2477757083407, 0.070518083716618413, 4658.6452325101509, 3997.3458085855641, 60.306178872851071]
[5082.848518388596, 4006.8269681357947, 0.0074090264560435232, 5053.8225016876986, 4124.9377701801077, 136.67203671716354]
[5347.408983655282, 4005.3631186328034, 6.265688697834519, 5235.7436989010621, 4185.8972510307467, 148.59212642119479]
[5572.3051591735275, 4001.598501637386, 6.272483014688925, 5439.124218298688, 3996.7815562129467, 179.01760617881541]
[5788.629948234946, 4000.1992703630863, 6.2793020048757571, 5605.3892853219513, 4123.0294383421433, 166.45229812527231]
[6117.514524163846, 3999.709497728554, 6.2828027089083918, 6215.2226691293818, 4006.8562586375683, 355.73536647507501]
[6261.862635791764, 3999.7345402791498, 0.00013688197763197409, 6149.8058372332171, 4073.4521543899482, 188.03212039123972]
[6406.165436151234, 3999.8119467471383, 0.00039892545510540465, 6170.8942417733442, 4009.2493747637209, 103.22735229898375]
[6558.313816916878, 3999.9285179488425, 0.00047022140404468529, 6354.266284150659, 4031.2792447275751, 179.03220764519781]
[6883.392883946852, 3967.247904447052, 5.922361387434198, 6628.4633468904149, 4030.7290918533927, 227.46157629303596]
[7091.786259436691, 3821.9972944515857, 5.4462308457006952, 7167.7244783491778, 3827.9989953360819, 308.86422688434516]
[7209.055747231979, 3659.7551185188595, 5.254191506044406, 7145.4051182544308, 3372.4579902781097, 289.43531928604239]
[7271.252659723693, 3547.713318822784, 5.1885381066887888, 7156.6729818746162, 3438.3869784604613, 281.04590936831636]
[7324.088812339637, 3439.7022087866444, 5.1481592463755437, 7202.1339531124695, 3338.6012945644097, 283.77887199198659]
[7363.662127655914, 3351.9931379981786, 5.1247692668143809, 7377.6523376565719, 3114.657709416017, 279.29228122542179]
[7401.380437175329, 3263.5285797957436, 5.1061344481116322, 7298.8668949023668, 3271.3818041163472, 295.76356030456776]
[7440.555445042962, 3166.873027352983, 5.0885093716249079, 7347.7055272666657, 3098.8321855155923, 286.68724416936709]
[7469.549605827541, 3091.9019029246583, 5.065647453224809, 7351.3838814116634, 3052.8591992490597, 279.70402977636695]
[7495.627180774985, 3007.8309607822976, 4.9614336390209841, 7227.0410266161944, 3034.2647461189104, 260.81295067425896]
[7514.19433666548, 2913.394637866946, 4.8485594825290717, 7274.473115260801, 2934.9675461051525, 260.13574434738132]
[7538.69045693981, 2795.576305351162, 5.0317642102661928, 7610.337573619081, 2849.6908914078563, 282.96908230596148]
[7607.149178283304, 2660.414175690846, 5.3297597382547295, 7472.5216168165653, 2725.1525110653324, 283.18317962175757]
[7674.4306644327835, 2580.9634905858557, 5.489540391769947, 7766.24785834665, 2715.3580788473901, 295.24529935385726]
[7751.639788395045, 2511.045027161271, 5.5978986247076108, 7792.1987109793081, 2729.7600643473861, 292.08023543741501]
[7821.795155376865, 2457.626971844488, 5.6631912152863606, 7799.5005229640419, 2630.7447864453038, 278.27249368654986]
[7888.060848930248, 2412.6591844331274, 5.7083002206168647, 7983.2575403569854, 2718.9866167059072, 231.44931401929742]
[7956.151351750157, 2370.3393651273145, 5.7440089561852572, 7857.2959277355249, 2846.8242047229433, 276.54849784515534]
[8025.487427301614, 2330.291360798496, 5.7732818364027549, 7924.7767444472411, 2831.9176820783455, 279.25830507900849]
[8110.289785695592, 2284.598440083049, 5.8035548133356532, 8239.0026824157158, 2288.7069516026727, 338.99473738231535]
[8188.875517645404, 2245.0903194869697, 5.8306851003852103, 8288.0117402365777, 2251.2009798317517, 327.17378503383031]
[8263.084666444513, 2213.815634642745, 5.9553539388715242, 8308.9174554702295, 2348.5041283627206, 254.63245213132748]
[8340.197649599666, 2192.5162180253224, 6.0647928089600747, 8438.8002613651443, 2222.7918557766593, 106.31599211093042]
[8427.197108466375, 2177.181492298833, 6.1466540757558121, 8520.734459273981, 2200.8952193861887, 191.44803971054782]
[8515.02060716715, 2167.7467389465887, 6.2013203700130743, 8553.6497042408209, 2170.5366913837215, 238.30014772067165]
[8682.890743648726, 2159.675674321835, 6.2605408666918603, 8738.1190955398506, 2159.7889476149999, 155.77429182013879]
[8851.380533513686, 2158.5719018510003, 0.0051110454842917099, 8831.9039312145869, 2164.3152776759734, 11.100209165831798]
[8971.519770504945, 2159.919485085706, 0.015383674566838172, 9028.4367939547719, 2189.3131868416312, 50.605444146862645]
[9067.685158414735, 2161.7093565557016, 0.020466010247092447, 9064.0341606425154, 2169.1043996104713, 130.53968516998401]
[9147.938152733826, 2163.513482635574, 0.023349859818245264, 9148.4663096222048, 2204.8850528284315, 152.67370813208524]
[9227.980540933013, 2165.5098603101264, 0.025355638728964409, 9257.2897161084802, 2202.7251207202994, 138.15321253917023]
[9300.112505361783, 2167.426002072517, 0.026661710705071794, 9270.2839538156513, 2053.7360264599429, 242.06794153787141]
[9372.272569779972, 2169.4236517211452, 0.027618851517520904, 9323.6453884876009, 2111.8443898194228, 283.59239423689252]
[9452.413756551668, 2171.711631509288, 0.0283762141937265, 9396.3267996965369, 2119.9120829011044, 187.10671072255911]
[9532.39686563113, 2174.0480428372052, 0.028883260500469903, 9494.7408742940243, 1989.4880488404219, 223.35065789957844]
[9628.678698243042, 2176.9047665124563, 0.029324310993190512, 9605.5526123314994, 1951.1411461271628, 202.39034023651772]
[9708.679342791938, 2179.306336061808, 0.02953012789535997, 9681.5878434004899, 1990.7059937918352, 212.21297857209669]
[9788.944846309249, 2181.7280804962766, 0.029691408715963735, 9775.5274993692965, 2043.9323223633176, 116.60276258037027]
[9877.120683775927, 2184.4003821906626, 0.029777940845588949, 9852.144626538271, 2085.2443079452737, 106.90893399811711]
[9965.342821246268, 2187.0787729787326, 0.029807729629638811, 9926.939703745189, 1976.9198833605951, 140.84952804344118]
[10053.34112554702, 2189.7529122598344, 0.029746910345768506, 10017.48675512023, 1984.0029290322325, 117.96704886700222]
[10133.4665130158, 2192.182138687292, 0.029657219865150911, 10116.431420015371, 1910.3670720733362, 233.27202374423877]
[10213.709555709394, 2194.6048170267118, 0.0295153363545483, 10162.575424276451, 1959.1672837696608, 176.89703212487515]
[10301.829602406224, 2197.247588533067, 0.029181317849812614, 10228.572335733612, 1964.4587146129968, 175.13159703971698]
[10374.069859744859, 2204.497567823627, 0.17064745052131933, 10291.013155240249, 1974.4414833044175, 151.81013762622075]
[10451.607269399407, 2224.284668714864, 0.32775554985198851, 10327.681510090049, 2210.9663340398865, 156.9483427792587]
[10532.124451745758, 2259.7306751427027, 0.50055970681050643, 10527.655347668466, 1935.9096152234581, 31.461010316735209]
[10641.475502159668, 2340.230802929794, 0.76759646085770394, 10611.762620676203, 2051.2381328136466, 88.57516880703254]
[10699.32726907823, 2406.617059949603, 0.9367040598159847, 10687.904150651724, 2104.3174540440386, 67.594191508488265]
[10742.63653130138, 2473.972036233249, 1.0545406661203098, 10702.090760707384, 2202.393746405985, 73.23141379963603]
[10785.654236833225, 2560.1628815555728, 1.1537551769041028, 10716.098007604027, 2257.3673942438199, 90.224036423459125]
[10815.740842933916, 2634.2683041923974, 1.2120147785121917, 10713.913581089841, 2328.4457693856821, 92.912160662766141]
[10842.157777462933, 2710.009132622214, 1.2549605919261879, 10802.080900228169, 2405.1599831547123, 88.374091697644317]
[10865.776911469113, 2786.78619044847, 1.2869838897743653, 10832.66439520641, 2487.1843230604291, 89.694618838681947]
[10885.0934894801, 2856.166721029427, 1.3089976530121754, 10849.841723981895, 2555.2441970044547, 90.502508583786067]
[10903.13603516965, 2926.2252733002642, 1.3264217751380851, 10855.549001066669, 2627.7029429534482, 75.61895322921491]
[10923.62330336084, 3011.8261372295137, 1.3431216208580421, 10860.755713455803, 2714.8161848556438, 95.890717770529037]
[10941.172569614431, 3090.0683157140406, 1.3553465642511906, 10843.302034623763, 2789.8937761059979, 88.238489608522343]
[10956.224592350558, 3160.72200812925, 1.36481946544951, 10871.151810995018, 2863.5684810360644, 84.756605001369024]
[10972.170000474573, 3239.248402654647, 1.374584283870613, 10857.32454778562, 2917.0430786434281, 89.321393374846068]
[10985.835011624264, 3310.2607587035036, 1.3986625180587351, 10893.761328500226, 3004.3042905690295, 81.084474084616843]
[10993.104122776644, 3382.0833012805765, 1.5400218282392502, 10924.800158795728, 3079.0144832613319, 90.070717083481327]
[10989.236144788692, 3462.0472329776985, 1.6970853986513752, 10892.831544779106, 3159.842004143311, 90.232266153344042]
[10972.891492013367, 3540.4857941059645, 1.8541742104143488, 10922.910415987186, 3240.8240803091235, 94.904500709177398]
[10947.850334398334, 3608.0602967673767, 1.9955437761884285, 10876.288644386124, 3308.4806601422392, 108.51658102333408]
[10909.20609278744, 3678.141991882896, 2.1525948994783088, 10872.489044531048, 3378.4463310815763, 94.470933575920313]
[10860.053594781744, 3741.3530294385337, 2.3096361690502301, 10881.880134172685, 3445.6749684532979, 99.474579037082322]
[10807.778648554799, 3791.1060502707955, 2.4509721200555674, 10780.650208144341, 3491.1826560853165, 156.44082719613718]
[10735.32385426913, 3841.0565799078654, 2.6236621067644164, 10705.322598152299, 3546.5317269029642, 156.91218719567883]
[10655.457000424707, 3878.1705327390796, 2.7818698454612139, 10644.144343331594, 3578.3243291970352, 160.91405444002112]
[10539.711650142603, 3910.7148477870223, 2.9434097599617783, 10587.299712801811, 3640.1293471367976, 179.6588715796137]
[10468.464531159843, 3922.04129462371, 3.0211975851050159, 10511.84439159021, 3625.4230421501611, 179.33323151399355]
[10388.694779027888, 3928.4478332699478, 3.0993723971769733, 10435.83138237073, 3808.8326772961368, 162.37976083858314]
[10308.396195048908, 3928.6328691728586, 3.1792064226597705, 10344.227938209962, 3927.8254174293193, 168.47686967547693]
[10079.790514263157, 3961.2090481662135, 2.7728571010113665, 10131.713159007701, 3963.9221922456632, 160.64197571819508]
[9818.609573997976, 4177.468977281989, 2.1801796044627593, 9918.8584281677977, 4123.8928722773244, 124.68167126266019]
[9701.855196192855, 4387.383758297617, 1.9956038493079873, 9821.3845403981195, 4286.0148547212129, 115.28100981965008]
[9633.656110390388, 4558.666984282087, 1.9042726188041592, 9643.0950090037677, 4510.2779481765319, 108.02412222946182]
[9597.90627813276, 4698.353042772277, 1.6904071831503171, 9595.9855878834733, 4643.340486253077, 97.433832219778679]
[9596.001212327144, 4802.423496834976, 1.4861406289505241, 9495.097137179835, 4804.5823650676375, 81.807814798996631]
[9613.012291488352, 4896.937776641284, 1.2975177154834125, 9582.3634361412951, 4886.8131016271091, 78.565065723426628]
[9643.96134217664, 4979.439895583204, 1.1245978209290379, 9652.4736815042852, 4969.8931863841217, 70.413810671301974]
[9683.726613230016, 5049.070336992935, 0.98308805231439711, 9716.8930518838843, 5029.6552666241796, 60.868911143850752]
[9737.045969503213, 5118.983153394589, 0.85796236732832887, 9669.5038105480835, 5102.0164138193431, 77.806038113288082]
[9792.35662294551, 5177.04262190926, 0.76163215099374137, 9744.181319855159, 5158.0504650837074, 70.834533178347172]
[9858.911872878361, 5234.6024210815785, 0.66289208023196255, 9915.8532474852182, 5039.8838375497617, 149.79001291908881]
[9917.6403147858, 5277.084340600681, 0.62646576192384051, 9958.3440864641398, 5036.7024014764747, 163.14401760340482]
[9995.174298486447, 5346.346444800096, 0.83053622391154847, 10022.54725746433, 5264.1974047295025, 53.740824840515714]
[10048.717932623513, 5416.299214955339, 1.0032026204247881, 10098.458366355726, 5316.5423935712333, 63.873460811771558]
[10092.46454512551, 5501.851725891842, 1.1915491429835474, 10190.155589723583, 5401.8442564403467, 67.079089566937782]
[10119.410699048623, 5594.000255701383, 1.3798858947608998, 10192.552870944166, 5475.9128764216921, 86.598559665582627]
[10128.560312037445, 5681.514834514044, 1.5525544145776455, 10158.767486658757, 5572.4541018023474, 95.689125992559909]
[10122.524613178019, 5769.406212183983, 1.7252801088573018, 10176.311092364227, 5672.4770222080515, 99.72919103578451]
[10101.46925298289, 5854.939192686959, 1.8980159824050189, 10102.037649117521, 5754.3093666349887, 113.86203334798593]
[10069.783674896624, 5928.589671401923, 2.0550633420747682, 10101.575672422496, 5828.0070009944684, 113.0071876044403]
[10022.26019203671, 6002.541863313536, 2.2277613039470787, 10028.675275808388, 5899.3737848296332, 115.91958991961212]
[9962.641145810812, 6067.349553772405, 2.400457089085775, 9978.2818350205416, 5957.7337572397364, 147.35646703768737]
[9899.434378708827, 6116.6332782767995, 2.5574533311005467, 9924.5661836493091, 6013.7563477784979, 156.38976864429941]
[9822.021308650625, 6158.641055109416, 2.7301109104968249, 9806.7394201681782, 6026.8298937453492, 167.64530679517074]
[9738.516659998291, 6186.724792824831, 2.9027672152307749, 9791.3518960557467, 6062.8660286230497, 177.08336961024423]
[9651.546956521126, 6200.043101985168, 3.0745137787558536, 9593.3354681968249, 6030.4201955174694, 187.41996003078791]
[9563.334729175594, 6199.633218424563, 3.2079714727668618, 9570.524521944084, 6029.1696633942956, 192.29989492864135]
[9475.895359014583, 6189.536331522163, 3.2978501306338464, 9553.80890180393, 5999.6255733385233, 189.16676344812942]
[9357.943149757652, 6165.7257711515795, 3.3754860843372687, 9426.9698209230555, 6008.6305959351748, 191.1272534257896]
[9234.010975850942, 6132.64843917529, 3.4235660573512496, 9278.4053550936533, 6122.8553395187319, 175.14688998378494]
[9073.247792454868, 6082.6640729921455, 3.4571236594732477, 9051.1582526598195, 6236.7686377324198, 166.49029343374056]
[8906.178284602767, 6026.239263217139, 3.4741356034079649, 8934.2531136533762, 6133.2073101712049, 172.39596951902342]
[8785.122537616951, 5983.86392075374, 3.4806961822838387, 8836.7407548224437, 6137.4479840161221, 176.78661495176345]
[8686.905917537724, 5948.956516089018, 3.4840605595655365, 8820.3597619754091, 5941.0533154862151, 183.59083960482013]
[8581.260860647972, 5911.071759768714, 3.4864451900959383, 8687.5448216123059, 6046.4017299702573, 179.44112775252194]
[8422.865453233617, 5853.862933007758, 3.4886211993251046, 8553.3908559520605, 5824.5254786683163, 205.90385111765752]
[8272.029357479456, 5799.113151783558, 3.4898218227389655, 8416.1309156208335, 5915.5516865444815, 191.55602326113629]
[8045.294515208519, 5718.753765522163, 3.4191725512422693, 8203.8826222731841, 5770.3777527528055, 190.67625427220449]
[7785.082655955578, 5672.576678075768, 3.2479000500280955, 7981.5081324203366, 5778.1567842004333, 181.11398386895164]
[7521.241652406322, 5652.535310170643, 3.19618021449004, 7633.4513945761082, 5646.5655875822449, 184.23444933059289]
[7272.9651799618905, 5641.150639757282, 3.1806567141251123, 7503.1394364107891, 5691.3417494534306, 181.41506100542233]
[6936.416342980884, 5629.172437306437, 3.1743724870513175, 7213.2274958728431, 5649.4427946692467, 182.6668200690572]
[6703.995818076871, 5621.656003117505, 3.1730244716318681, 6831.7287928566675, 5625.3698635824976, 184.08535956418092]
[6495.647348951744, 5615.109847977672, 3.1724387002293022, 6773.2856462822538, 5632.8741113456181, 182.87952149878333]
[6175.037045243021, 5605.225338194148, 3.171844387071324, 6527.6848111075315, 5607.3480648575478, 182.21661888163305]
[5974.3334464413665, 5602.857267233051, 3.1145809390898029, 6133.6554591925769, 5603.3550134406951, 179.42718027752034]
[5782.251345668985, 5613.356572409146, 3.0651997698165161, 6123.5036081878989, 5599.0045958330975, 177.31602187320308]
[5462.808168164588, 5643.983011514289, 3.0324438702354097, 5899.9025488359102, 5602.0047454786245, 174.91513604166084]
[5247.605979543834, 5668.661602827092, 3.0228342483255779, 5446.9350665260081, 5677.7220492889019, 170.08031058290535]
[5056.138081687084, 5692.041976666261, 3.0213434192815165, 5278.9012010069391, 5511.7124976342629, 176.92889450801152]
[4785.2781139554345, 5722.235756168255, 3.0366571653011181, 5140.2710595755789, 5590.5645471605239, 175.31121422745153]
[4514.053110377261, 5749.89520807508, 3.0420418000668263, 4848.6437138822184, 5534.1422448343319, 179.04160738271446]
[4290.633976482143, 5771.9300570839205, 3.0439875466267745, 4749.5977436685462, 5467.8625941493974, 171.84355422757653]
[4098.698443573491, 5790.58786948863, 3.0451572413377153, 4549.2333970571008, 5500.4506373749073, 175.96472470769504]
[3908.1824048932594, 5773.15024692756, 3.4114054075289899, 4387.8154682974482, 5487.7899979034382, 196.38088088808641]
[3717.5179171934524, 5690.309103046744, 3.6684257613899969, 4042.9055965666739, 5511.267463210479, 207.05392979807951]
[3554.8402661239584, 5573.528526598267, 3.8925255915241808, 3636.1974426684906, 5867.0281278388102, 189.53303018641807]
[3404.1428066972157, 5313.672644708072, 4.4527787441527096, 3618.0228440546075, 5477.7211873576907, 236.16987100864796]
[3376.3237182525863, 5155.818687466046, 4.6066363799744616, 3595.2131615307326, 5590.6422360239858, 258.61857354563023]
[3367.731155882358, 5028.046028698299, 4.6775972438988944, 3536.6726479288732, 5438.3219418044619, 261.24408518438651]
[3366.2473281014577, 4923.822706316731, 4.715857396980832, 3563.4639587340816, 5194.7581111452437, 272.46228853563861]
[3368.148356097378, 4819.764667979368, 4.7433246594563254, 3482.9739966060761, 5174.4671468846309, 272.02373889309445]
[3372.1214935951634, 4723.498922211894, 4.7626758203363355, 3448.9530472997576, 4932.7484481080619, 264.75689555873453]
[3377.770365439891, 4627.4734197857215, 4.778641902248042, 3451.9319491773585, 4807.4678285991195, 271.14379729199004]
[3383.5960960062407, 4547.557193266956, 4.7910901526791365, 3462.6004494823669, 4780.1196247103189, 267.77819243224639]
[3391.3897714972163, 4467.556392977892, 4.8620455269853791, 3474.2683120819543, 4708.5241036252328, 280.55054277787588]
[3409.5468174411517, 4389.4858006324, 5.0191789656431247, 3461.7110662258606, 4653.5448959689456, 287.57566157903506]
[3436.119971693083, 4322.534129065889, 5.1605996166247614, 3463.8856483365448, 4581.0270095336991, 287.48255183228247]
[3476.3791042096686, 4253.352394026964, 5.3173403126543279, 3475.5911469715684, 4238.8118846294619, 279.75153944304901]
[3531.753617955009, 4184.93092673541, 5.4605894560826913, 3522.2644050228923, 4311.7274595760027, 281.60283239384262]
[3638.545760806615, 4088.3226951454076, 5.6229716878101943, 3583.9220870211716, 4209.6650954332827, 278.54334650973249]
[3927.8890894007163, 3917.2858407156355, 5.8937184094314023, 3884.2820381259321, 3922.7384421346333, 350.73298748489646]
[4171.510999103641, 3880.1756928830287, 0.063962803670811433, 4027.6220144457488, 3944.8299374683711, 143.53149329952609]
[4459.001582454552, 3949.7209091619934, 0.28593940538955603, 4249.8870330806039, 3991.7128497855729, 131.40609520770565]
[4576.300834358976, 3976.4931954849203, 0.17141521539406399, 4340.9796142816404, 4013.2433682768019, 153.03968851992843]
[4735.4760579537815, 3996.195429470356, 0.083383336346989523, 4445.6795457639182, 4039.8591972613958, 165.33140394749597]
[4927.610614204262, 4006.411006661776, 0.028409201328241398, 4580.5250278109643, 4069.9852957553258, 164.83887984097251]
[5120.056124010481, 4008.889022504013, 6.2824719319650635, 4945.5578123517116, 4018.5476847147293, 182.57293667430082]
[5296.47181117702, 4007.2519202660574, 6.2652285467885847, 4936.9107858851357, 4021.5874393123549, 164.0515458642827]
[5545.508161385316, 4002.0368588486576, 6.2685990895264636, 5318.2451128868706, 4013.5425395596358, 225.15582918890874]
[5738.101199029041, 4000.2639148193393, 6.2771856364399747, 5523.9763502767464, 4016.9279140035596, 263.21644323570678]
[6026.839899224203, 3999.520261783991, 6.2820070638212728, 5655.899608796919, 4033.6591937377775, 188.12224183952003]
[6259.363424463236, 3999.553164772942, 9.4639474280772194e-05, 6130.1442427196907, 3992.2440256596233, 247.3853193401132]
[6443.846093344058, 3999.7224300498774, 0.00046768344984225707, 6111.3507911595725, 4014.2182617853664, 198.33861483230353]
[6804.303468712888, 3989.5044997228497, 6.0792644000905964, 6669.8994374959602, 3991.6622003173443, 328.34646710792566]
[7026.202952441792, 3883.1347107048005, 5.5920141945739124, 6891.2821996436032, 3883.4656586269894, 321.57455810945754]
[7250.5319978968, 3583.636930670184, 5.2075795367015969, 6943.7925598087349, 3530.3341917494431, 282.85733041881934]
[7291.016175992547, 3505.4039057761374, 5.1723457564746749, 7037.5555939723836, 3434.7000240102357, 290.3643764990511]
[7325.823126318687, 3432.9914712750565, 5.1479938257666253, 7166.1798680511292, 3459.2809588335317, 299.11788043035762]
[7365.344664495857, 3345.5567507065043, 5.1252305669420313, 7175.2083498792845, 3343.321128199334, 288.49010687043636]
[7403.8520263808405, 3255.580013716846, 5.1070294149016586, 7205.442538073683, 3232.9894919929802, 293.05113178048379]
[7434.248203308566, 3181.3354106177685, 5.0934879278583614, 7142.3211736526218, 3107.6562781062207, 288.64074303394602]
[7463.589272195559, 3106.8086425015963, 5.0795325634276516, 7263.6043992660652, 3114.6362232572051, 289.86182769208631]
[7493.684005160404, 3015.176366492469, 4.9719388499002637, 7464.8099790147771, 3189.4305300743949, 283.7562381723713]
[7519.776351997217, 2873.078274042436, 4.8744735521402696, 7509.7896568071947, 3072.2020909972507, 274.15462544411224]
[7549.965396111273, 2765.100121108334, 5.0943424501001289, 7526.1507586624984, 2953.5023185395157, 284.26149111878527]
[7594.115407068423, 2679.667141470901, 5.2827777076240103, 7562.1168971960033, 2874.2316746475431, 293.99573106331599]
[7647.464649673772, 2609.6908415701478, 5.4350816398760893, 7651.2093642495884, 2808.7533060420878, 313.27696174380998]
[7703.619720773216, 2552.504745790165, 5.535837589679061, 7702.420766380822, 2752.2468913147204, 328.82818627652438]
[7764.632121640211, 2500.3661443303754, 5.6110755180949097, 7775.9895414522498, 2717.5827213583261, 336.00915484951446]
[7828.825915705697, 2452.4240591850003, 5.6680939280725582, 7826.272545997319, 2683.911508340535, 270.09959211733332]
[7895.23516202565, 2407.8327991736032, 5.7121504760715878, 7895.5465221299182, 2693.9311487757191, 300.03689603504711]
[7984.153658517268, 2353.665722329475, 5.7562905647037752, 7988.5168646922393, 2666.0999052986799, 250.4877772211465]
[8047.042253569836, 2318.2136647534294, 5.781218545678608, 8043.7293746536006, 2628.6576778446411, 253.02394034502751]
[8110.821484500656, 2284.2105044201076, 5.8036224749965424, 8097.4773201389798, 2615.9488775936411, 234.35427592248627]
[8175.138913875624, 2251.7191312755886, 5.8256631399840701, 8147.6557905031668, 2598.029963939357, 221.34845205953624]
[8218.909276719896, 2230.87249164181, 5.867804874966895, 8185.0015990300371, 2600.4338017571872, 210.37242930847285]
[8278.932846089203, 2208.5753449239037, 5.9805942008217032, 8235.5299658792737, 2599.6800470858898, 188.39689100620259]
[8364.482039006576, 2187.345957972985, 6.0904135809091349, 7964.6244391674472, 2275.07969255851, 298.08654349359449]
[8491.373904493097, 2169.687175370066, 6.1883130666904789, 8224.3384712644674, 2419.4438907177123, 206.90704689260605]
[8603.444739471726, 2162.13410498319, 6.2376570306595172, 8113.8985177087688, 2156.3658658564286, 125.82614532973791]
[8715.810729299434, 2158.927754087439, 6.2673498543044186, 8221.2811713751398, 2159.4477149542054, 136.03069889679801]
[8884.226616411566, 2158.690573508011, 0.0081765397657056448, 8413.8581706825826, 2222.5682838671041, 159.54353464866384]
[8972.169852113402, 2159.8165913406374, 0.015126033133620894, 8465.0318452591673, 2206.0720564964104, 279.36254770297631]
[9052.35335148551, 2161.289639384265, 0.019502698471151204, 8512.546244660447, 2207.3914114671775, 179.4773229595537]
[9132.611894129117, 2163.0603844469333, 0.022594091425892367, 8535.3571046401667, 2263.2487906248543, 154.88811283245428]
[9292.853386164323, 2167.1580315801693, 0.026269403251077576, 8701.9679161397853, 2251.7218446002043, 156.88964108317492]
[9437.345435062562, 2171.2247251559943, 0.028000678438127959, 8818.8906656852032, 2253.0722035988224, 165.2065655250087]
[9557.480715830989, 2174.7490113501685, 0.028769484367992246, 8963.9300086026069, 2163.171545835577, 215.73049362700533]
[9653.75018637476, 2177.6264361334297, 0.029154964641915991, 9063.8894251053898, 2172.3549494897829, 218.11574889327301]
[9741.88280182098, 2180.2865097523777, 0.029358826520115094, 9140.9943097625492, 2140.1037707328637, 180.42175053443708]
[9830.256088976166, 2182.967847225058, 0.029501837465017465, 9212.5971306595566, 2165.7125529072455, 183.91834314990939]
[9934.224290506041, 2186.132520859783, 0.029515622066218796, 9323.8431461033942, 2154.0509950872456, 167.62173020079581]
[10014.421534962561, 2188.5735970232363, 0.029500125245545288, 9393.5993607361579, 2183.7817215797704, 157.31046290364276]
[10094.583075333812, 2191.0104658533046, 0.029429337377737657, 9492.5648009796223, 2183.7758809251054, 130.64986331622936]
[10174.899233690088, 2193.443704349829, 0.029324182258581032, 9564.1604615706474, 2181.7933936763548, 212.25975935488134]
[10278.982256433548, 2196.5755588235024, 0.028980900697810862, 9674.1112888250482, 2164.4500752466615, 280.94418086126194]
[10351.285359323008, 2200.981222025219, 0.12309033390867315, 9715.2192450730836, 2161.1381811709998, 199.20940652716968]
[10429.92096128065, 2217.11164309333, 0.28013615404987641, 9778.5678529669804, 2157.2158872862069, 162.50247800395437]
[10519.28085266801, 2252.32047007085, 0.46852339412372557, 9907.4065037405235, 2106.7515845507555, 154.4331070897785]
[10594.124078346988, 2298.7995756812084, 0.64121563150789374, 10007.685973859485, 2095.7047402059852, 194.36833504506237]
[10654.255480170772, 2351.613252703949, 0.79814562361398811, 10022.208378643441, 2212.5040610110173, 57.221229186396805]
[10714.486178632565, 2426.1341500805415, 0.97572149156680044, 10108.417955385665, 2186.6698809508034, 57.703701165131669]
[10759.296305535727, 2502.1455636271044, 1.092030810353243, 10153.180128416469, 2216.5933696711854, 66.248360934384891]
[10796.377525846372, 2582.007921763251, 1.1736491198734236, 10189.361811879406, 2282.586616352316, 69.201478597453203]
[10835.766285065516, 2687.128948708909, 1.2442780907714417, 10209.841302220113, 2399.6662836432943, 80.415807640501171]
[10857.654061449932, 2755.734718992407, 1.2762568829951688, 10225.589859768008, 2462.7440560291179, 84.521991334778008]
[10881.875134401855, 2840.5542884444258, 1.3057301402017221, 10240.380257350875, 2535.7976133153593, 87.862796987329389]
[10918.945996612601, 2988.5039497647654, 1.3403602943973916, 10515.473238026601, 2596.0405729371159, 50.093530812304785]
[10951.76813113775, 3137.07079836058, 1.3632877936125083, 10520.373886184543, 2732.9731362388461, 73.238682559366623]
[10970.940286960016, 3231.3508376103355, 1.3752184575757851, 10599.211216967435, 2806.9411343747861, 67.348350253206448]
[10987.378767377335, 3318.4638243551462, 1.4160662194116667, 10588.384491240122, 2892.7040647295698, 80.336422953063632]
[10993.402748102366, 3398.2506116727677, 1.5730235850274308, 10607.611375289362, 2974.5422190350691, 83.713742375181425]
[10986.887655351802, 3478.1386697907183, 1.7300589807147844, 10604.459840477291, 3031.6921615973806, 93.40866732551477]
[10970.387790847304, 3548.3240141901206, 1.8713840144388976, 10668.603545820328, 3048.5591054988718, 83.075307549267961]
[10940.75401593366, 3622.543514053433, 2.0283880239095335, 10610.064839919136, 3178.8770239083942, 91.56168043534997]
[10895.119057393811, 3697.862948967088, 2.2011135192601285, 10763.901281314147, 3154.9673470496209, 85.939465402079676]
[10848.553490106598, 3752.9493745503087, 2.3424277366005271, 10837.188345205861, 3192.7061040685694, 78.154465806288442]
[10775.440012688383, 3815.060831676914, 2.5307906969595444, 10568.958603651114, 3415.0601357231662, 138.22251081187065]
[10713.470485036562, 3852.1548084334, 2.6718380370725403, 10514.085242696174, 3454.645346453578, 148.22073881106252]
[10639.860538787592, 3883.163969251723, 2.806986142830556, 10706.353714574621, 3322.9702129905722, 156.29760085966447]
[10586.019506397855, 3899.4683669859996, 2.8847594721376266, 10690.535575883447, 3299.1535107189575, 173.93968559538069]
[10515.60407425974, 3914.639144531438, 2.9701230312536486, 10616.61913665774, 3319.7840859658686, 175.61510019518715]
[10436.103753885673, 3924.9388230196646, 3.0523316931651117, 10526.962590228506, 3352.4813382649372, 175.56681787414547]
[10364.026381780948, 3928.824554285515, 3.1215106572300475, 10463.621144423469, 3349.2948521451103, 180.57152426833656]
[10299.738559665871, 3928.0068986611977, 3.1869484088291951, 10409.940958351481, 3351.7685013513174, 182.09976845785701]
[10235.49762703315, 3929.085118729583, 3.0612429829755987, 10354.183489117042, 3351.0127628884852, 174.35479253132021]
[10156.641702377883, 3941.664918913716, 2.9040317249752339, 10304.193682545136, 3352.0179995922331, 169.86672770942377]
[10080.545244037634, 3966.4801454485996, 2.7468361013538374, 10242.294431684995, 3361.7470109181609, 163.02059816231508]
[10002.262616636928, 4007.2753393032685, 2.573974384005842, 10184.602834010193, 3372.4642551911188, 154.52334420582639]
[9920.626147004978, 4071.731975212194, 2.3754088248637437, 10120.974830638119, 3403.4819342988417, 144.59374568298074]
[9836.812541881629, 4168.839776775536, 2.2021519996420951, 10082.756402834711, 3477.0086741379678, 133.068621537209]
[9744.39888317891, 4318.5211821037, 2.0571977090455751, 9938.2816097682389, 3482.6040318510713, 116.00095549279163]
[9663.414846329924, 4493.015874407416, 1.9579243365344463, 9707.8508875068546, 3547.0944063304551, 108.78025725001841]
[9618.390893222506, 4613.400634398105, 1.8857352355963266, 9639.2581276035471, 3542.0875782255043, 122.20993807572277]
[9595.548117991824, 4722.937465627578, 1.665822657496854, 9670.6853749662714, 3705.8602171880075, 105.7779404775608]
[9611.094468924382, 4905.6875110367455, 1.3044545660153426, 9661.253367043355, 3905.6002646669649, 90.540895361539256]
[9784.909548447033, 5179.672864826307, 0.7555069942919409, 9878.0419546154735, 4372.1080234459687, 44.492135758337369]
[10024.595683146092, 5379.2079401110495, 0.8804586782532855, 10159.511235783009, 4953.9077015235198, 71.082765730933616]
[10116.506437894219, 5546.77300734179, 1.2573734802014542, 10203.546573768172, 5089.479985588735, 88.520543412739528]
[10141.359672208277, 5704.658608857244, 1.5715412391592778, 10437.321960751658, 5391.4722785897548, 97.524523235136925]
[10133.64866562031, 5792.42094218749, 1.744370956946165, 10441.914857998083, 5460.1525498897372, 106.67853815070916]
[10108.256710825839, 5884.856154005456, 1.9329109042577819, 10402.878018891459, 5571.2885511950863, 108.37219658649167]
[10070.01049144943, 5964.290018151706, 2.1057946745490819, 10356.48300053755, 5654.7921161964341, 118.51536790929997]
[10018.715120802653, 6035.883864736863, 2.2786494052662696, 10368.410902693387, 5598.1622657370681, 114.60814954626022]
[9962.024174174021, 6092.421447362204, 2.435776352344512, 10232.524773626026, 5784.5878489650986, 152.45274234985925]
[9890.448072622125, 6143.430789154025, 2.6085564103428172, 10167.766913032045, 5824.8088708671849, 163.83635179470807]
[9818.49619885773, 6178.572810249875, 2.7656385300771658, 10083.843152300575, 5867.9151887673925, 158.42967526425065]
[9741.911090414169, 6202.018476484917, 2.9227145644708785, 10039.442852031842, 5883.2697530593186, 174.47261048095288]
[9662.602901050579, 6213.191244380707, 3.0789625298446381, 9962.410816692558, 5909.2480551792078, 177.14927202378047]
[9574.46630302942, 6212.383764819046, 3.2128242969941425, 9866.460694718271, 5885.8444084119319, 186.81526251214865]
[9494.727450114691, 6203.108808306132, 3.2961870322620097, 9803.3644908282695, 5871.8803923373016, 190.80303110409957]
[9408.24534273621, 6186.597504052259, 3.3592747956937976, 9704.5595405548083, 5851.0900267127927, 193.40230350431634]
[9322.454893403203, 6165.530696027016, 3.4020562830488865, 9621.8720209242874, 5815.4539559476298, 194.06516697514419]
[9245.373534766313, 6143.770256756167, 3.4289289245347536, 9557.8989085714929, 5805.1987988436949, 195.67655173230662]
[9161.015857685461, 6117.800391875201, 3.4494977965720577, 9468.2886780036606, 5772.4962804351844, 189.48110387391179]
[9046.851777327656, 6080.212710757999, 3.4675417158757469, 9450.2039773050401, 5963.9445093945451, 208.69618634160759]
[8767.183577755224, 5981.894267396024, 3.4872120602426917, 9184.8889305236444, 5994.5784616912642, 170.73752524780193]
[8548.671553056842, 5902.395026240361, 3.4924760773550458, 8997.2497143174278, 5855.8055134156766, 187.01098955461566]
[8428.322953282755, 5858.198873651926, 3.4939235302242615, 8892.6391292529024, 5845.0206101746789, 187.58373791432894]
[8292.824900794447, 5808.25515967779, 3.4949465637658341, 8782.8712595988145, 5843.5734592126219, 186.22237678217292]
[8134.866009184372, 5749.882593476412, 3.4956247124757152, 8536.9420635079678, 5747.9966816709675, 203.70194437487532]
[7981.3434961804305, 5702.569778216559, 3.3600374725520434, 8395.7313054628939, 5701.9888521299017, 194.7455592719393]
[7687.637369535145, 5662.742186146241, 3.2223887486919116, 8106.4485106387174, 5678.7075393379992, 183.43998856335404]
[7335.312094671559, 5642.839486442548, 3.1830948855111791, 7862.5848812363038, 5708.8121221229394, 179.27869867211965]
[7062.679553738349, 5632.688866258806, 3.1755468794214936, 7611.7120626942033, 5705.1667799229663, 178.55758316197446]
[6830.483806347838, 5625.05647321785, 3.1732046218638312, 7286.1973649378251, 5631.302307270711, 185.86043155674813]
[6646.215920554565, 5619.274891562344, 3.1723338068513427, 7013.0734995727735, 5617.1192798208667, 189.29759143035616]
[6405.807186178729, 5611.9127502522815, 3.1716485925625073, 6876.228098700326, 5611.4264277000602, 186.85951188106412]
[6093.445559917187, 5602.575947904069, 3.1706212347112177, 6632.6093378394971, 5554.701435367474, 187.9527433343967]
[5884.775166492194, 5606.425234799718, 3.0869415169266077, 6389.6963218312494, 5569.5335846170528, 175.00215420418033]
[5716.660884216056, 5618.552756058935, 3.0552345875272167, 6320.5651436307717, 5627.4305181982472, 154.89021479438867]
[5509.247923579142, 5638.795398071986, 3.0352707671768995, 6140.2445995867974, 5657.5889667361262, 165.26931685020904]
[5270.406234047583, 5665.786358708772, 3.0234170685752257, 5970.8502506742025, 5716.1864880831599, 165.376206160517]
[5094.788425437123, 5687.1787031360245, 3.0167178613089702, 5836.2891099563394, 5751.4210307590383, 164.8962718173043]
[4927.66816671133, 5706.802873008599, 3.0304107402087381, 5549.7645573633872, 5538.6455915608831, 186.43407762501349]
[4752.389381382125, 5725.601299819772, 3.0375521768680294, 5106.8419741661955, 5641.5469044583215, 171.34990532592471]
[4472.974874526765, 5753.868471473692, 3.0424548393780837, 5075.5018114631148, 5686.0556641441381, 172.68359179257311]
[4241.563242585874, 5776.583735860168, 3.0440810666734448, 4893.837738397121, 5700.1107423191206, 173.65092056773062]
[4041.6450760596726, 5792.894144006186, 3.1546446430709558, 4745.6309576284557, 5756.600682641435, 176.74001361414122]
[3846.1850368453106, 5753.044691512889, 3.5062156851975672, 4295.0478594801098, 5742.4895543722068, 198.01408490180418]
[3689.0375960960673, 5673.568227992144, 3.6998921315620854, 3965.2913426248297, 5668.8009554766259, 208.02704034599674]
[3468.179730238166, 5467.773293305822, 4.1614161150045756, 4749.202827926073, 4337.5290945813185, 280.30273314513602]
[3388.38543467929, 5242.157249849134, 4.5348886946966758, 4233.1194299412482, 4913.4330842658992, 282.9857718604913]
[3375.380731375712, 5146.800595838832, 4.612828163666161, 5226.6980974052703, 3385.617121591702, 292.24158796236588]
[3366.455527870768, 4970.7357143087875, 4.7002396988001305, 5477.9026399067543, 2985.4251087566704, 292.17773172990178]
[3367.558458830335, 4842.380409565521, 4.7379703983000701, 4796.4321566275439, 3768.6454925163707, 274.51579412778074]
[3371.1003438710727, 4746.244356078978, 4.7583752430385378, 4961.2356708163288, 3555.3058070684747, 279.02643731728989]
[3375.895959961426, 4658.192268497351, 4.7735809766502557, 4972.4462519145172, 3501.4803385082332, 277.52298691584855]
[3381.355659072709, 4578.112800764762, 4.7860073656130711, 5427.688128218696, 2785.3134193409014, 272.46723962209103]
[3387.816214674676, 4498.10250978013, 4.7990150114422612, 5177.7546829131506, 2978.8971412540959, 270.73623323901097]
[3401.03867902888, 4419.003349407245, 4.9561549159963043, 5715.3558112056198, 2329.8074192541658, 279.28131319909613]
[3426.4303222194135, 4343.122295654331, 5.1132588440620257, 5839.984085916506, 2297.0414681957923, 285.55203409063569]
[3463.4063263455064, 4272.092820034453, 5.2703609880829312, 5703.3629990103591, 2356.1226079007924, 285.4643677366538]
[3505.7546969315167, 4213.560356477041, 5.4010097965513344, 5742.5553569101266, 2286.7128859812278, 282.26553779162663]
[3560.1671941047252, 4154.938789969606, 5.5137825590903429, 5787.3623893041777, 2231.5817313399757, 272.68607645902432]
[3620.28486616754, 4101.875704550699, 5.6015930879061671, 4255.0960147833248, 3969.3947946345011, 304.42611451976717]
[3677.729074971429, 4058.397835477962, 5.665503423390625, 5087.1822548143155, 3037.0659245796523, 275.93340126665152]
[3785.700393983187, 3989.2980241787427, 5.7575467931446083, 5175.7449881113353, 2924.7235035284984, 265.18764559646479]
[3906.5035579231776, 3926.358645197047, 5.8491269585344803, 5256.5046583445364, 2829.4243081166987, 259.97768541781556]
[4028.722979450537, 3887.470557967711, 6.1003954178841298, 5293.7046793424224, 2827.4385387338539, 239.88698778920988]
[4156.342685951464, 3879.322363953719, 0.042306949091801813, 5364.8374199767204, 2869.1985795727223, 197.67865838537247]
[4306.837069297067, 3901.3595074650566, 0.2389280587350899, 4948.5191643257886, 4019.8355244340291, 23.657178792792774]
[4467.364276005263, 3952.370704318372, 0.27697392917593289, 4728.7863133900091, 4729.5355195229085, 30.510679296455422]
[4584.747231293716, 3978.3057649935954, 0.165636069364516, 5112.0148791567563, 4141.3652233924649, 130.06642288308041]
[4680.021396169752, 3991.3083684574162, 0.10799513219663835, 5169.6908423757104, 4165.0621063866411, 157.17088956585624]
[4783.86694208532, 4000.2592541102445, 0.06546903606320395, 5246.4795906916561, 4154.8198914100658, 169.57657368241993]
[4912.118149138928, 4006.370103886988, 0.031132477933186284, 5362.5596426285247, 4147.8044478290503, 170.01685936145915]
[5032.372587727616, 4008.8347310120866, 0.0099049093261218048, 5391.9380812854324, 4148.0957061027475, 168.94323854972421]
[5160.8881919988125, 4009.1171345005077, 6.2772551687458353, 5504.6431426587196, 4066.5865356821118, 181.15549589767667]
[5321.103131048744, 4007.017086650663, 6.2620486613465998, 5582.4969828775284, 4087.0504273434285, 180.26970570183852]
[5497.780793873486, 4002.863702314366, 6.2643317975334911, 5647.4243948122421, 4157.6628724569237, 182.55985330248021]
[5666.019439882159, 4000.7613648779484, 6.274316595237587, 5741.9409604330322, 4103.2004844416306, 186.39239542305154]
[5834.426190721696, 3999.8547121564343, 6.2792215267266647, 5871.533635017382, 3999.747103500873, 190.22308621666778]
[6010.902933681728, 3999.5346644670376, 6.2817039905898246, 7069.0652502971798, 881.225781719363, 317.13748448275015]
[6203.438702883355, 3999.5311024719913, 6.2829562648542874, 6615.3540802298012, 2305.1479601932911, 252.52756573063039]
[6331.841973921848, 3999.6187999517533, 0.00018289775739187383, 6620.667191673524, 2340.9798256242975, 236.48630638992694]
[6468.1276914273785, 3999.7636253413475, 0.00035743476004579074, 6539.3757216272616, 3346.8337765940073, 303.95437755550097]
[6628.463571388812, 3999.943429744198, 0.00034501510953983841, 6599.4413673396266, 3999.9139965260583, 224.21560668907711]
[6881.474230946007, 3967.1675844702263, 5.9219137263706507, 6847.2176878989694, 3470.176283788845, 273.29862847188423]
[7163.7314173269315, 3727.288749651075, 5.3146047715338804, 6906.2957215917486, 3494.5028483525166, 274.16330122774502]
[7235.372585558905, 3611.322086876285, 5.2230642588144276, 6949.705602845178, 3384.9069260231836, 273.67403184854618]
[7284.127182162019, 3519.354872423537, 5.1777893828720343, 6981.4669339772563, 3311.7032298445883, 270.24775579075083]
[7329.406089213605, 3425.4163849289907, 5.145644442218936, 6989.3286741373186, 3180.220433084286, 268.49246715355474]
[7368.844718107302, 3337.6582480381217, 5.1233885299496471, 6992.3575596279052, 3122.0498501360821, 270.53371858374794]
[7403.386737557919, 3256.699127669856, 5.1068145586653388, 7010.7630948999176, 3055.0487100946607, 286.1749345745211]
[7439.711046200765, 3167.584337983456, 5.0907677676311094, 6640.453697193775, 3059.1766856100567, 227.10261053580101]
[7491.576759721508, 3024.3472128688522, 4.9874535219125429, 6762.2350070358425, 2886.7203554990806, 246.40907292030545]
[7530.464475271398, 2827.673207454791, 4.9711704929894021, 7501.5990881529651, 2880.7042479699594, 287.63191560742064]
[7586.557166525568, 2695.220711035438, 5.253791802985246, 7525.5028600967298, 2751.2025151313646, 287.78424284660798]
[7643.190633491807, 2617.800812540118, 5.4240408727442695, 7541.433648092162, 2660.3705124415455, 294.19819168303434]
[7698.793103636628, 2559.9941328109308, 5.5265741500903873, 7464.4521738842859, 2603.1963382017007, 290.35908745766011]
[7759.0389774174, 2507.5945734677375, 5.6029270073002291, 7493.6175089516219, 2543.2718490196007, 283.44780099202563]
[7822.849562100255, 2459.1394452810205, 5.6607650491728938, 7779.5232537265902, 2598.317765461451, 187.88808534713482]
[7889.057482945481, 2413.979792890662, 5.7053853605327305, 7879.6756161986868, 2596.9102632139497, 260.93806303008262]
[7957.025970596456, 2371.470971306002, 5.7407122206644479, 7851.090963285953, 2538.6048415619289, 224.37177512808952]
[8019.409098898861, 2335.055307277048, 5.7670425116751485, 7948.3697402943053, 2474.8318976923774, 251.49102199438195]
[8082.674939859605, 2300.1765799981995, 5.7900867919067878, 8003.9523953943526, 2419.1974141688829, 335.94831067494437]
[8146.662828057565, 2266.727894644896, 5.8117368998759407, 8058.7050016251651, 2432.906707810137, 248.21329571392127]
[8211.556151368983, 2234.6664584326986, 5.8479498068899538, 8114.816526008457, 2418.6878888083502, 222.7958016456013]
[8294.080819322839, 2204.1917955904255, 6.0010827124030586, 8203.211511845424, 2203.5996440126551, 175.58286241836296]
[8411.737688647278, 2179.1151304717814, 6.1324082172739232, 8318.7705296644526, 2229.0924917142561, 168.64513233511724]
[8523.41720979786, 2166.6340706118376, 6.2042509227535563, 8433.8254763470813, 2202.5282131354893, 210.08667813803547]
[8611.34224535221, 2161.408173175475, 6.2398410841558709, 8485.5560456897583, 2240.6288690386477, 185.46352455624839]
[8683.595475431655, 2159.089505096314, 6.2600901101784769, 8549.4257356315484, 2250.1101198508877, 174.9325286890062]
[8779.73938654236, 2157.8851392011356, 6.2786071245483202, 8677.1812596391792, 2156.3639134566074, 220.74985635573813]
[8924.012605556452, 2158.621391920437, 0.011820033142679438, 8776.9090841416182, 2206.3466601841428, 184.08625448934026]
[9092.28984053697, 2161.6192835041675, 0.021472832167739105, 8980.37379417794, 2204.1777418281608, 89.587022869775964]
[9188.464252664546, 2163.8949862250997, 0.024530882562081437, 9089.870054528139, 2191.9536286241969, 135.07359586044464]
[9276.608597152861, 2166.1938707263234, 0.026411130154057501, 9173.7780730537997, 2200.9884314040128, 128.71781802699746]
[9364.648126630318, 2168.6283117233943, 0.027689717743859501, 9261.9142831219306, 2184.386415980136, 195.57892600980222]
[9444.886815588561, 2170.9269108268472, 0.028528555612937417, 9311.683875180719, 2204.4031816316947, 173.31354588893666]
[9524.910931171979, 2173.27779858129, 0.029101762968097161, 9419.426555969414, 2148.4538673203251, 229.10928926423728]
[9605.227895117723, 2175.667790476277, 0.029561970889393843, 9503.2703910329947, 2223.7063078292531, 133.60030301157769]
[9677.195602605736, 2177.846493510114, 0.029805218271167805, 9578.3879787554888, 2219.5932333832302, 152.01442697626962]
[9773.43462790032, 2180.77496087285, 0.030074702432268865, 9674.7432986394851, 2203.7939188124851, 163.53037425221726]
[9853.51071922979, 2183.228587458119, 0.030211007347390528, 9750.6731562814257, 2223.3029673703968, 181.34056209141644]
[9933.62401322378, 2185.6910032250908, 0.030309134112731589, 9811.876463141738, 2218.2302924000542, 166.64129806084364]
[10005.856824240667, 2187.914276034877, 0.030383062795870577, 9880.7936464849954, 2224.3589980993233, 169.59238027271471]
[10085.870493467337, 2190.3844116398077, 0.030396305398648193, 9974.749290318583, 2156.5156012666944, 266.60583019944511]
[10158.19520911244, 2192.6126845681524, 0.030432399302160608, 10038.046193441536, 2094.2101322025046, 163.4820808958053]
[10232.351900492284, 2194.8861816008375, 0.030539472492098981, 10117.117038354625, 2073.895648385731, 149.80161228129262]
[10304.49116305377, 2197.1223505621424, 0.030414468005266735, 10168.444175161798, 2106.8667169419746, 183.9202134049458]
[10384.221423742547, 2205.868685168707, 0.18745085385746171, 10321.708545638414, 2205.8405333325927, 302.71058564090782]
[10483.841677490334, 2235.5903939014893, 0.39160114277818137, 10407.465663130904, 2233.687047637769, 22.80174953202631]
[10620.006328550662, 2318.8740989270996, 0.70567463825447552, 10521.10666725491, 2203.4761522602535, 107.97292943029183]
[10676.674666571429, 2375.432776529135, 0.86269300846572339, 10576.720006007534, 2316.7306876517059, 60.173455172865353]
[10724.092937611536, 2439.824617091128, 1.0015964594819793, 10625.417983067409, 2341.9163164238698, 58.870075859741895]
[10763.590691015892, 2509.442640695491, 1.1019390869291603, 10662.293008609631, 2444.138657909411, 54.424116242398895]
[10797.024838870055, 2582.2993855731056, 1.1747671307889305, 10695.436480730472, 2543.7302114212985, 61.224320453732147]
[10825.826072272648, 2657.0785718043626, 1.2280600268123252, 10723.116698073192, 2594.4625579145941, 69.721205722987051]
[10851.139960485045, 2733.0449034746193, 1.267448376696847, 10723.913009675274, 2688.4098629483474, 70.747502416632997]
[10873.841580495084, 2809.81536051936, 1.2969303707834121, 10735.255738251568, 2767.9563308728475, 69.92164696907173]
[10892.612138499606, 2879.5682010044884, 1.317389049539597, 10737.390284539066, 2860.2619345328112, 70.818412860210231]
[10911.930075785942, 2957.258217441256, 1.3352069223050527, 10744.551476503195, 2935.044832526552, 69.010319615616069]
[10930.038837247042, 3035.3506055254315, 1.349393887705393, 10765.24865880407, 2996.3278974048562, 75.811640033011102]
[10945.4838172086, 3105.8759617360834, 1.360040824675788, 10864.619016754245, 3033.4745857289163, 66.863223336585833]
[10961.797473898887, 3184.297074137487, 1.3704268130113122, 10786.01168740599, 3158.3023411798654, 82.82973816686976]
[10981.824722714398, 3286.504442336107, 1.3836646273318733, 10833.019897329426, 3237.7878812518484, 79.70561652003768]
[10991.467536604849, 3350.3725227720624, 1.4802202673913081, 10888.403515581302, 3266.6468128522083, 81.975684176965927]
[10991.807194372981, 3438.4240413577063, 1.6529678909789491, 10843.829574987092, 3369.5804592962372, 100.39790730368115]
[10980.808403833613, 3509.6608691287315, 1.7943291665279715, 10897.636847596457, 3442.1479838920636, 93.557810152008599]
[10956.98511859911, 3586.0489478027175, 1.9514149641387679, 10859.527413308422, 3530.4742078746544, 104.06373667247743]
[10921.485370952001, 3657.819008310949, 2.1085149058060493, 10821.036260008186, 3631.5872920537963, 112.24570109719656]
[10875.200859530998, 3723.139312728597, 2.2656037954363755, 10841.040963500025, 3693.4717633451437, 106.27111399965067]
[10819.264673703918, 3780.411398298256, 2.422675177763594, 10681.860231774735, 3666.6979677707113, 158.93225761151444]
[10741.351355116407, 3836.572086948891, 2.6111353534431898, 10613.033986647517, 3724.4256490755015, 161.94805457075242]
